%YAML 1.1
%TAG !u! tag:unity3d.com,2011:
--- !u!114 &11400000
MonoBehaviour:
  m_ObjectHideFlags: 0
  m_CorrespondingSourceObject: {fileID: 0}
  m_PrefabInstance: {fileID: 0}
  m_PrefabAsset: {fileID: 0}
  m_GameObject: {fileID: 0}
  m_Enabled: 1
  m_EditorHideFlags: 0
  m_Script: {fileID: 11500000, guid: 994bec1774a86a045835e5e4a3ce4da2, type: 3}
  m_Name: SkillArco
  m_EditorClassIdentifier: 
  skill: 9
  MaxSkillLevel: 40
  CurrentSkillLevel: 1
  MaxPointsNeededForNextLevel: 2
  CurrentSkillPoints: 0
  MultiplierPerLevel: 0
  XPGivenPerAction: 1
  StaminaConsumed: 0
