%YAML 1.1
%TAG !u! tag:unity3d.com,2011:
--- !u!114 &11400000
MonoBehaviour:
  m_ObjectHideFlags: 0
  m_CorrespondingSourceObject: {fileID: 0}
  m_PrefabInstance: {fileID: 0}
  m_PrefabAsset: {fileID: 0}
  m_GameObject: {fileID: 0}
  m_Enabled: 1
  m_EditorHideFlags: 0
  m_Script: {fileID: 11500000, guid: 2f7c9ae36a2bb2c4b8dc4f9f099e9f83, type: 3}
  m_Name: Skills
  m_EditorClassIdentifier: 
  playerSkills:
  - {fileID: 11400000, guid: 2b63c37400ae4504db3e37cd7111fae9, type: 2}
  - {fileID: 11400000, guid: 9b4ca1c24e9ebf840bbf25b6442e1bc2, type: 2}
  - {fileID: 11400000, guid: 18707419f97c9e849a884022bb9219dc, type: 2}
  - {fileID: 11400000, guid: 8c0a89e8dd069fe44923af2a837c9993, type: 2}
  - {fileID: 11400000, guid: 2715a023a1f7de14084c72926995326e, type: 2}
  - {fileID: 11400000, guid: 2f3d7ce5d17e752498b4b856c18ab74b, type: 2}
