%YAML 1.1
%TAG !u! tag:unity3d.com,2011:
--- !u!114 &-5373857498564197213
MonoBehaviour:
  m_ObjectHideFlags: 11
  m_CorrespondingSourceObject: {fileID: 0}
  m_PrefabInstance: {fileID: 0}
  m_PrefabAsset: {fileID: 0}
  m_GameObject: {fileID: 0}
  m_Enabled: 1
  m_EditorHideFlags: 0
  m_Script: {fileID: 11500000, guid: d0353a89b1f911e48b9e16bdc9f2e058, type: 3}
  m_Name: 
  m_EditorClassIdentifier: 
  version: 5
--- !u!21 &2100000
Material:
  serializedVersion: 8
  m_ObjectHideFlags: 0
  m_CorrespondingSourceObject: {fileID: 0}
  m_PrefabInstance: {fileID: 0}
  m_PrefabAsset: {fileID: 0}
  m_Name: FAE_GrassAtlas
  m_Shader: {fileID: -6465566751694194690, guid: dc1a634184354e343a9a36dd032cf2bf,
    type: 3}
  m_ValidKeywords: []
  m_InvalidKeywords:
  - GEOM_TYPE_LEAF
  - _ALPHATEST_ON
  - _VS_TOUCHBEND_ON
  m_LightmapFlags: 4
  m_EnableInstancingVariants: 1
  m_DoubleSidedGI: 0
  m_CustomRenderQueue: -1
  stringTagMap: {}
  disabledShaderPasses: []
  m_SavedProperties:
    serializedVersion: 3
    m_TexEnvs:
    - PigmentMap:
        m_Texture: {fileID: 0}
        m_Scale: {x: 1, y: 1}
        m_Offset: {x: 0, y: 0}
    - _BumpMap:
        m_Texture: {fileID: 0}
        m_Scale: {x: 1, y: 1}
        m_Offset: {x: 0, y: 0}
    - _DetailAlbedoMap:
        m_Texture: {fileID: 0}
        m_Scale: {x: 1, y: 1}
        m_Offset: {x: 0, y: 0}
    - _DetailMask:
        m_Texture: {fileID: 0}
        m_Scale: {x: 1, y: 1}
        m_Offset: {x: 0, y: 0}
    - _DetailNormalMap:
        m_Texture: {fileID: 0}
        m_Scale: {x: 1, y: 1}
        m_Offset: {x: 0, y: 0}
    - _Detailnormal:
        m_Texture: {fileID: 0}
        m_Scale: {x: 1, y: 1}
        m_Offset: {x: 0, y: 0}
    - _EmissionMap:
        m_Texture: {fileID: 0}
        m_Scale: {x: 1, y: 1}
        m_Offset: {x: 0, y: 0}
    - _Globalalbedo:
        m_Texture: {fileID: 0}
        m_Scale: {x: 1, y: 1}
        m_Offset: {x: 0, y: 0}
    - _GrassHeight:
        m_Texture: {fileID: 0}
        m_Scale: {x: 1, y: 1}
        m_Offset: {x: 0, y: 0}
    - _MainTex:
        m_Texture: {fileID: 2800000, guid: 525ae300fbe8eef4a8261dbc5a6df69c, type: 3}
        m_Scale: {x: 1, y: 1}
        m_Offset: {x: 0, y: 0}
    - _MetallicGlossMap:
        m_Texture: {fileID: 0}
        m_Scale: {x: 1, y: 1}
        m_Offset: {x: 0, y: 0}
    - _Noisemap:
        m_Texture: {fileID: 1167038465, guid: b6620978afaf9234f9e6fe1cfa32c8ff, type: 3}
        m_Scale: {x: 1, y: 1}
        m_Offset: {x: 0, y: 0}
    - _Normalmap:
        m_Texture: {fileID: -1352790079, guid: f654a384396a5a245a9a41a56b8efbeb, type: 3}
        m_Scale: {x: 1, y: 1}
        m_Offset: {x: 0, y: 0}
    - _Normals:
        m_Texture: {fileID: -1352790079, guid: f654a384396a5a245a9a41a56b8efbeb, type: 3}
        m_Scale: {x: 1, y: 1}
        m_Offset: {x: 0, y: 0}
    - _Objectalbedo:
        m_Texture: {fileID: 0}
        m_Scale: {x: 1, y: 1}
        m_Offset: {x: 0, y: 0}
    - _Objectnormals:
        m_Texture: {fileID: 0}
        m_Scale: {x: 1, y: 1}
        m_Offset: {x: 0, y: 0}
    - _OcclusionMap:
        m_Texture: {fileID: 0}
        m_Scale: {x: 1, y: 1}
        m_Offset: {x: 0, y: 0}
    - _ParallaxMap:
        m_Texture: {fileID: 0}
        m_Scale: {x: 1, y: 1}
        m_Offset: {x: 0, y: 0}
    - _PigmentMap:
        m_Texture: {fileID: 2800000, guid: a728bf1dc39cb0e4dad5aba35411306d, type: 3}
        m_Scale: {x: 1, y: 1}
        m_Offset: {x: 1, y: 1}
    - _TextureSample0:
        m_Texture: {fileID: 0}
        m_Scale: {x: 1, y: 1}
        m_Offset: {x: 0, y: 0}
    - _TextureSample1:
        m_Texture: {fileID: 1167038465, guid: b6620978afaf9234f9e6fe1cfa32c8ff, type: 3}
        m_Scale: {x: 1, y: 1}
        m_Offset: {x: 0, y: 0}
    - _Texturea:
        m_Texture: {fileID: 1478516330, guid: f654a384396a5a245a9a41a56b8efbeb, type: 3}
        m_Scale: {x: 1, y: 1}
        m_Offset: {x: 0, y: 0}
    - _WindVectors:
        m_Texture: {fileID: -1077550208, guid: b6620978afaf9234f9e6fe1cfa32c8ff, type: 3}
        m_Scale: {x: 1, y: 1}
        m_Offset: {x: 0, y: 0}
    - _texcoord:
        m_Texture: {fileID: 0}
        m_Scale: {x: 1, y: 1}
        m_Offset: {x: 0, y: 0}
    - unity_Lightmaps:
        m_Texture: {fileID: 0}
        m_Scale: {x: 1, y: 1}
        m_Offset: {x: 0, y: 0}
    - unity_LightmapsInd:
        m_Texture: {fileID: 0}
        m_Scale: {x: 1, y: 1}
        m_Offset: {x: 0, y: 0}
    - unity_ShadowMasks:
        m_Texture: {fileID: 0}
        m_Scale: {x: 1, y: 1}
        m_Offset: {x: 0, y: 0}
    m_Ints: []
    m_Floats:
    - BendingRadius: 0
    - BendingStrength: 0
    - WindSpeed: 0.3
    - _AO: 0
    - _ASEOutlineWidth: 0
    - _AmbientOcclusion: 0.15
    - _BendingInfluence: 1
    - _BendingRadius: 1.5
    - _BendingStiffness: 1
    - _BendingStrength: 20
    - _BendingTint: -0.051
    - _BiDirectionality: 1
    - _BlendSpeed: 0
    - _BumpScale: 1
    - _ColorVariation: 0.117
    - _Colorvariation: 0.729
    - _Cutoff: 0.5
    - _Debug: 0
    - _DetailNormalMapScale: 1
    - _Detailstrength: 1
    - _DstBlend: 0
    - _Float0: 0.498
    - _Float17: 1
    - _Float18: 0
    - _Float2: 1
    - _Float3: 0
    - _Float8: 0.406
    - _GlobalWindMotion: 1
    - _Globaltiling: 1.56
    - _Glossiness: 0.5
    - _Height: 0
    - _HeightmapInfluence: 0
    - _LeafFlutter: 0.5
    - _MaskClipValue: 0.5
    - _MaxFlattening: 0.469
    - _MaxHeight: 0.29
    - _MaxWindStrength: 0.2
    - _Metallic: 0
    - _MinHeight: -1
    - _Mode: 1
    - _OcclusionStrength: 1
    - _Parallax: 0.02
    - _PigmentMapBrightness: 1
    - _PigmentMapHeight: 0.834
    - _PigmentMapInfluence: 1
    - _PigmentMapSize: 0.05
    - _QueueControl: -1
    - _QueueOffset: 0
    - _Roughness: 0.5
    - _SSSAmount: 0.46
    - _SSSSize: 3
    - _SrcBlend: 1
    - _SubsurfaceAmount: 2
    - _Subsurfacesize: 2.8
    - _TerrainOffset: 356
    - _TerrainOffsetX: 394.7
    - _TerrainOffsetY: 250
    - _TerrainSize: 500
    - _TransmissionAmount: 10
    - _TransmissionSize: 6
    - _Transmissionsize: 0
    - _UVSec: 0
    - _Uselightcolor: 0
    - _VS_TOUCHBEND: 1
    - _VS_TOUCHBEND1: 0
    - _WindAmplitudeMultiplier: 1
    - _WindGusting: 1
    - _WindSpeed: 0.116
    - _WindStiffness: 1
    - _WindSwinging: 0.394
    - _WindWaving: 1
    - _WindWeight: 0.21
    - _Windspeed: 0.107
    - _Windweight: 4.15
    - _ZWrite: 1
    - __dirty: 0
    m_Colors:
    - ObstaclePosition: {r: 0, g: 0, b: 0, a: 0}
    - WindDirection: {r: 0, g: 0, b: 1, a: 0}
    - _ASEOutlineColor: {r: 0, g: 0, b: 0, a: 0}
    - _Color: {r: 0.31585774, g: 0.6102941, b: 0.02692473, a: 1}
    - _ColorBottom: {r: 0.25492513, g: 0.5147059, b: 0, a: 1}
    - _ColorTop: {r: 0.31585774, g: 0.6102941, b: 0.02692473, a: 1}
    - _EmissionColor: {r: 0, g: 0, b: 0, a: 1}
    - _FlatColor: {r: 1, g: 0, b: 0, a: 0}
    - _GlobalColor: {r: 0, g: 0, b: 0, a: 0}
    - _ObjectColor: {r: 1, g: 1, b: 1, a: 0}
    - _ObstaclePosition: {r: -118.41, g: 0.365, b: -132.43, a: 0}
    - _SSSColor: {r: 1, g: 0.76551723, b: 0, a: 1}
    - _SpecColor: {r: 1, g: 1, b: 1, a: 1}
    - _SubsurfaceColor: {r: 0.654902, g: 1, b: 0, a: 0}
    - _Vector0: {r: 0, g: 0, b: 1, a: 0}
    - _Vector1: {r: 0, g: 1, b: 0, a: 0}
    - _WindDirection: {r: 1, g: 0, b: 0, a: 0}
  m_BuildTextureStacks: []
