%YAML 1.1
%TAG !u! tag:unity3d.com,2011:
--- !u!114 &11400000
MonoBehaviour:
  m_ObjectHideFlags: 0
  m_CorrespondingSourceObject: {fileID: 0}
  m_PrefabInstance: {fileID: 0}
  m_PrefabAsset: {fileID: 0}
  m_GameObject: {fileID: 0}
  m_Enabled: 1
  m_EditorHideFlags: 0
  m_Script: {fileID: 11500000, guid: 0c12b22f4883756438f39685d7aa27d4, type: 3}
  m_Name: MovementValues
  m_EditorClassIdentifier: 
  staminaRecoveryTime: 0.01
  staminaConsumerTime: 0.01
  jumpCooldown: 0.1
  cancelSprintCooldown: 1
  slerpVelocity: 0.2
  groundPerceptionSensor: 0.4
  manaRecoveryTime: 0.0001
  cancelManaCooldown: 3
