%YAML 1.1
%TAG !u! tag:unity3d.com,2011:
--- !u!114 &11400000
MonoBehaviour:
  m_ObjectHideFlags: 0
  m_CorrespondingSourceObject: {fileID: 0}
  m_PrefabInstance: {fileID: 0}
  m_PrefabAsset: {fileID: 0}
  m_GameObject: {fileID: 0}
  m_Enabled: 1
  m_EditorHideFlags: 0
  m_Script: {fileID: 11500000, guid: 0e73e0e46e2532c42840b627b3ebac61, type: 3}
  m_Name: NPCSentences
  m_EditorClassIdentifier: 
  PassiveSentences:
  - The inn is the perfect place to rest and replenish your energy
  - Greetings, traveler! The local blacksmith can forge powerful weapons
  - The forest is home to many mystical creatures, some of which can be friendly,
    while others not so much.
  - I heard rumors of a hidden passage near the old dungeon
  - The castle gates are heavily guarded. Gaining entry won't be easy
  - I'm sorry, but I don't have anything to offer you at this time.
  - Be cautious, this land is filled with dangers. Many have lost their lives in
    these woods.
  QuestSentences:
  - Greetings, weary traveler! I seek your expertise. Many tasks await. Will you
    pledge yourself to these quests and restore hope to our realm?
  - Ah, fate conspires against me, leaving me adrift. By your side, we can overcome.
    Join me on a journey of tasks, challenges, and triumphs. Will you help carve
    our victory?
  - Ho there, valiant soul! Embrace a grand journey. Together, we'll tackle tasks,
    leaving a mark upon this realm. Ready to accept this beckoning call?
  - Welcome, gallant adventurer! Fate strands me amidst chaos. Undertake an array
    of tasks, conquer perils, and fight alongside me. Will you accept?
  - Hail, brave soul! Your arrival marks purpose and potential. Join me on a noble
    journey. Pledge your valor, bear these quests upon your shoulders.
  TraderSentences:
  - I'm just a humble merchant trying to make a living. Is there anything I can help
    you with?
  - Welcome to my humble shop. Feel free to browse my wares.
  - I have a wide variety of items for sale. Anything in particular you're looking
    for?
  - I'm always looking for new and interesting items to add to my inventory. If you
    come across anything rare, bring it to me.
