%YAML 1.1
%TAG !u! tag:unity3d.com,2011:
--- !u!1001 &6519072289809575280
PrefabInstance:
  m_ObjectHideFlags: 0
  serializedVersion: 2
  m_Modification:
    m_TransformParent: {fileID: 0}
    m_Modifications:
    - target: {fileID: -8679921383154817045, guid: 910aacba283c0344e98e57116544f568, type: 3}
      propertyPath: m_RootOrder
      value: 0
      objectReference: {fileID: 0}
    - target: {fileID: -8679921383154817045, guid: 910aacba283c0344e98e57116544f568, type: 3}
      propertyPath: m_LocalScale.x
      value: 4.783
      objectReference: {fileID: 0}
    - target: {fileID: -8679921383154817045, guid: 910aacba283c0344e98e57116544f568, type: 3}
      propertyPath: m_LocalScale.y
      value: 4.783
      objectReference: {fileID: 0}
    - target: {fileID: -8679921383154817045, guid: 910aacba283c0344e98e57116544f568, type: 3}
      propertyPath: m_LocalScale.z
      value: 4.783
      objectReference: {fileID: 0}
    - target: {fileID: -8679921383154817045, guid: 910aacba283c0344e98e57116544f568, type: 3}
      propertyPath: m_LocalPosition.x
      value: 0
      objectReference: {fileID: 0}
    - target: {fileID: -8679921383154817045, guid: 910aacba283c0344e98e57116544f568, type: 3}
      propertyPath: m_LocalPosition.y
      value: 0
      objectReference: {fileID: 0}
    - target: {fileID: -8679921383154817045, guid: 910aacba283c0344e98e57116544f568, type: 3}
      propertyPath: m_LocalPosition.z
      value: 0
      objectReference: {fileID: 0}
    - target: {fileID: -8679921383154817045, guid: 910aacba283c0344e98e57116544f568, type: 3}
      propertyPath: m_LocalRotation.w
      value: 1
      objectReference: {fileID: 0}
    - target: {fileID: -8679921383154817045, guid: 910aacba283c0344e98e57116544f568, type: 3}
      propertyPath: m_LocalRotation.x
      value: 0
      objectReference: {fileID: 0}
    - target: {fileID: -8679921383154817045, guid: 910aacba283c0344e98e57116544f568, type: 3}
      propertyPath: m_LocalRotation.y
      value: 0
      objectReference: {fileID: 0}
    - target: {fileID: -8679921383154817045, guid: 910aacba283c0344e98e57116544f568, type: 3}
      propertyPath: m_LocalRotation.z
      value: 0
      objectReference: {fileID: 0}
    - target: {fileID: -8679921383154817045, guid: 910aacba283c0344e98e57116544f568, type: 3}
      propertyPath: m_LocalEulerAnglesHint.x
      value: 0
      objectReference: {fileID: 0}
    - target: {fileID: -8679921383154817045, guid: 910aacba283c0344e98e57116544f568, type: 3}
      propertyPath: m_LocalEulerAnglesHint.y
      value: 0
      objectReference: {fileID: 0}
    - target: {fileID: -8679921383154817045, guid: 910aacba283c0344e98e57116544f568, type: 3}
      propertyPath: m_LocalEulerAnglesHint.z
      value: 0
      objectReference: {fileID: 0}
    - target: {fileID: -8391222552659086748, guid: 910aacba283c0344e98e57116544f568, type: 3}
      propertyPath: m_Layer
      value: 22
      objectReference: {fileID: 0}
    - target: {fileID: -7029948723529949830, guid: 910aacba283c0344e98e57116544f568, type: 3}
      propertyPath: m_Layer
      value: 22
      objectReference: {fileID: 0}
    - target: {fileID: -4683669308469848369, guid: 910aacba283c0344e98e57116544f568, type: 3}
      propertyPath: m_Materials.Array.data[0]
      value: 
      objectReference: {fileID: 2100000, guid: e75a06cbdef991443bce0c9f72b57897, type: 2}
    - target: {fileID: 919132149155446097, guid: 910aacba283c0344e98e57116544f568, type: 3}
      propertyPath: m_Name
      value: SmallSackPrefab
      objectReference: {fileID: 0}
    - target: {fileID: 919132149155446097, guid: 910aacba283c0344e98e57116544f568, type: 3}
      propertyPath: m_Layer
      value: 22
      objectReference: {fileID: 0}
    - target: {fileID: 919132149155446097, guid: 910aacba283c0344e98e57116544f568, type: 3}
      propertyPath: m_IsActive
      value: 1
      objectReference: {fileID: 0}
    - target: {fileID: 919132149155446097, guid: 910aacba283c0344e98e57116544f568, type: 3}
      propertyPath: m_TagString
      value: Item
      objectReference: {fileID: 0}
    m_RemovedComponents: []
  m_SourcePrefab: {fileID: 100100000, guid: 910aacba283c0344e98e57116544f568, type: 3}
--- !u!1 &6249039584395268129 stripped
GameObject:
  m_CorrespondingSourceObject: {fileID: 919132149155446097, guid: 910aacba283c0344e98e57116544f568, type: 3}
  m_PrefabInstance: {fileID: 6519072289809575280}
  m_PrefabAsset: {fileID: 0}
--- !u!135 &1927708421
SphereCollider:
  m_ObjectHideFlags: 0
  m_CorrespondingSourceObject: {fileID: 0}
  m_PrefabInstance: {fileID: 0}
  m_PrefabAsset: {fileID: 0}
  m_GameObject: {fileID: 6249039584395268129}
  m_Material: {fileID: 0}
  m_IsTrigger: 0
  m_Enabled: 1
  serializedVersion: 2
  m_Radius: 0.05
  m_Center: {x: 0, y: 0.045, z: 0}
--- !u!114 &1927708422
MonoBehaviour:
  m_ObjectHideFlags: 0
  m_CorrespondingSourceObject: {fileID: 0}
  m_PrefabInstance: {fileID: 0}
  m_PrefabAsset: {fileID: 0}
  m_GameObject: {fileID: 6249039584395268129}
  m_Enabled: 0
  m_EditorHideFlags: 0
  m_Script: {fileID: 11500000, guid: 5fea29bb7c508c244a1f805a5fd3fc4d, type: 3}
  m_Name: 
  m_EditorClassIdentifier: 
  outlineMode: 1
  outlineColor: {r: 1, g: 0.95240605, b: 0.6084906, a: 1}
  outlineWidth: 5
  precomputeOutline: 0
  bakeKeys: []
  bakeValues: []
--- !u!114 &1075855561852748657
MonoBehaviour:
  m_ObjectHideFlags: 0
  m_CorrespondingSourceObject: {fileID: 0}
  m_PrefabInstance: {fileID: 0}
  m_PrefabAsset: {fileID: 0}
  m_GameObject: {fileID: 6249039584395268129}
  m_Enabled: 1
  m_EditorHideFlags: 0
  m_Script: {fileID: 11500000, guid: 3b01d97a3b78c5540932663abe1599ec, type: 3}
  m_Name: 
  m_EditorClassIdentifier: 
  itemsAvailable: []
  SackSection: {fileID: 0}
  Slot: {fileID: 2101784367759399652, guid: 659870bb9a1124c48807a9e93090c1d4, type: 3}
  noInventorySpace: {fileID: 1980073994462239407, guid: ec934e1b827eb3b47800e4f88ae73b2d, type: 3}
  eventOpenSack: {fileID: 11400000, guid: 6f79599ae29010b438a7f62a7b8d07da, type: 2}
