%YAML 1.1
%TAG !u! tag:unity3d.com,2011:
--- !u!1 &1418330703650329015
GameObject:
  m_ObjectHideFlags: 0
  m_CorrespondingSourceObject: {fileID: 0}
  m_PrefabInstance: {fileID: 0}
  m_PrefabAsset: {fileID: 0}
  serializedVersion: 6
  m_Component:
  - component: {fileID: 1418330703650329012}
  - component: {fileID: 1418330703650329013}
  - component: {fileID: 1418330703650329014}
  - component: {fileID: 2626251319419952593}
  m_Layer: 0
  m_Name: vfx_Lightning01_Hit_blue
  m_TagString: Untagged
  m_Icon: {fileID: 0}
  m_NavMeshLayer: 0
  m_StaticEditorFlags: 0
  m_IsActive: 1
--- !u!4 &1418330703650329012
Transform:
  m_ObjectHideFlags: 0
  m_CorrespondingSourceObject: {fileID: 0}
  m_PrefabInstance: {fileID: 0}
  m_PrefabAsset: {fileID: 0}
  m_GameObject: {fileID: 1418330703650329015}
  m_LocalRotation: {x: 0, y: 0, z: 0, w: 1}
  m_LocalPosition: {x: 4, y: 0, z: 0}
  m_LocalScale: {x: 1, y: 1, z: 1}
  m_ConstrainProportionsScale: 0
  m_Children:
  - {fileID: 5379552603411176902}
  m_Father: {fileID: 0}
  m_RootOrder: 0
  m_LocalEulerAnglesHint: {x: 0, y: 0, z: 0}
--- !u!2083052967 &1418330703650329013
VisualEffect:
  m_ObjectHideFlags: 0
  m_CorrespondingSourceObject: {fileID: 0}
  m_PrefabInstance: {fileID: 0}
  m_PrefabAsset: {fileID: 0}
  m_GameObject: {fileID: 1418330703650329015}
  m_Enabled: 1
  m_Asset: {fileID: 8926484042661614526, guid: fac37176ba6692a47b3531c0b7cdd226, type: 3}
  m_InitialEventName: OnPlay
  m_InitialEventNameOverriden: 0
  m_StartSeed: 0
  m_ResetSeedOnPlay: 1
  m_ResourceVersion: 1
  m_PropertySheet:
    m_Float:
      m_Array:
      - m_Value: 0.75
        m_Name: LightningDuration
        m_Overridden: 1
      - m_Value: 5
        m_Name: LightningDistortionScale
        m_Overridden: 1
    m_Vector2f:
      m_Array: []
    m_Vector3f:
      m_Array: []
    m_Vector4f:
      m_Array:
      - m_Value: {x: 0.3208559, y: 1.0620006, z: 1.4947189, w: 1}
        m_Name: Color01
        m_Overridden: 1
      - m_Value: {x: 0.09411765, y: 0.15220821, z: 0.6784314, w: 1}
        m_Name: Color02
        m_Overridden: 1
      - m_Value: {x: 0.3208559, y: 1.0620006, z: 1.4947189, w: 1}
        m_Name: LightningColor01
        m_Overridden: 1
      - m_Value: {x: 0.09411765, y: 0.15294118, z: 0.6784314, w: 1}
        m_Name: LoghtningColor02
        m_Overridden: 1
      - m_Value: {x: 0.3208559, y: 1.0620006, z: 1.4947189, w: 1}
        m_Name: ImpactFlashColor
        m_Overridden: 1
      - m_Value: {x: 0.3208559, y: 1.0620006, z: 1.4947189, w: 1}
        m_Name: ImpactFlareColor
        m_Overridden: 1
      - m_Value: {x: 0.3208559, y: 1.0620006, z: 1.4947189, w: 1}
        m_Name: FlashColor
        m_Overridden: 1
      - m_Value: {x: 0.3208559, y: 1.0620006, z: 1.4947189, w: 1}
        m_Name: FlareColor
        m_Overridden: 1
      - m_Value: {x: 0.3208559, y: 1.0620006, z: 1.4947189, w: 1}
        m_Name: ImpactParticlesColor
        m_Overridden: 1
      - m_Value: {x: 1.2862746, y: 4.2980394, z: 5.992157, w: 1}
        m_Name: ImpactExplosionColor
        m_Overridden: 1
      - m_Value: {x: 3.6381338, y: 12.156692, z: 16.94838, w: 1}
        m_Name: GroundCrackColor
        m_Overridden: 1
    m_Uint:
      m_Array: []
    m_Int:
      m_Array: []
    m_Matrix4x4f:
      m_Array: []
    m_AnimationCurve:
      m_Array:
      - m_Value:
          serializedVersion: 2
          m_Curve:
          - serializedVersion: 3
            time: 0
            value: 0
            inSlope: 3.3206925
            outSlope: 3.3206925
            tangentMode: 34
            weightedMode: 0
            inWeight: 0
            outWeight: 0.33333334
          - serializedVersion: 3
            time: 0.301142
            value: 1
            inSlope: 1.6584938
            outSlope: 1.6584938
            tangentMode: 34
            weightedMode: 0
            inWeight: 0.33333334
            outWeight: 0.33333334
          - serializedVersion: 3
            time: 0.5614587
            value: 0.99903554
            inSlope: -0.0037049593
            outSlope: -0.0037049593
            tangentMode: 34
            weightedMode: 0
            inWeight: 0.33333334
            outWeight: 0
          m_PreInfinity: 2
          m_PostInfinity: 2
          m_RotationOrder: 4
        m_Name: LightningSizeCurve
        m_Overridden: 1
      - m_Value:
          serializedVersion: 2
          m_Curve:
          - serializedVersion: 3
            time: -0.0019989014
            value: -0.00075683
            inSlope: 1.9464021
            outSlope: 1.9464021
            tangentMode: 0
            weightedMode: 0
            inWeight: 0
            outWeight: 0
          - serializedVersion: 3
            time: 0.2085523
            value: 0.30265042
            inSlope: -0.4382934
            outSlope: -0.4382934
            tangentMode: 0
            weightedMode: 0
            inWeight: 0
            outWeight: 0
          - serializedVersion: 3
            time: 0.32447946
            value: 0.13792908
            inSlope: -0.5245292
            outSlope: -0.5245292
            tangentMode: 0
            weightedMode: 0
            inWeight: 0.33333334
            outWeight: 0.33333334
          - serializedVersion: 3
            time: 0.79393697
            value: 0.07641429
            inSlope: -0.32622024
            outSlope: -0.32622024
            tangentMode: 0
            weightedMode: 0
            inWeight: 0.33333334
            outWeight: 0.33333334
          - serializedVersion: 3
            time: 1
            value: 0
            inSlope: 0.035350688
            outSlope: 0.035350688
            tangentMode: 0
            weightedMode: 0
            inWeight: 0
            outWeight: 0
          m_PreInfinity: 2
          m_PostInfinity: 2
          m_RotationOrder: 4
        m_Name: LightningWidthCurve
        m_Overridden: 1
    m_Gradient:
      m_Array: []
    m_NamedObject:
      m_Array: []
    m_Bool:
      m_Array:
      - m_Value: 1
        m_Name: LightningVoronoi
        m_Overridden: 1
      - m_Value: 0
        m_Name: LightningSimpleNoise
        m_Overridden: 1
--- !u!73398921 &1418330703650329014
VFXRenderer:
  serializedVersion: 1
  m_ObjectHideFlags: 0
  m_CorrespondingSourceObject: {fileID: 0}
  m_PrefabInstance: {fileID: 0}
  m_PrefabAsset: {fileID: 0}
  m_GameObject: {fileID: 1418330703650329015}
  m_Enabled: 1
  m_CastShadows: 0
  m_ReceiveShadows: 0
  m_DynamicOccludee: 1
  m_StaticShadowCaster: 0
  m_MotionVectors: 0
  m_LightProbeUsage: 0
  m_ReflectionProbeUsage: 0
  m_RayTracingMode: 0
  m_RayTraceProcedural: 0
  m_RenderingLayerMask: 1
  m_RendererPriority: 0
  m_StaticBatchInfo:
    firstSubMesh: 0
    subMeshCount: 0
  m_StaticBatchRoot: {fileID: 0}
  m_ProbeAnchor: {fileID: 0}
  m_LightProbeVolumeOverride: {fileID: 0}
  m_ScaleInLightmap: 1
  m_ReceiveGI: 1
  m_PreserveUVs: 0
  m_IgnoreNormalsForChartDetection: 0
  m_ImportantGI: 0
  m_StitchLightmapSeams: 1
  m_SelectedEditorRenderState: 3
  m_MinimumChartSize: 4
  m_AutoUVMaxDistance: 0.5
  m_AutoUVMaxAngle: 89
  m_LightmapParameters: {fileID: 0}
  m_SortingLayerID: 0
  m_SortingLayer: 0
  m_SortingOrder: 0
--- !u!111 &2626251319419952593
Animation:
  m_ObjectHideFlags: 0
  m_CorrespondingSourceObject: {fileID: 0}
  m_PrefabInstance: {fileID: 0}
  m_PrefabAsset: {fileID: 0}
  m_GameObject: {fileID: 1418330703650329015}
  m_Enabled: 1
  serializedVersion: 3
  m_Animation: {fileID: 7400000, guid: e82492eb6c2bc074b8b25999c5fd2f2a, type: 2}
  m_Animations:
  - {fileID: 7400000, guid: e82492eb6c2bc074b8b25999c5fd2f2a, type: 2}
  m_WrapMode: 0
  m_PlayAutomatically: 1
  m_AnimatePhysics: 0
  m_CullingType: 0
--- !u!1 &7886643760336075707
GameObject:
  m_ObjectHideFlags: 0
  m_CorrespondingSourceObject: {fileID: 0}
  m_PrefabInstance: {fileID: 0}
  m_PrefabAsset: {fileID: 0}
  serializedVersion: 6
  m_Component:
  - component: {fileID: 5379552603411176902}
  - component: {fileID: 4770439175293572857}
  - component: {fileID: 4273079229132622761}
  m_Layer: 0
  m_Name: LightningPlane
  m_TagString: Untagged
  m_Icon: {fileID: 0}
  m_NavMeshLayer: 0
  m_StaticEditorFlags: 0
  m_IsActive: 0
--- !u!4 &5379552603411176902
Transform:
  m_ObjectHideFlags: 0
  m_CorrespondingSourceObject: {fileID: 0}
  m_PrefabInstance: {fileID: 0}
  m_PrefabAsset: {fileID: 0}
  m_GameObject: {fileID: 7886643760336075707}
  m_LocalRotation: {x: -0, y: -0, z: -0, w: 1}
  m_LocalPosition: {x: 0, y: 0, z: 0}
  m_LocalScale: {x: 1, y: 1, z: 1}
  m_ConstrainProportionsScale: 0
  m_Children: []
  m_Father: {fileID: 1418330703650329012}
  m_RootOrder: 0
  m_LocalEulerAnglesHint: {x: 0, y: 0, z: 0}
--- !u!33 &4770439175293572857
MeshFilter:
  m_ObjectHideFlags: 0
  m_CorrespondingSourceObject: {fileID: 0}
  m_PrefabInstance: {fileID: 0}
  m_PrefabAsset: {fileID: 0}
  m_GameObject: {fileID: 7886643760336075707}
  m_Mesh: {fileID: 6782105378175689660, guid: b0fb27b388c1cf84283cf844a82b85f4, type: 3}
--- !u!23 &4273079229132622761
MeshRenderer:
  m_ObjectHideFlags: 0
  m_CorrespondingSourceObject: {fileID: 0}
  m_PrefabInstance: {fileID: 0}
  m_PrefabAsset: {fileID: 0}
  m_GameObject: {fileID: 7886643760336075707}
  m_Enabled: 1
  m_CastShadows: 1
  m_ReceiveShadows: 1
  m_DynamicOccludee: 1
  m_StaticShadowCaster: 0
  m_MotionVectors: 1
  m_LightProbeUsage: 1
  m_ReflectionProbeUsage: 1
  m_RayTracingMode: 2
  m_RayTraceProcedural: 0
  m_RenderingLayerMask: 1
  m_RendererPriority: 0
  m_Materials:
  - {fileID: 2100000, guid: 092aa57fbcfc8a94c9bb3f478a097b36, type: 2}
  m_StaticBatchInfo:
    firstSubMesh: 0
    subMeshCount: 0
  m_StaticBatchRoot: {fileID: 0}
  m_ProbeAnchor: {fileID: 0}
  m_LightProbeVolumeOverride: {fileID: 0}
  m_ScaleInLightmap: 1
  m_ReceiveGI: 1
  m_PreserveUVs: 0
  m_IgnoreNormalsForChartDetection: 0
  m_ImportantGI: 0
  m_StitchLightmapSeams: 1
  m_SelectedEditorRenderState: 3
  m_MinimumChartSize: 4
  m_AutoUVMaxDistance: 0.5
  m_AutoUVMaxAngle: 89
  m_LightmapParameters: {fileID: 0}
  m_SortingLayerID: 0
  m_SortingLayer: 0
  m_SortingOrder: 0
  m_AdditionalVertexStreams: {fileID: 0}
