%YAML 1.1
%TAG !u! tag:unity3d.com,2011:
--- !u!1 &8867177968583895745
GameObject:
  m_ObjectHideFlags: 0
  m_CorrespondingSourceObject: {fileID: 0}
  m_PrefabInstance: {fileID: 0}
  m_PrefabAsset: {fileID: 0}
  serializedVersion: 6
  m_Component:
  - component: {fileID: 8867177968583895749}
  - component: {fileID: 8867177968583895750}
  - component: {fileID: 8867177968583895751}
  m_Layer: 0
  m_Name: LightningPlane
  m_TagString: Untagged
  m_Icon: {fileID: 0}
  m_NavMeshLayer: 0
  m_StaticEditorFlags: 0
  m_IsActive: 0
--- !u!4 &8867177968583895749
Transform:
  m_ObjectHideFlags: 0
  m_CorrespondingSourceObject: {fileID: 0}
  m_PrefabInstance: {fileID: 0}
  m_PrefabAsset: {fileID: 0}
  m_GameObject: {fileID: 8867177968583895745}
  m_LocalRotation: {x: -0, y: -0, z: -0, w: 1}
  m_LocalPosition: {x: 0, y: 0, z: 0}
  m_LocalScale: {x: 1, y: 1, z: 1}
  m_ConstrainProportionsScale: 0
  m_Children: []
  m_Father: {fileID: 8867177969279221370}
  m_RootOrder: 0
  m_LocalEulerAnglesHint: {x: 0, y: 0, z: 0}
--- !u!33 &8867177968583895750
MeshFilter:
  m_ObjectHideFlags: 0
  m_CorrespondingSourceObject: {fileID: 0}
  m_PrefabInstance: {fileID: 0}
  m_PrefabAsset: {fileID: 0}
  m_GameObject: {fileID: 8867177968583895745}
  m_Mesh: {fileID: 6782105378175689660, guid: b0fb27b388c1cf84283cf844a82b85f4, type: 3}
--- !u!23 &8867177968583895751
MeshRenderer:
  m_ObjectHideFlags: 0
  m_CorrespondingSourceObject: {fileID: 0}
  m_PrefabInstance: {fileID: 0}
  m_PrefabAsset: {fileID: 0}
  m_GameObject: {fileID: 8867177968583895745}
  m_Enabled: 1
  m_CastShadows: 1
  m_ReceiveShadows: 1
  m_DynamicOccludee: 1
  m_StaticShadowCaster: 0
  m_MotionVectors: 1
  m_LightProbeUsage: 1
  m_ReflectionProbeUsage: 1
  m_RayTracingMode: 2
  m_RayTraceProcedural: 0
  m_RenderingLayerMask: 1
  m_RendererPriority: 0
  m_Materials:
  - {fileID: 2100000, guid: e4d3d7a7073a3ee489120aaf949a5397, type: 2}
  m_StaticBatchInfo:
    firstSubMesh: 0
    subMeshCount: 0
  m_StaticBatchRoot: {fileID: 0}
  m_ProbeAnchor: {fileID: 0}
  m_LightProbeVolumeOverride: {fileID: 0}
  m_ScaleInLightmap: 1
  m_ReceiveGI: 1
  m_PreserveUVs: 0
  m_IgnoreNormalsForChartDetection: 0
  m_ImportantGI: 0
  m_StitchLightmapSeams: 1
  m_SelectedEditorRenderState: 3
  m_MinimumChartSize: 4
  m_AutoUVMaxDistance: 0.5
  m_AutoUVMaxAngle: 89
  m_LightmapParameters: {fileID: 0}
  m_SortingLayerID: 0
  m_SortingLayer: 0
  m_SortingOrder: 0
  m_AdditionalVertexStreams: {fileID: 0}
--- !u!1 &8867177969279221371
GameObject:
  m_ObjectHideFlags: 0
  m_CorrespondingSourceObject: {fileID: 0}
  m_PrefabInstance: {fileID: 0}
  m_PrefabAsset: {fileID: 0}
  serializedVersion: 6
  m_Component:
  - component: {fileID: 8867177969279221370}
  - component: {fileID: 8867177969279221368}
  - component: {fileID: 8867177969279221369}
  - component: {fileID: 8867177969279221375}
  m_Layer: 0
  m_Name: vfx_Lightning01_Hit_orange
  m_TagString: Untagged
  m_Icon: {fileID: 0}
  m_NavMeshLayer: 0
  m_StaticEditorFlags: 0
  m_IsActive: 1
--- !u!4 &8867177969279221370
Transform:
  m_ObjectHideFlags: 0
  m_CorrespondingSourceObject: {fileID: 0}
  m_PrefabInstance: {fileID: 0}
  m_PrefabAsset: {fileID: 0}
  m_GameObject: {fileID: 8867177969279221371}
  m_LocalRotation: {x: 0, y: 0, z: 0, w: 1}
  m_LocalPosition: {x: 0, y: 0, z: 0}
  m_LocalScale: {x: 1, y: 1, z: 1}
  m_ConstrainProportionsScale: 0
  m_Children:
  - {fileID: 8867177968583895749}
  m_Father: {fileID: 0}
  m_RootOrder: 0
  m_LocalEulerAnglesHint: {x: 0, y: 0, z: 0}
--- !u!2083052967 &8867177969279221368
VisualEffect:
  m_ObjectHideFlags: 0
  m_CorrespondingSourceObject: {fileID: 0}
  m_PrefabInstance: {fileID: 0}
  m_PrefabAsset: {fileID: 0}
  m_GameObject: {fileID: 8867177969279221371}
  m_Enabled: 1
  m_Asset: {fileID: 8926484042661614526, guid: fac37176ba6692a47b3531c0b7cdd226, type: 3}
  m_InitialEventName: OnPlay
  m_InitialEventNameOverriden: 0
  m_StartSeed: 0
  m_ResetSeedOnPlay: 1
  m_ResourceVersion: 1
  m_PropertySheet:
    m_Float:
      m_Array:
      - m_Value: 0.8
        m_Name: LightningDuration
        m_Overridden: 1
    m_Vector2f:
      m_Array: []
    m_Vector3f:
      m_Array: []
    m_Vector4f:
      m_Array:
      - m_Value: {x: 1.4980392, y: 0.69803923, z: 0.32156864, w: 1}
        m_Name: Color01
        m_Overridden: 0
      - m_Value: {x: 2.270603, y: 0.9391499, z: 0.32097527, w: 1}
        m_Name: LightningColor01
        m_Overridden: 0
      - m_Value: {x: 0.05, y: 0.0075, z: 0.0066666664, w: 1}
        m_Name: LoghtningColor02
        m_Overridden: 0
      - m_Value: {x: 16.94838, y: 7.9861474, z: 3.8156037, w: 1}
        m_Name: GroundCrackColor
        m_Overridden: 1
    m_Uint:
      m_Array: []
    m_Int:
      m_Array: []
    m_Matrix4x4f:
      m_Array: []
    m_AnimationCurve:
      m_Array:
      - m_Value:
          serializedVersion: 2
          m_Curve:
          - serializedVersion: 3
            time: 0
            value: 0
            inSlope: 3.330199
            outSlope: 3.330199
            tangentMode: 34
            weightedMode: 0
            inWeight: 0
            outWeight: 0.33333334
          - serializedVersion: 3
            time: 0.30028236
            value: 1
            inSlope: 1.663247
            outSlope: 1.663247
            tangentMode: 34
            weightedMode: 0
            inWeight: 0.33333334
            outWeight: 0.33333334
          - serializedVersion: 3
            time: 0.5605991
            value: 0.99903554
            inSlope: -0.0037049588
            outSlope: -0.0037049588
            tangentMode: 34
            weightedMode: 0
            inWeight: 0.33333334
            outWeight: 0
          m_PreInfinity: 2
          m_PostInfinity: 2
          m_RotationOrder: 4
        m_Name: LightningSizeCurve
        m_Overridden: 1
      - m_Value:
          serializedVersion: 2
          m_Curve:
          - serializedVersion: 3
            time: -0.0019989014
            value: -0.00075683
            inSlope: 10.776588
            outSlope: 10.776588
            tangentMode: 0
            weightedMode: 0
            inWeight: 0
            outWeight: 0.075694405
          - serializedVersion: 3
            time: 0.1404858
            value: 0.7842827
            inSlope: -1.2718124
            outSlope: -1.2718124
            tangentMode: 0
            weightedMode: 0
            inWeight: 0
            outWeight: 0.080429204
          - serializedVersion: 3
            time: 0.40190202
            value: 0.09616332
            inSlope: 0.013655274
            outSlope: 0.013655274
            tangentMode: 0
            weightedMode: 0
            inWeight: 0.33333334
            outWeight: 0.110456936
          - serializedVersion: 3
            time: 1.0009766
            value: -0.0005493164
            inSlope: -0.082008615
            outSlope: -0.082008615
            tangentMode: 0
            weightedMode: 0
            inWeight: 0.51736057
            outWeight: 0
          m_PreInfinity: 2
          m_PostInfinity: 2
          m_RotationOrder: 4
        m_Name: LightningWidthCurve
        m_Overridden: 1
      - m_Value:
          serializedVersion: 2
          m_Curve:
          - serializedVersion: 3
            time: 0
            value: 0
            inSlope: 3.9130387
            outSlope: 3.9130387
            tangentMode: 34
            weightedMode: 0
            inWeight: 0
            outWeight: 0.33333334
          - serializedVersion: 3
            time: 0.25505608
            value: 0.9980443
            inSlope: 1.9546669
            outSlope: 1.9546669
            tangentMode: 34
            weightedMode: 0
            inWeight: 0.33333334
            outWeight: 0.33333334
          - serializedVersion: 3
            time: 0.5153728
            value: 0.99707985
            inSlope: -0.0037049588
            outSlope: -0.0037049588
            tangentMode: 34
            weightedMode: 0
            inWeight: 0.33333334
            outWeight: 0
          m_PreInfinity: 2
          m_PostInfinity: 2
          m_RotationOrder: 4
        m_Name: LightningVerticalCurve
        m_Overridden: 1
    m_Gradient:
      m_Array: []
    m_NamedObject:
      m_Array: []
    m_Bool:
      m_Array: []
--- !u!73398921 &8867177969279221369
VFXRenderer:
  serializedVersion: 1
  m_ObjectHideFlags: 0
  m_CorrespondingSourceObject: {fileID: 0}
  m_PrefabInstance: {fileID: 0}
  m_PrefabAsset: {fileID: 0}
  m_GameObject: {fileID: 8867177969279221371}
  m_Enabled: 1
  m_CastShadows: 0
  m_ReceiveShadows: 0
  m_DynamicOccludee: 1
  m_StaticShadowCaster: 0
  m_MotionVectors: 0
  m_LightProbeUsage: 0
  m_ReflectionProbeUsage: 0
  m_RayTracingMode: 0
  m_RayTraceProcedural: 0
  m_RenderingLayerMask: 1
  m_RendererPriority: 0
  m_StaticBatchInfo:
    firstSubMesh: 0
    subMeshCount: 0
  m_StaticBatchRoot: {fileID: 0}
  m_ProbeAnchor: {fileID: 0}
  m_LightProbeVolumeOverride: {fileID: 0}
  m_ScaleInLightmap: 1
  m_ReceiveGI: 1
  m_PreserveUVs: 0
  m_IgnoreNormalsForChartDetection: 0
  m_ImportantGI: 0
  m_StitchLightmapSeams: 1
  m_SelectedEditorRenderState: 3
  m_MinimumChartSize: 4
  m_AutoUVMaxDistance: 0.5
  m_AutoUVMaxAngle: 89
  m_LightmapParameters: {fileID: 0}
  m_SortingLayerID: 0
  m_SortingLayer: 0
  m_SortingOrder: 0
--- !u!111 &8867177969279221375
Animation:
  m_ObjectHideFlags: 0
  m_CorrespondingSourceObject: {fileID: 0}
  m_PrefabInstance: {fileID: 0}
  m_PrefabAsset: {fileID: 0}
  m_GameObject: {fileID: 8867177969279221371}
  m_Enabled: 1
  serializedVersion: 3
  m_Animation: {fileID: 7400000, guid: 0fdefbe87eb42684c90057f4ac991f46, type: 2}
  m_Animations:
  - {fileID: 7400000, guid: 0fdefbe87eb42684c90057f4ac991f46, type: 2}
  m_WrapMode: 0
  m_PlayAutomatically: 1
  m_AnimatePhysics: 0
  m_CullingType: 0
