%YAML 1.1
%TAG !u! tag:unity3d.com,2011:
--- !u!114 &-1127308161554497182
MonoBehaviour:
  m_ObjectHideFlags: 11
  m_CorrespondingSourceObject: {fileID: 0}
  m_PrefabInstance: {fileID: 0}
  m_PrefabAsset: {fileID: 0}
  m_GameObject: {fileID: 0}
  m_Enabled: 1
  m_EditorHideFlags: 0
  m_Script: {fileID: 11500000, guid: d0353a89b1f911e48b9e16bdc9f2e058, type: 3}
  m_Name: 
  m_EditorClassIdentifier: 
  version: 5
--- !u!21 &2100000
Material:
  serializedVersion: 8
  m_ObjectHideFlags: 0
  m_CorrespondingSourceObject: {fileID: 0}
  m_PrefabInstance: {fileID: 0}
  m_PrefabAsset: {fileID: 0}
  m_Name: LightningYellow_Unlit 1
  m_Shader: {fileID: -6465566751694194690, guid: 89938c2cbc517d4468f4fe6bc76ef4f7, type: 3}
  m_ValidKeywords: []
  m_InvalidKeywords: []
  m_LightmapFlags: 4
  m_EnableInstancingVariants: 0
  m_DoubleSidedGI: 0
  m_CustomRenderQueue: -1
  stringTagMap: {}
  disabledShaderPasses: []
  m_SavedProperties:
    serializedVersion: 3
    m_TexEnvs:
    - unity_Lightmaps:
        m_Texture: {fileID: 0}
        m_Scale: {x: 1, y: 1}
        m_Offset: {x: 0, y: 0}
    - unity_LightmapsInd:
        m_Texture: {fileID: 0}
        m_Scale: {x: 1, y: 1}
        m_Offset: {x: 0, y: 0}
    - unity_ShadowMasks:
        m_Texture: {fileID: 0}
        m_Scale: {x: 1, y: 1}
        m_Offset: {x: 0, y: 0}
    m_Ints: []
    m_Floats:
    - Vector1_3DAE204A: 5
    - Vector1_52CBE2A9: 0.2
    - Vector1_55316FCC: 0.01
    - Vector1_6B9495FC: 0.8
    - Vector1_8B9624C3: 0.4
    - Vector1_92173F08: 5
    - Vector1_A672D405: 1.2
    - Vector1_BBAC85E4: 40
    - Vector1_F05D3DB0: 8
    - _QueueControl: 0
    - _QueueOffset: 0
    m_Colors:
    - Color_10F64F52: {r: 0.1981132, g: 0.057834927, b: 0.017755425, a: 1}
    - Color_83C33468: {r: 2.9960785, g: 2.227451, b: 0.5647059, a: 1}
    - Vector2_1D51C5DF: {r: -0.7, g: -0.5, b: 0, a: 0}
    - Vector2_5010A394: {r: 1, g: 0, b: 0, a: 0}
    - Vector2_55A9EEF7: {r: 1.2, g: 0.8, b: 0, a: 0}
  m_BuildTextureStacks: []
