%YAML 1.1
%TAG !u! tag:unity3d.com,2011:
--- !u!114 &11400000
MonoBehaviour:
  m_ObjectHideFlags: 0
  m_CorrespondingSourceObject: {fileID: 0}
  m_PrefabInstance: {fileID: 0}
  m_PrefabAsset: {fileID: 0}
  m_GameObject: {fileID: 0}
  m_Enabled: 1
  m_EditorHideFlags: 0
  m_Script: {fileID: 11500000, guid: 6bf7c1b3e96c0614e85ca50aa2d62928, type: 3}
  m_Name: Botas 0
  m_EditorClassIdentifier: 
  DictionaryID: 1
  ItemName: Botas de Rastreador
  BuyPrice: 100
  Sellable: 1
  SellPrice: 100
  ItemDescription: "Estas botas de cuero est\xE1n especialmente dise\xF1adas para
    los rastreadores y exploradores. Proporcionan una excelente tracci\xF3n en diversos
    terrenos y tienen una resistencia adicional al desgaste, lo que las convierte
    en la elecci\xF3n perfecta para aquellos que se aventuran en lo desconocido."
  Rarity: 2
  SlotIcon: {fileID: -586930785, guid: f1ad4cc00747866438291159f05d945c, type: 3}
  equipmentType: 3
  level: 0
  durability: 0
  hp: 15
  defense: 15
