%YAML 1.1
%TAG !u! tag:unity3d.com,2011:
--- !u!114 &11400000
MonoBehaviour:
  m_ObjectHideFlags: 0
  m_CorrespondingSourceObject: {fileID: 0}
  m_PrefabInstance: {fileID: 0}
  m_PrefabAsset: {fileID: 0}
  m_GameObject: {fileID: 0}
  m_Enabled: 1
  m_EditorHideFlags: 0
  m_Script: {fileID: 11500000, guid: 6bf7c1b3e96c0614e85ca50aa2d62928, type: 3}
  m_Name: Pantalon 2
  m_EditorClassIdentifier: 
  DictionaryID: 33
  ItemName: Pantalones de Placas Pesadas
  BuyPrice: 100
  Sellable: 1
  SellPrice: 100
  ItemDescription: "Pantalones con placas de hierro r\xEDgidas que ofrecen una protecci\xF3n
    \xF3ptima para las piernas. Su dise\xF1o pesado es ideal para los guerreros de
    primera l\xEDnea que necesitan una defensa s\xF3lida."
  Rarity: 2
  SlotIcon: {fileID: -1533645281, guid: f1ad4cc00747866438291159f05d945c, type: 3}
  equipmentType: 2
  level: 0
  durability: 0
  hp: 50
  defense: 50
