%YAML 1.1
%TAG !u! tag:unity3d.com,2011:
--- !u!114 &11400000
MonoBehaviour:
  m_ObjectHideFlags: 0
  m_CorrespondingSourceObject: {fileID: 0}
  m_PrefabInstance: {fileID: 0}
  m_PrefabAsset: {fileID: 0}
  m_GameObject: {fileID: 0}
  m_Enabled: 1
  m_EditorHideFlags: 0
  m_Script: {fileID: 11500000, guid: 6bf7c1b3e96c0614e85ca50aa2d62928, type: 3}
  m_Name: Pechera 1
  m_EditorClassIdentifier: 
  DictionaryID: 35
  ItemName: Coraza de Malla Reforzada
  BuyPrice: 100
  Sellable: 1
  SellPrice: 100
  ItemDescription: Una armadura de malla entrelazada con anillos de acero reforzados.
    Ofrece una excelente defensa contra ataques cortantes y perforantes, protegiendo
    el pecho y el abdomen del portador.
  Rarity: 2
  SlotIcon: {fileID: -645854719, guid: f1ad4cc00747866438291159f05d945c, type: 3}
  equipmentType: 1
  level: 0
  durability: 0
  hp: 50
  defense: 50
