%YAML 1.1
%TAG !u! tag:unity3d.com,2011:
--- !u!29 &1
OcclusionCullingSettings:
  m_ObjectHideFlags: 0
  serializedVersion: 2
  m_OcclusionBakeSettings:
    smallestOccluder: 5
    smallestHole: 0.25
    backfaceThreshold: 100
  m_SceneGUID: 00000000000000000000000000000000
  m_OcclusionCullingData: {fileID: 0}
--- !u!104 &2
RenderSettings:
  m_ObjectHideFlags: 0
  serializedVersion: 9
  m_Fog: 1
  m_FogColor: {r: 0.23343332, g: 0.23343332, b: 0.29799998, a: 1}
  m_FogMode: 3
  m_FogDensity: 0.05
  m_LinearFogStart: 0
  m_LinearFogEnd: 300
  m_AmbientSkyColor: {r: 0.212, g: 0.227, b: 0.259, a: 1}
  m_AmbientEquatorColor: {r: 0.114, g: 0.125, b: 0.133, a: 1}
  m_AmbientGroundColor: {r: 0.047, g: 0.043, b: 0.035, a: 1}
  m_AmbientIntensity: 0.75
  m_AmbientMode: 0
  m_SubtractiveShadowColor: {r: 0.42, g: 0.478, b: 0.627, a: 1}
  m_SkyboxMaterial: {fileID: 2100000, guid: f29b9773fa37e5246913a9c9ad7cd484, type: 2}
  m_HaloStrength: 0.5
  m_FlareStrength: 1
  m_FlareFadeSpeed: 3
  m_HaloTexture: {fileID: 0}
  m_SpotCookie: {fileID: 10001, guid: 0000000000000000e000000000000000, type: 0}
  m_DefaultReflectionMode: 0
  m_DefaultReflectionResolution: 1024
  m_ReflectionBounces: 1
  m_ReflectionIntensity: 0.6
  m_CustomReflection: {fileID: 0}
  m_Sun: {fileID: 0}
  m_IndirectSpecularColor: {r: 0.22899619, g: 0.5004647, b: 0.79613525, a: 0.6}
  m_UseRadianceAmbientProbe: 0
--- !u!157 &3
LightmapSettings:
  m_ObjectHideFlags: 0
  serializedVersion: 12
  m_GIWorkflowMode: 1
  m_GISettings:
    serializedVersion: 2
    m_BounceScale: 1
    m_IndirectOutputScale: 1
    m_AlbedoBoost: 1
    m_EnvironmentLightingMode: 0
    m_EnableBakedLightmaps: 1
    m_EnableRealtimeLightmaps: 0
  m_LightmapEditorSettings:
    serializedVersion: 12
    m_Resolution: 2
    m_BakeResolution: 40
    m_AtlasSize: 1024
    m_AO: 0
    m_AOMaxDistance: 1
    m_CompAOExponent: 1
    m_CompAOExponentDirect: 0
    m_ExtractAmbientOcclusion: 0
    m_Padding: 2
    m_LightmapParameters: {fileID: 0}
    m_LightmapsBakeMode: 1
    m_TextureCompression: 1
    m_FinalGather: 0
    m_FinalGatherFiltering: 1
    m_FinalGatherRayCount: 256
    m_ReflectionCompression: 2
    m_MixedBakeMode: 2
    m_BakeBackend: 1
    m_PVRSampling: 1
    m_PVRDirectSampleCount: 32
    m_PVRSampleCount: 512
    m_PVRBounces: 2
    m_PVREnvironmentSampleCount: 256
    m_PVREnvironmentReferencePointCount: 2048
    m_PVRFilteringMode: 1
    m_PVRDenoiserTypeDirect: 1
    m_PVRDenoiserTypeIndirect: 1
    m_PVRDenoiserTypeAO: 1
    m_PVRFilterTypeDirect: 0
    m_PVRFilterTypeIndirect: 0
    m_PVRFilterTypeAO: 0
    m_PVREnvironmentMIS: 1
    m_PVRCulling: 1
    m_PVRFilteringGaussRadiusDirect: 1
    m_PVRFilteringGaussRadiusIndirect: 5
    m_PVRFilteringGaussRadiusAO: 2
    m_PVRFilteringAtrousPositionSigmaDirect: 0.5
    m_PVRFilteringAtrousPositionSigmaIndirect: 2
    m_PVRFilteringAtrousPositionSigmaAO: 1
    m_ExportTrainingData: 0
    m_TrainingDataDestination: TrainingData
    m_LightProbeSampleCountMultiplier: 4
  m_LightingDataAsset: {fileID: 0}
  m_LightingSettings: {fileID: 0}
--- !u!196 &4
NavMeshSettings:
  serializedVersion: 2
  m_ObjectHideFlags: 0
  m_BuildSettings:
    serializedVersion: 2
    agentTypeID: 0
    agentRadius: 0.5
    agentHeight: 2
    agentSlope: 45
    agentClimb: 0.4
    ledgeDropHeight: 0
    maxJumpAcrossDistance: 0
    minRegionArea: 2
    manualCellSize: 0
    cellSize: 0.16666667
    manualTileSize: 0
    tileSize: 256
    accuratePlacement: 0
    maxJobWorkers: 0
    preserveTilesOutsideBounds: 0
    debug:
      m_Flags: 0
  m_NavMeshData: {fileID: 0}
--- !u!1 &108882022
GameObject:
  m_ObjectHideFlags: 0
  m_CorrespondingSourceObject: {fileID: 0}
  m_PrefabInstance: {fileID: 0}
  m_PrefabAsset: {fileID: 0}
  serializedVersion: 6
  m_Component:
  - component: {fileID: 108882026}
  - component: {fileID: 108882025}
  - component: {fileID: 108882024}
  - component: {fileID: 108882023}
  m_Layer: 5
  m_Name: Canvas
  m_TagString: Untagged
  m_Icon: {fileID: 0}
  m_NavMeshLayer: 0
  m_StaticEditorFlags: 0
  m_IsActive: 1
--- !u!114 &108882023
MonoBehaviour:
  m_ObjectHideFlags: 0
  m_CorrespondingSourceObject: {fileID: 0}
  m_PrefabInstance: {fileID: 0}
  m_PrefabAsset: {fileID: 0}
  m_GameObject: {fileID: 108882022}
  m_Enabled: 1
  m_EditorHideFlags: 0
  m_Script: {fileID: 11500000, guid: dc42784cf147c0c48a680349fa168899, type: 3}
  m_Name: 
  m_EditorClassIdentifier: 
  m_IgnoreReversedGraphics: 1
  m_BlockingObjects: 0
  m_BlockingMask:
    serializedVersion: 2
    m_Bits: 4294967295
--- !u!114 &108882024
MonoBehaviour:
  m_ObjectHideFlags: 0
  m_CorrespondingSourceObject: {fileID: 0}
  m_PrefabInstance: {fileID: 0}
  m_PrefabAsset: {fileID: 0}
  m_GameObject: {fileID: 108882022}
  m_Enabled: 1
  m_EditorHideFlags: 0
  m_Script: {fileID: 11500000, guid: 0cd44c1031e13a943bb63640046fad76, type: 3}
  m_Name: 
  m_EditorClassIdentifier: 
  m_UiScaleMode: 1
  m_ReferencePixelsPerUnit: 100
  m_ScaleFactor: 1
  m_ReferenceResolution: {x: 2560, y: 1440}
  m_ScreenMatchMode: 0
  m_MatchWidthOrHeight: 0
  m_PhysicalUnit: 3
  m_FallbackScreenDPI: 96
  m_DefaultSpriteDPI: 96
  m_DynamicPixelsPerUnit: 1
  m_PresetInfoIsWorld: 0
--- !u!223 &108882025
Canvas:
  m_ObjectHideFlags: 0
  m_CorrespondingSourceObject: {fileID: 0}
  m_PrefabInstance: {fileID: 0}
  m_PrefabAsset: {fileID: 0}
  m_GameObject: {fileID: 108882022}
  m_Enabled: 1
  serializedVersion: 3
  m_RenderMode: 0
  m_Camera: {fileID: 0}
  m_PlaneDistance: 100
  m_PixelPerfect: 0
  m_ReceivesEvents: 1
  m_OverrideSorting: 0
  m_OverridePixelPerfect: 0
  m_SortingBucketNormalizedSize: 0
  m_AdditionalShaderChannelsFlag: 0
  m_SortingLayerID: 0
  m_SortingOrder: 0
  m_TargetDisplay: 0
--- !u!224 &108882026
RectTransform:
  m_ObjectHideFlags: 0
  m_CorrespondingSourceObject: {fileID: 0}
  m_PrefabInstance: {fileID: 0}
  m_PrefabAsset: {fileID: 0}
  m_GameObject: {fileID: 108882022}
  m_LocalRotation: {x: 0, y: 0, z: 0, w: 1}
  m_LocalPosition: {x: 0, y: 0, z: 0}
  m_LocalScale: {x: 0, y: 0, z: 0}
  m_ConstrainProportionsScale: 0
  m_Children:
  - {fileID: 1246663664}
  m_Father: {fileID: 0}
  m_RootOrder: 0
  m_LocalEulerAnglesHint: {x: 0, y: 0, z: 0}
  m_AnchorMin: {x: 0, y: 0}
  m_AnchorMax: {x: 0, y: 0}
  m_AnchoredPosition: {x: 0, y: 0}
  m_SizeDelta: {x: 0, y: 0}
  m_Pivot: {x: 0, y: 0}
--- !u!1001 &135893824
PrefabInstance:
  m_ObjectHideFlags: 0
  serializedVersion: 2
  m_Modification:
    m_TransformParent: {fileID: 804846804}
    m_Modifications:
    - target: {fileID: -8679921383154817045, guid: 342ce3aece6853c418700269d0c66f8e, type: 3}
      propertyPath: m_RootOrder
      value: 1
      objectReference: {fileID: 0}
    - target: {fileID: -8679921383154817045, guid: 342ce3aece6853c418700269d0c66f8e, type: 3}
      propertyPath: m_LocalPosition.x
      value: -138.7
      objectReference: {fileID: 0}
    - target: {fileID: -8679921383154817045, guid: 342ce3aece6853c418700269d0c66f8e, type: 3}
      propertyPath: m_LocalPosition.y
      value: -1
      objectReference: {fileID: 0}
    - target: {fileID: -8679921383154817045, guid: 342ce3aece6853c418700269d0c66f8e, type: 3}
      propertyPath: m_LocalPosition.z
      value: 0
      objectReference: {fileID: 0}
    - target: {fileID: -8679921383154817045, guid: 342ce3aece6853c418700269d0c66f8e, type: 3}
      propertyPath: m_LocalRotation.w
      value: 1
      objectReference: {fileID: 0}
    - target: {fileID: -8679921383154817045, guid: 342ce3aece6853c418700269d0c66f8e, type: 3}
      propertyPath: m_LocalRotation.x
      value: 0
      objectReference: {fileID: 0}
    - target: {fileID: -8679921383154817045, guid: 342ce3aece6853c418700269d0c66f8e, type: 3}
      propertyPath: m_LocalRotation.y
      value: -0
      objectReference: {fileID: 0}
    - target: {fileID: -8679921383154817045, guid: 342ce3aece6853c418700269d0c66f8e, type: 3}
      propertyPath: m_LocalRotation.z
      value: -0
      objectReference: {fileID: 0}
    - target: {fileID: -8679921383154817045, guid: 342ce3aece6853c418700269d0c66f8e, type: 3}
      propertyPath: m_LocalEulerAnglesHint.x
      value: 0
      objectReference: {fileID: 0}
    - target: {fileID: -8679921383154817045, guid: 342ce3aece6853c418700269d0c66f8e, type: 3}
      propertyPath: m_LocalEulerAnglesHint.y
      value: 0
      objectReference: {fileID: 0}
    - target: {fileID: -8679921383154817045, guid: 342ce3aece6853c418700269d0c66f8e, type: 3}
      propertyPath: m_LocalEulerAnglesHint.z
      value: 0
      objectReference: {fileID: 0}
    - target: {fileID: -7511558181221131132, guid: 342ce3aece6853c418700269d0c66f8e, type: 3}
      propertyPath: m_Materials.Array.data[0]
      value: 
      objectReference: {fileID: 2100000, guid: 8d65ed43f1c871344bd997db72d83a07, type: 2}
    - target: {fileID: 919132149155446097, guid: 342ce3aece6853c418700269d0c66f8e, type: 3}
      propertyPath: m_Name
      value: rpgpp_lt_mountain_01
      objectReference: {fileID: 0}
    - target: {fileID: 919132149155446097, guid: 342ce3aece6853c418700269d0c66f8e, type: 3}
      propertyPath: m_IsActive
      value: 1
      objectReference: {fileID: 0}
    m_RemovedComponents: []
  m_SourcePrefab: {fileID: 100100000, guid: 342ce3aece6853c418700269d0c66f8e, type: 3}
--- !u!4 &135893825 stripped
Transform:
  m_CorrespondingSourceObject: {fileID: -8679921383154817045, guid: 342ce3aece6853c418700269d0c66f8e, type: 3}
  m_PrefabInstance: {fileID: 135893824}
  m_PrefabAsset: {fileID: 0}
--- !u!1001 &194791285
PrefabInstance:
  m_ObjectHideFlags: 0
  serializedVersion: 2
  m_Modification:
    m_TransformParent: {fileID: 804846804}
    m_Modifications:
    - target: {fileID: -8679921383154817045, guid: 50e656a3da93f4d4480af048deb171b7, type: 3}
      propertyPath: m_RootOrder
      value: 7
      objectReference: {fileID: 0}
    - target: {fileID: -8679921383154817045, guid: 50e656a3da93f4d4480af048deb171b7, type: 3}
      propertyPath: m_LocalScale.x
      value: 1.0733
      objectReference: {fileID: 0}
    - target: {fileID: -8679921383154817045, guid: 50e656a3da93f4d4480af048deb171b7, type: 3}
      propertyPath: m_LocalScale.y
      value: 1.7806
      objectReference: {fileID: 0}
    - target: {fileID: -8679921383154817045, guid: 50e656a3da93f4d4480af048deb171b7, type: 3}
      propertyPath: m_LocalPosition.x
      value: 91.866
      objectReference: {fileID: 0}
    - target: {fileID: -8679921383154817045, guid: 50e656a3da93f4d4480af048deb171b7, type: 3}
      propertyPath: m_LocalPosition.y
      value: -1
      objectReference: {fileID: 0}
    - target: {fileID: -8679921383154817045, guid: 50e656a3da93f4d4480af048deb171b7, type: 3}
      propertyPath: m_LocalPosition.z
      value: 56.661
      objectReference: {fileID: 0}
    - target: {fileID: -8679921383154817045, guid: 50e656a3da93f4d4480af048deb171b7, type: 3}
      propertyPath: m_LocalRotation.w
      value: -0.27300233
      objectReference: {fileID: 0}
    - target: {fileID: -8679921383154817045, guid: 50e656a3da93f4d4480af048deb171b7, type: 3}
      propertyPath: m_LocalRotation.x
      value: -0
      objectReference: {fileID: 0}
    - target: {fileID: -8679921383154817045, guid: 50e656a3da93f4d4480af048deb171b7, type: 3}
      propertyPath: m_LocalRotation.y
      value: 0.9620134
      objectReference: {fileID: 0}
    - target: {fileID: -8679921383154817045, guid: 50e656a3da93f4d4480af048deb171b7, type: 3}
      propertyPath: m_LocalRotation.z
      value: -0
      objectReference: {fileID: 0}
    - target: {fileID: -8679921383154817045, guid: 50e656a3da93f4d4480af048deb171b7, type: 3}
      propertyPath: m_LocalEulerAnglesHint.x
      value: 0
      objectReference: {fileID: 0}
    - target: {fileID: -8679921383154817045, guid: 50e656a3da93f4d4480af048deb171b7, type: 3}
      propertyPath: m_LocalEulerAnglesHint.y
      value: 211.686
      objectReference: {fileID: 0}
    - target: {fileID: -8679921383154817045, guid: 50e656a3da93f4d4480af048deb171b7, type: 3}
      propertyPath: m_LocalEulerAnglesHint.z
      value: 0
      objectReference: {fileID: 0}
    - target: {fileID: -7511558181221131132, guid: 50e656a3da93f4d4480af048deb171b7, type: 3}
      propertyPath: m_Materials.Array.data[0]
      value: 
      objectReference: {fileID: 2100000, guid: 8d65ed43f1c871344bd997db72d83a07, type: 2}
    - target: {fileID: 919132149155446097, guid: 50e656a3da93f4d4480af048deb171b7, type: 3}
      propertyPath: m_Name
      value: rpgpp_lt_hill_small_01 (1)
      objectReference: {fileID: 0}
    - target: {fileID: 919132149155446097, guid: 50e656a3da93f4d4480af048deb171b7, type: 3}
      propertyPath: m_IsActive
      value: 1
      objectReference: {fileID: 0}
    m_RemovedComponents: []
  m_SourcePrefab: {fileID: 100100000, guid: 50e656a3da93f4d4480af048deb171b7, type: 3}
--- !u!4 &194791286 stripped
Transform:
  m_CorrespondingSourceObject: {fileID: -8679921383154817045, guid: 50e656a3da93f4d4480af048deb171b7, type: 3}
  m_PrefabInstance: {fileID: 194791285}
  m_PrefabAsset: {fileID: 0}
--- !u!1 &208102287
GameObject:
  m_ObjectHideFlags: 0
  m_CorrespondingSourceObject: {fileID: 0}
  m_PrefabInstance: {fileID: 0}
  m_PrefabAsset: {fileID: 0}
  serializedVersion: 6
  m_Component:
  - component: {fileID: 208102288}
  m_Layer: 0
  m_Name: Scene
  m_TagString: Untagged
  m_Icon: {fileID: 0}
  m_NavMeshLayer: 0
  m_StaticEditorFlags: 0
  m_IsActive: 1
--- !u!4 &208102288
Transform:
  m_ObjectHideFlags: 0
  m_CorrespondingSourceObject: {fileID: 0}
  m_PrefabInstance: {fileID: 0}
  m_PrefabAsset: {fileID: 0}
  m_GameObject: {fileID: 208102287}
  m_LocalRotation: {x: 0, y: 0, z: 0, w: 1}
  m_LocalPosition: {x: 0, y: 0, z: 0}
  m_LocalScale: {x: 1, y: 1, z: 1}
  m_ConstrainProportionsScale: 0
  m_Children:
  - {fileID: 801603899}
  - {fileID: 448461177}
  - {fileID: 1812349217}
  - {fileID: 804846804}
  - {fileID: 659640096}
  m_Father: {fileID: 0}
  m_RootOrder: 1
  m_LocalEulerAnglesHint: {x: 0, y: 0, z: 0}
--- !u!1001 &326057811
PrefabInstance:
  m_ObjectHideFlags: 0
  serializedVersion: 2
  m_Modification:
    m_TransformParent: {fileID: 804846804}
    m_Modifications:
    - target: {fileID: -8679921383154817045, guid: 50e656a3da93f4d4480af048deb171b7, type: 3}
      propertyPath: m_RootOrder
      value: 3
      objectReference: {fileID: 0}
    - target: {fileID: -8679921383154817045, guid: 50e656a3da93f4d4480af048deb171b7, type: 3}
      propertyPath: m_LocalPosition.x
      value: 91.1
      objectReference: {fileID: 0}
    - target: {fileID: -8679921383154817045, guid: 50e656a3da93f4d4480af048deb171b7, type: 3}
      propertyPath: m_LocalPosition.y
      value: -1
      objectReference: {fileID: 0}
    - target: {fileID: -8679921383154817045, guid: 50e656a3da93f4d4480af048deb171b7, type: 3}
      propertyPath: m_LocalPosition.z
      value: 130.3
      objectReference: {fileID: 0}
    - target: {fileID: -8679921383154817045, guid: 50e656a3da93f4d4480af048deb171b7, type: 3}
      propertyPath: m_LocalRotation.w
      value: 1
      objectReference: {fileID: 0}
    - target: {fileID: -8679921383154817045, guid: 50e656a3da93f4d4480af048deb171b7, type: 3}
      propertyPath: m_LocalRotation.x
      value: 0
      objectReference: {fileID: 0}
    - target: {fileID: -8679921383154817045, guid: 50e656a3da93f4d4480af048deb171b7, type: 3}
      propertyPath: m_LocalRotation.y
      value: -0
      objectReference: {fileID: 0}
    - target: {fileID: -8679921383154817045, guid: 50e656a3da93f4d4480af048deb171b7, type: 3}
      propertyPath: m_LocalRotation.z
      value: -0
      objectReference: {fileID: 0}
    - target: {fileID: -8679921383154817045, guid: 50e656a3da93f4d4480af048deb171b7, type: 3}
      propertyPath: m_LocalEulerAnglesHint.x
      value: 0
      objectReference: {fileID: 0}
    - target: {fileID: -8679921383154817045, guid: 50e656a3da93f4d4480af048deb171b7, type: 3}
      propertyPath: m_LocalEulerAnglesHint.y
      value: 0
      objectReference: {fileID: 0}
    - target: {fileID: -8679921383154817045, guid: 50e656a3da93f4d4480af048deb171b7, type: 3}
      propertyPath: m_LocalEulerAnglesHint.z
      value: 0
      objectReference: {fileID: 0}
    - target: {fileID: -7511558181221131132, guid: 50e656a3da93f4d4480af048deb171b7, type: 3}
      propertyPath: m_Materials.Array.data[0]
      value: 
      objectReference: {fileID: 2100000, guid: 8d65ed43f1c871344bd997db72d83a07, type: 2}
    - target: {fileID: 919132149155446097, guid: 50e656a3da93f4d4480af048deb171b7, type: 3}
      propertyPath: m_Name
      value: rpgpp_lt_hill_small_01
      objectReference: {fileID: 0}
    - target: {fileID: 919132149155446097, guid: 50e656a3da93f4d4480af048deb171b7, type: 3}
      propertyPath: m_IsActive
      value: 1
      objectReference: {fileID: 0}
    m_RemovedComponents: []
  m_SourcePrefab: {fileID: 100100000, guid: 50e656a3da93f4d4480af048deb171b7, type: 3}
--- !u!4 &326057812 stripped
Transform:
  m_CorrespondingSourceObject: {fileID: -8679921383154817045, guid: 50e656a3da93f4d4480af048deb171b7, type: 3}
  m_PrefabInstance: {fileID: 326057811}
  m_PrefabAsset: {fileID: 0}
--- !u!1 &448461174
GameObject:
  m_ObjectHideFlags: 0
  m_CorrespondingSourceObject: {fileID: 0}
  m_PrefabInstance: {fileID: 0}
  m_PrefabAsset: {fileID: 0}
  serializedVersion: 6
  m_Component:
  - component: {fileID: 448461177}
  - component: {fileID: 448461176}
  - component: {fileID: 448461175}
  - component: {fileID: 448461178}
  - component: {fileID: 448461179}
  - component: {fileID: 448461180}
  m_Layer: 0
  m_Name: Main Camera
  m_TagString: MainCamera
  m_Icon: {fileID: 0}
  m_NavMeshLayer: 0
  m_StaticEditorFlags: 0
  m_IsActive: 1
--- !u!81 &448461175
AudioListener:
  m_ObjectHideFlags: 0
  m_CorrespondingSourceObject: {fileID: 0}
  m_PrefabInstance: {fileID: 0}
  m_PrefabAsset: {fileID: 0}
  m_GameObject: {fileID: 448461174}
  m_Enabled: 1
--- !u!20 &448461176
Camera:
  m_ObjectHideFlags: 0
  m_CorrespondingSourceObject: {fileID: 0}
  m_PrefabInstance: {fileID: 0}
  m_PrefabAsset: {fileID: 0}
  m_GameObject: {fileID: 448461174}
  m_Enabled: 1
  serializedVersion: 2
  m_ClearFlags: 1
  m_BackGroundColor: {r: 0.19215687, g: 0.3019608, b: 0.4745098, a: 0}
  m_projectionMatrixMode: 1
  m_GateFitMode: 2
  m_FOVAxisMode: 0
  m_SensorSize: {x: 36, y: 24}
  m_LensShift: {x: 0, y: 0}
  m_FocalLength: 20.78461
  m_NormalizedViewPortRect:
    serializedVersion: 2
    x: 0
    y: 0
    width: 1
    height: 1
  near clip plane: 0.3
  far clip plane: 10000
  field of view: 60.000004
  orthographic: 0
  orthographic size: 5
  m_Depth: -1
  m_CullingMask:
    serializedVersion: 2
    m_Bits: 4294967295
  m_RenderingPath: -1
  m_TargetTexture: {fileID: 0}
  m_TargetDisplay: 0
  m_TargetEye: 3
  m_HDR: 1
  m_AllowMSAA: 1
  m_AllowDynamicResolution: 0
  m_ForceIntoRT: 0
  m_OcclusionCulling: 1
  m_StereoConvergence: 10
  m_StereoSeparation: 0.022
--- !u!4 &448461177
Transform:
  m_ObjectHideFlags: 0
  m_CorrespondingSourceObject: {fileID: 0}
  m_PrefabInstance: {fileID: 0}
  m_PrefabAsset: {fileID: 0}
  m_GameObject: {fileID: 448461174}
  m_LocalRotation: {x: 0, y: 0, z: 0, w: 1}
  m_LocalPosition: {x: 0, y: 2, z: -10}
  m_LocalScale: {x: 1, y: 1, z: 1}
  m_ConstrainProportionsScale: 0
  m_Children:
  - {fileID: 767505618}
  m_Father: {fileID: 208102288}
  m_RootOrder: 1
  m_LocalEulerAnglesHint: {x: 0, y: 0, z: 0}
--- !u!114 &448461178
MonoBehaviour:
  m_ObjectHideFlags: 0
  m_CorrespondingSourceObject: {fileID: 0}
  m_PrefabInstance: {fileID: 0}
  m_PrefabAsset: {fileID: 0}
  m_GameObject: {fileID: 448461174}
  m_Enabled: 1
  m_EditorHideFlags: 0
  m_Script: {fileID: 11500000, guid: a79441f348de89743a2939f4d699eac1, type: 3}
  m_Name: 
  m_EditorClassIdentifier: 
  m_RenderShadows: 1
  m_RequiresDepthTextureOption: 2
  m_RequiresOpaqueTextureOption: 2
  m_CameraType: 0
  m_Cameras: []
  m_RendererIndex: -1
  m_VolumeLayerMask:
    serializedVersion: 2
    m_Bits: 1
  m_VolumeTrigger: {fileID: 0}
  m_VolumeFrameworkUpdateModeOption: 2
  m_RenderPostProcessing: 1
  m_Antialiasing: 0
  m_AntialiasingQuality: 2
  m_StopNaN: 0
  m_Dithering: 0
  m_ClearDepth: 1
  m_AllowXRRendering: 1
  m_RequiresDepthTexture: 0
  m_RequiresColorTexture: 0
  m_Version: 2
--- !u!114 &448461179
MonoBehaviour:
  m_ObjectHideFlags: 0
  m_CorrespondingSourceObject: {fileID: 0}
  m_PrefabInstance: {fileID: 0}
  m_PrefabAsset: {fileID: 0}
  m_GameObject: {fileID: 448461174}
  m_Enabled: 1
  m_EditorHideFlags: 0
  m_Script: {fileID: 11500000, guid: b28de5adde96ce54aa0ddaf41e6299da, type: 3}
  m_Name: 
  m_EditorClassIdentifier: 
  boost: 3.5
  positionLerpTime: 0.2
  mouseSensitivityCurve:
    m_Curve:
    - time: 0
      value: 0.5
      inSlope: 0
      outSlope: 5
      tangentMode: 0
      weightedMode: 0
      inWeight: 0
      outWeight: 0
    - time: 1
      value: 2.5
      inSlope: 0
      outSlope: 0
      tangentMode: 0
      weightedMode: 0
      inWeight: 0
      outWeight: 0
    m_PreInfinity: 2
    m_PostInfinity: 2
    m_RotationOrder: 4
  rotationLerpTime: 0.01
  invertY: 0
--- !u!114 &448461180
MonoBehaviour:
  m_ObjectHideFlags: 0
  m_CorrespondingSourceObject: {fileID: 0}
  m_PrefabInstance: {fileID: 0}
  m_PrefabAsset: {fileID: 0}
  m_GameObject: {fileID: 448461174}
  m_Enabled: 1
  m_EditorHideFlags: 0
  m_Script: {fileID: 11500000, guid: 3650a0e5b1d46dc458e053e12d170327, type: 3}
  m_Name: 
  m_EditorClassIdentifier: 
  cam: {fileID: 448461176}
  projectile: {fileID: 8098934480818727112, guid: a9984cdc0e2e2e44bb88f4447a399dbe, type: 3}
  muzzle: {fileID: 6543707246619394134, guid: 37c7a3c553e2207428b8799ad892bad0, type: 3}
  firePoint: {fileID: 767505618}
  projectileSpeed: 30
  fireRate: 4
  arcRange: 1
--- !u!1001 &585825076
PrefabInstance:
  m_ObjectHideFlags: 0
  serializedVersion: 2
  m_Modification:
    m_TransformParent: {fileID: 804846804}
    m_Modifications:
    - target: {fileID: -8679921383154817045, guid: 342ce3aece6853c418700269d0c66f8e, type: 3}
      propertyPath: m_RootOrder
      value: 6
      objectReference: {fileID: 0}
    - target: {fileID: -8679921383154817045, guid: 342ce3aece6853c418700269d0c66f8e, type: 3}
      propertyPath: m_LocalScale.y
      value: 0.67219
      objectReference: {fileID: 0}
    - target: {fileID: -8679921383154817045, guid: 342ce3aece6853c418700269d0c66f8e, type: 3}
      propertyPath: m_LocalScale.z
      value: 1.3873727
      objectReference: {fileID: 0}
    - target: {fileID: -8679921383154817045, guid: 342ce3aece6853c418700269d0c66f8e, type: 3}
      propertyPath: m_LocalPosition.x
      value: 67.4
      objectReference: {fileID: 0}
    - target: {fileID: -8679921383154817045, guid: 342ce3aece6853c418700269d0c66f8e, type: 3}
      propertyPath: m_LocalPosition.y
      value: -1
      objectReference: {fileID: 0}
    - target: {fileID: -8679921383154817045, guid: 342ce3aece6853c418700269d0c66f8e, type: 3}
      propertyPath: m_LocalPosition.z
      value: -132.6
      objectReference: {fileID: 0}
    - target: {fileID: -8679921383154817045, guid: 342ce3aece6853c418700269d0c66f8e, type: 3}
      propertyPath: m_LocalRotation.w
      value: -0.7881024
      objectReference: {fileID: 0}
    - target: {fileID: -8679921383154817045, guid: 342ce3aece6853c418700269d0c66f8e, type: 3}
      propertyPath: m_LocalRotation.x
      value: -0
      objectReference: {fileID: 0}
    - target: {fileID: -8679921383154817045, guid: 342ce3aece6853c418700269d0c66f8e, type: 3}
      propertyPath: m_LocalRotation.y
      value: 0.6155442
      objectReference: {fileID: 0}
    - target: {fileID: -8679921383154817045, guid: 342ce3aece6853c418700269d0c66f8e, type: 3}
      propertyPath: m_LocalRotation.z
      value: -0
      objectReference: {fileID: 0}
    - target: {fileID: -8679921383154817045, guid: 342ce3aece6853c418700269d0c66f8e, type: 3}
      propertyPath: m_LocalEulerAnglesHint.x
      value: 0
      objectReference: {fileID: 0}
    - target: {fileID: -8679921383154817045, guid: 342ce3aece6853c418700269d0c66f8e, type: 3}
      propertyPath: m_LocalEulerAnglesHint.y
      value: 284.017
      objectReference: {fileID: 0}
    - target: {fileID: -8679921383154817045, guid: 342ce3aece6853c418700269d0c66f8e, type: 3}
      propertyPath: m_LocalEulerAnglesHint.z
      value: 0
      objectReference: {fileID: 0}
    - target: {fileID: -7511558181221131132, guid: 342ce3aece6853c418700269d0c66f8e, type: 3}
      propertyPath: m_Materials.Array.data[0]
      value: 
      objectReference: {fileID: 2100000, guid: 8d65ed43f1c871344bd997db72d83a07, type: 2}
    - target: {fileID: 919132149155446097, guid: 342ce3aece6853c418700269d0c66f8e, type: 3}
      propertyPath: m_Name
      value: rpgpp_lt_mountain_01 (3)
      objectReference: {fileID: 0}
    - target: {fileID: 919132149155446097, guid: 342ce3aece6853c418700269d0c66f8e, type: 3}
      propertyPath: m_IsActive
      value: 1
      objectReference: {fileID: 0}
    m_RemovedComponents: []
  m_SourcePrefab: {fileID: 100100000, guid: 342ce3aece6853c418700269d0c66f8e, type: 3}
--- !u!4 &585825077 stripped
Transform:
  m_CorrespondingSourceObject: {fileID: -8679921383154817045, guid: 342ce3aece6853c418700269d0c66f8e, type: 3}
  m_PrefabInstance: {fileID: 585825076}
  m_PrefabAsset: {fileID: 0}
--- !u!1 &659640095
GameObject:
  m_ObjectHideFlags: 0
  m_CorrespondingSourceObject: {fileID: 0}
  m_PrefabInstance: {fileID: 0}
  m_PrefabAsset: {fileID: 0}
  serializedVersion: 6
  m_Component:
  - component: {fileID: 659640096}
  - component: {fileID: 659640098}
  - component: {fileID: 659640097}
  m_Layer: 0
  m_Name: EventSystem
  m_TagString: Untagged
  m_Icon: {fileID: 0}
  m_NavMeshLayer: 0
  m_StaticEditorFlags: 0
  m_IsActive: 1
--- !u!4 &659640096
Transform:
  m_ObjectHideFlags: 0
  m_CorrespondingSourceObject: {fileID: 0}
  m_PrefabInstance: {fileID: 0}
  m_PrefabAsset: {fileID: 0}
  m_GameObject: {fileID: 659640095}
  m_LocalRotation: {x: -0, y: -0, z: -0, w: 1}
  m_LocalPosition: {x: 0, y: 0, z: 0}
  m_LocalScale: {x: 1, y: 1, z: 1}
  m_ConstrainProportionsScale: 0
  m_Children: []
  m_Father: {fileID: 208102288}
  m_RootOrder: 4
  m_LocalEulerAnglesHint: {x: 0, y: 0, z: 0}
--- !u!114 &659640097
MonoBehaviour:
  m_ObjectHideFlags: 0
  m_CorrespondingSourceObject: {fileID: 0}
  m_PrefabInstance: {fileID: 0}
  m_PrefabAsset: {fileID: 0}
  m_GameObject: {fileID: 659640095}
  m_Enabled: 1
  m_EditorHideFlags: 0
  m_Script: {fileID: 11500000, guid: 4f231c4fb786f3946a6b90b886c48677, type: 3}
  m_Name: 
  m_EditorClassIdentifier: 
  m_HorizontalAxis: Horizontal
  m_VerticalAxis: Vertical
  m_SubmitButton: Submit
  m_CancelButton: Cancel
  m_InputActionsPerSecond: 10
  m_RepeatDelay: 0.5
  m_ForceModuleActive: 0
--- !u!114 &659640098
MonoBehaviour:
  m_ObjectHideFlags: 0
  m_CorrespondingSourceObject: {fileID: 0}
  m_PrefabInstance: {fileID: 0}
  m_PrefabAsset: {fileID: 0}
  m_GameObject: {fileID: 659640095}
  m_Enabled: 1
  m_EditorHideFlags: 0
  m_Script: {fileID: 11500000, guid: 76c392e42b5098c458856cdf6ecaaaa1, type: 3}
  m_Name: 
  m_EditorClassIdentifier: 
  m_FirstSelected: {fileID: 0}
  m_sendNavigationEvents: 1
  m_DragThreshold: 10
--- !u!1 &767505617
GameObject:
  m_ObjectHideFlags: 0
  m_CorrespondingSourceObject: {fileID: 0}
  m_PrefabInstance: {fileID: 0}
  m_PrefabAsset: {fileID: 0}
  serializedVersion: 6
  m_Component:
  - component: {fileID: 767505618}
  m_Layer: 0
  m_Name: FirePoint
  m_TagString: Untagged
  m_Icon: {fileID: 0}
  m_NavMeshLayer: 0
  m_StaticEditorFlags: 0
  m_IsActive: 1
--- !u!4 &767505618
Transform:
  m_ObjectHideFlags: 0
  m_CorrespondingSourceObject: {fileID: 0}
  m_PrefabInstance: {fileID: 0}
  m_PrefabAsset: {fileID: 0}
  m_GameObject: {fileID: 767505617}
  m_LocalRotation: {x: 0, y: 0, z: 0, w: 1}
  m_LocalPosition: {x: 0.2, y: -0.15, z: 0.5}
  m_LocalScale: {x: 1, y: 1, z: 1}
  m_ConstrainProportionsScale: 0
  m_Children: []
  m_Father: {fileID: 448461177}
  m_RootOrder: 0
  m_LocalEulerAnglesHint: {x: 0, y: 0, z: 0}
--- !u!1 &801603898
GameObject:
  m_ObjectHideFlags: 0
  m_CorrespondingSourceObject: {fileID: 0}
  m_PrefabInstance: {fileID: 0}
  m_PrefabAsset: {fileID: 0}
  serializedVersion: 6
  m_Component:
  - component: {fileID: 801603899}
  - component: {fileID: 801603900}
  m_Layer: 0
  m_Name: Global Volume
  m_TagString: Untagged
  m_Icon: {fileID: 0}
  m_NavMeshLayer: 0
  m_StaticEditorFlags: 0
  m_IsActive: 1
--- !u!4 &801603899
Transform:
  m_ObjectHideFlags: 0
  m_CorrespondingSourceObject: {fileID: 0}
  m_PrefabInstance: {fileID: 0}
  m_PrefabAsset: {fileID: 0}
  m_GameObject: {fileID: 801603898}
  m_LocalRotation: {x: 0, y: 0, z: 0, w: 1}
  m_LocalPosition: {x: 0, y: 0, z: 0}
  m_LocalScale: {x: 1, y: 1, z: 1}
  m_ConstrainProportionsScale: 0
  m_Children: []
  m_Father: {fileID: 208102288}
  m_RootOrder: 0
  m_LocalEulerAnglesHint: {x: 0, y: 0, z: 0}
--- !u!114 &801603900
MonoBehaviour:
  m_ObjectHideFlags: 0
  m_CorrespondingSourceObject: {fileID: 0}
  m_PrefabInstance: {fileID: 0}
  m_PrefabAsset: {fileID: 0}
  m_GameObject: {fileID: 801603898}
  m_Enabled: 1
  m_EditorHideFlags: 0
  m_Script: {fileID: 11500000, guid: 172515602e62fb746b5d573b38a5fe58, type: 3}
  m_Name: 
  m_EditorClassIdentifier: 
  m_IsGlobal: 1
  priority: 0
  blendDistance: 0
  weight: 1
  sharedProfile: {fileID: 11400000, guid: c5e430d5fa6678e45a06626998b13f10, type: 2}
--- !u!1 &804846803
GameObject:
  m_ObjectHideFlags: 0
  m_CorrespondingSourceObject: {fileID: 0}
  m_PrefabInstance: {fileID: 0}
  m_PrefabAsset: {fileID: 0}
  serializedVersion: 6
  m_Component:
  - component: {fileID: 804846804}
  m_Layer: 0
  m_Name: Scene
  m_TagString: Untagged
  m_Icon: {fileID: 0}
  m_NavMeshLayer: 0
  m_StaticEditorFlags: 0
  m_IsActive: 1
--- !u!4 &804846804
Transform:
  m_ObjectHideFlags: 0
  m_CorrespondingSourceObject: {fileID: 0}
  m_PrefabInstance: {fileID: 0}
  m_PrefabAsset: {fileID: 0}
  m_GameObject: {fileID: 804846803}
  m_LocalRotation: {x: 0, y: 0, z: 0, w: 1}
  m_LocalPosition: {x: 0, y: 0, z: 0}
  m_LocalScale: {x: 1, y: 1, z: 1}
  m_ConstrainProportionsScale: 0
  m_Children:
  - {fileID: 1476848260}
  - {fileID: 135893825}
  - {fileID: 1713519317}
  - {fileID: 326057812}
  - {fileID: 1129831974}
  - {fileID: 1741202562}
  - {fileID: 585825077}
  - {fileID: 194791286}
  - {fileID: 939292593}
  - {fileID: 1616586171}
  - {fileID: 1770250705}
  m_Father: {fileID: 208102288}
  m_RootOrder: 3
  m_LocalEulerAnglesHint: {x: 0, y: 0, z: 0}
--- !u!1001 &912422618
PrefabInstance:
  m_ObjectHideFlags: 0
  serializedVersion: 2
  m_Modification:
    m_TransformParent: {fileID: 0}
    m_Modifications:
    - target: {fileID: 1347800492596809447, guid: 85a544bc76c7f4847823ff91fdc3dfd9, type: 3}
      propertyPath: m_Name
      value: vfx_Shield02_simple
      objectReference: {fileID: 0}
    - target: {fileID: 1347800492596809447, guid: 85a544bc76c7f4847823ff91fdc3dfd9, type: 3}
      propertyPath: m_IsActive
      value: 0
      objectReference: {fileID: 0}
    - target: {fileID: 6099709222901825082, guid: 85a544bc76c7f4847823ff91fdc3dfd9, type: 3}
      propertyPath: m_RootOrder
      value: 7
      objectReference: {fileID: 0}
    - target: {fileID: 6099709222901825082, guid: 85a544bc76c7f4847823ff91fdc3dfd9, type: 3}
      propertyPath: m_LocalPosition.x
      value: 5.2530003
      objectReference: {fileID: 0}
    - target: {fileID: 6099709222901825082, guid: 85a544bc76c7f4847823ff91fdc3dfd9, type: 3}
      propertyPath: m_LocalPosition.y
      value: 1.25
      objectReference: {fileID: 0}
    - target: {fileID: 6099709222901825082, guid: 85a544bc76c7f4847823ff91fdc3dfd9, type: 3}
      propertyPath: m_LocalPosition.z
      value: 0
      objectReference: {fileID: 0}
    - target: {fileID: 6099709222901825082, guid: 85a544bc76c7f4847823ff91fdc3dfd9, type: 3}
      propertyPath: m_LocalRotation.w
      value: 1
      objectReference: {fileID: 0}
    - target: {fileID: 6099709222901825082, guid: 85a544bc76c7f4847823ff91fdc3dfd9, type: 3}
      propertyPath: m_LocalRotation.x
      value: 0
      objectReference: {fileID: 0}
    - target: {fileID: 6099709222901825082, guid: 85a544bc76c7f4847823ff91fdc3dfd9, type: 3}
      propertyPath: m_LocalRotation.y
      value: 0
      objectReference: {fileID: 0}
    - target: {fileID: 6099709222901825082, guid: 85a544bc76c7f4847823ff91fdc3dfd9, type: 3}
      propertyPath: m_LocalRotation.z
      value: 0
      objectReference: {fileID: 0}
    - target: {fileID: 6099709222901825082, guid: 85a544bc76c7f4847823ff91fdc3dfd9, type: 3}
      propertyPath: m_LocalEulerAnglesHint.x
      value: 0
      objectReference: {fileID: 0}
    - target: {fileID: 6099709222901825082, guid: 85a544bc76c7f4847823ff91fdc3dfd9, type: 3}
      propertyPath: m_LocalEulerAnglesHint.y
      value: 0
      objectReference: {fileID: 0}
    - target: {fileID: 6099709222901825082, guid: 85a544bc76c7f4847823ff91fdc3dfd9, type: 3}
      propertyPath: m_LocalEulerAnglesHint.z
      value: 0
      objectReference: {fileID: 0}
    - target: {fileID: 7054884021531639543, guid: 85a544bc76c7f4847823ff91fdc3dfd9, type: 3}
      propertyPath: m_Enabled
      value: 0
      objectReference: {fileID: 0}
    m_RemovedComponents: []
  m_SourcePrefab: {fileID: 100100000, guid: 85a544bc76c7f4847823ff91fdc3dfd9, type: 3}
--- !u!1001 &939292592
PrefabInstance:
  m_ObjectHideFlags: 0
  serializedVersion: 2
  m_Modification:
    m_TransformParent: {fileID: 804846804}
    m_Modifications:
    - target: {fileID: -8679921383154817045, guid: 1b56590c4cbdd444aa6b4dfcc98e8558, type: 3}
      propertyPath: m_RootOrder
      value: 8
      objectReference: {fileID: 0}
    - target: {fileID: -8679921383154817045, guid: 1b56590c4cbdd444aa6b4dfcc98e8558, type: 3}
      propertyPath: m_LocalPosition.x
      value: -72.88815
      objectReference: {fileID: 0}
    - target: {fileID: -8679921383154817045, guid: 1b56590c4cbdd444aa6b4dfcc98e8558, type: 3}
      propertyPath: m_LocalPosition.y
      value: -1
      objectReference: {fileID: 0}
    - target: {fileID: -8679921383154817045, guid: 1b56590c4cbdd444aa6b4dfcc98e8558, type: 3}
      propertyPath: m_LocalPosition.z
      value: -89.71989
      objectReference: {fileID: 0}
    - target: {fileID: -8679921383154817045, guid: 1b56590c4cbdd444aa6b4dfcc98e8558, type: 3}
      propertyPath: m_LocalRotation.w
      value: -0.27300233
      objectReference: {fileID: 0}
    - target: {fileID: -8679921383154817045, guid: 1b56590c4cbdd444aa6b4dfcc98e8558, type: 3}
      propertyPath: m_LocalRotation.x
      value: -0
      objectReference: {fileID: 0}
    - target: {fileID: -8679921383154817045, guid: 1b56590c4cbdd444aa6b4dfcc98e8558, type: 3}
      propertyPath: m_LocalRotation.y
      value: 0.9620134
      objectReference: {fileID: 0}
    - target: {fileID: -8679921383154817045, guid: 1b56590c4cbdd444aa6b4dfcc98e8558, type: 3}
      propertyPath: m_LocalRotation.z
      value: -0
      objectReference: {fileID: 0}
    - target: {fileID: -8679921383154817045, guid: 1b56590c4cbdd444aa6b4dfcc98e8558, type: 3}
      propertyPath: m_LocalEulerAnglesHint.x
      value: 0
      objectReference: {fileID: 0}
    - target: {fileID: -8679921383154817045, guid: 1b56590c4cbdd444aa6b4dfcc98e8558, type: 3}
      propertyPath: m_LocalEulerAnglesHint.y
      value: 211.686
      objectReference: {fileID: 0}
    - target: {fileID: -8679921383154817045, guid: 1b56590c4cbdd444aa6b4dfcc98e8558, type: 3}
      propertyPath: m_LocalEulerAnglesHint.z
      value: 0
      objectReference: {fileID: 0}
    - target: {fileID: -7511558181221131132, guid: 1b56590c4cbdd444aa6b4dfcc98e8558, type: 3}
      propertyPath: m_Materials.Array.data[0]
      value: 
      objectReference: {fileID: 2100000, guid: 8d65ed43f1c871344bd997db72d83a07, type: 2}
    - target: {fileID: 919132149155446097, guid: 1b56590c4cbdd444aa6b4dfcc98e8558, type: 3}
      propertyPath: m_Name
      value: rpgpp_lt_hill_small_02 (1)
      objectReference: {fileID: 0}
    - target: {fileID: 919132149155446097, guid: 1b56590c4cbdd444aa6b4dfcc98e8558, type: 3}
      propertyPath: m_IsActive
      value: 1
      objectReference: {fileID: 0}
    m_RemovedComponents: []
  m_SourcePrefab: {fileID: 100100000, guid: 1b56590c4cbdd444aa6b4dfcc98e8558, type: 3}
--- !u!4 &939292593 stripped
Transform:
  m_CorrespondingSourceObject: {fileID: -8679921383154817045, guid: 1b56590c4cbdd444aa6b4dfcc98e8558, type: 3}
  m_PrefabInstance: {fileID: 939292592}
  m_PrefabAsset: {fileID: 0}
--- !u!1001 &1129831973
PrefabInstance:
  m_ObjectHideFlags: 0
  serializedVersion: 2
  m_Modification:
    m_TransformParent: {fileID: 804846804}
    m_Modifications:
    - target: {fileID: -8679921383154817045, guid: 1b56590c4cbdd444aa6b4dfcc98e8558, type: 3}
      propertyPath: m_RootOrder
      value: 4
      objectReference: {fileID: 0}
    - target: {fileID: -8679921383154817045, guid: 1b56590c4cbdd444aa6b4dfcc98e8558, type: 3}
      propertyPath: m_LocalPosition.x
      value: 3.2
      objectReference: {fileID: 0}
    - target: {fileID: -8679921383154817045, guid: 1b56590c4cbdd444aa6b4dfcc98e8558, type: 3}
      propertyPath: m_LocalPosition.y
      value: -1
      objectReference: {fileID: 0}
    - target: {fileID: -8679921383154817045, guid: 1b56590c4cbdd444aa6b4dfcc98e8558, type: 3}
      propertyPath: m_LocalPosition.z
      value: 128.2
      objectReference: {fileID: 0}
    - target: {fileID: -8679921383154817045, guid: 1b56590c4cbdd444aa6b4dfcc98e8558, type: 3}
      propertyPath: m_LocalRotation.w
      value: 1
      objectReference: {fileID: 0}
    - target: {fileID: -8679921383154817045, guid: 1b56590c4cbdd444aa6b4dfcc98e8558, type: 3}
      propertyPath: m_LocalRotation.x
      value: 0
      objectReference: {fileID: 0}
    - target: {fileID: -8679921383154817045, guid: 1b56590c4cbdd444aa6b4dfcc98e8558, type: 3}
      propertyPath: m_LocalRotation.y
      value: -0
      objectReference: {fileID: 0}
    - target: {fileID: -8679921383154817045, guid: 1b56590c4cbdd444aa6b4dfcc98e8558, type: 3}
      propertyPath: m_LocalRotation.z
      value: -0
      objectReference: {fileID: 0}
    - target: {fileID: -8679921383154817045, guid: 1b56590c4cbdd444aa6b4dfcc98e8558, type: 3}
      propertyPath: m_LocalEulerAnglesHint.x
      value: 0
      objectReference: {fileID: 0}
    - target: {fileID: -8679921383154817045, guid: 1b56590c4cbdd444aa6b4dfcc98e8558, type: 3}
      propertyPath: m_LocalEulerAnglesHint.y
      value: 0
      objectReference: {fileID: 0}
    - target: {fileID: -8679921383154817045, guid: 1b56590c4cbdd444aa6b4dfcc98e8558, type: 3}
      propertyPath: m_LocalEulerAnglesHint.z
      value: 0
      objectReference: {fileID: 0}
    - target: {fileID: -7511558181221131132, guid: 1b56590c4cbdd444aa6b4dfcc98e8558, type: 3}
      propertyPath: m_Materials.Array.data[0]
      value: 
      objectReference: {fileID: 2100000, guid: 8d65ed43f1c871344bd997db72d83a07, type: 2}
    - target: {fileID: 919132149155446097, guid: 1b56590c4cbdd444aa6b4dfcc98e8558, type: 3}
      propertyPath: m_Name
      value: rpgpp_lt_hill_small_02
      objectReference: {fileID: 0}
    - target: {fileID: 919132149155446097, guid: 1b56590c4cbdd444aa6b4dfcc98e8558, type: 3}
      propertyPath: m_IsActive
      value: 1
      objectReference: {fileID: 0}
    m_RemovedComponents: []
  m_SourcePrefab: {fileID: 100100000, guid: 1b56590c4cbdd444aa6b4dfcc98e8558, type: 3}
--- !u!4 &1129831974 stripped
Transform:
  m_CorrespondingSourceObject: {fileID: -8679921383154817045, guid: 1b56590c4cbdd444aa6b4dfcc98e8558, type: 3}
  m_PrefabInstance: {fileID: 1129831973}
  m_PrefabAsset: {fileID: 0}
--- !u!1 &1246663663
GameObject:
  m_ObjectHideFlags: 0
  m_CorrespondingSourceObject: {fileID: 0}
  m_PrefabInstance: {fileID: 0}
  m_PrefabAsset: {fileID: 0}
  serializedVersion: 6
  m_Component:
  - component: {fileID: 1246663664}
  - component: {fileID: 1246663666}
  - component: {fileID: 1246663665}
  m_Layer: 5
  m_Name: Text
  m_TagString: Untagged
  m_Icon: {fileID: 0}
  m_NavMeshLayer: 0
  m_StaticEditorFlags: 0
  m_IsActive: 1
--- !u!224 &1246663664
RectTransform:
  m_ObjectHideFlags: 0
  m_CorrespondingSourceObject: {fileID: 0}
  m_PrefabInstance: {fileID: 0}
  m_PrefabAsset: {fileID: 0}
  m_GameObject: {fileID: 1246663663}
  m_LocalRotation: {x: 0, y: 0, z: 0, w: 1}
  m_LocalPosition: {x: 0, y: 0, z: 0}
  m_LocalScale: {x: 0.35, y: 0.35, z: 0.35}
  m_ConstrainProportionsScale: 0
  m_Children: []
  m_Father: {fileID: 108882026}
  m_RootOrder: 0
  m_LocalEulerAnglesHint: {x: 0, y: 0, z: 0}
  m_AnchorMin: {x: 0, y: 0}
  m_AnchorMax: {x: 0, y: 0}
  m_AnchoredPosition: {x: 79.01, y: -8.790039}
  m_SizeDelta: {x: 1158.4, y: 556.7}
  m_Pivot: {x: 0, y: 0}
--- !u!114 &1246663665
MonoBehaviour:
  m_ObjectHideFlags: 0
  m_CorrespondingSourceObject: {fileID: 0}
  m_PrefabInstance: {fileID: 0}
  m_PrefabAsset: {fileID: 0}
  m_GameObject: {fileID: 1246663663}
  m_Enabled: 1
  m_EditorHideFlags: 0
  m_Script: {fileID: 11500000, guid: 5f7201a12d95ffc409449d95f23cf332, type: 3}
  m_Name: 
  m_EditorClassIdentifier: 
  m_Material: {fileID: 0}
  m_Color: {r: 0.5377358, g: 0.5377358, b: 0.5377358, a: 1}
  m_RaycastTarget: 1
  m_RaycastPadding: {x: 0, y: 0, z: 0, w: 0}
  m_Maskable: 1
  m_OnCullStateChanged:
    m_PersistentCalls:
      m_Calls: []
  m_FontData:
    m_Font: {fileID: 10102, guid: 0000000000000000e000000000000000, type: 0}
    m_FontSize: 100
    m_FontStyle: 0
    m_BestFit: 0
    m_MinSize: 1
    m_MaxSize: 100
    m_Alignment: 0
    m_AlignByGeometry: 0
    m_RichText: 1
    m_HorizontalOverflow: 0
    m_VerticalOverflow: 0
    m_LineSpacing: 1
  m_Text: 'WSDA - Move

    LMB - Shoot

    Spacebar - Spawn Shield'
--- !u!222 &1246663666
CanvasRenderer:
  m_ObjectHideFlags: 0
  m_CorrespondingSourceObject: {fileID: 0}
  m_PrefabInstance: {fileID: 0}
  m_PrefabAsset: {fileID: 0}
  m_GameObject: {fileID: 1246663663}
  m_CullTransparentMesh: 1
--- !u!1 &1476848259
GameObject:
  m_ObjectHideFlags: 0
  m_CorrespondingSourceObject: {fileID: 0}
  m_PrefabInstance: {fileID: 0}
  m_PrefabAsset: {fileID: 0}
  serializedVersion: 6
  m_Component:
  - component: {fileID: 1476848260}
  - component: {fileID: 1476848263}
  - component: {fileID: 1476848262}
  - component: {fileID: 1476848261}
  m_Layer: 0
  m_Name: Plane
  m_TagString: Untagged
  m_Icon: {fileID: 0}
  m_NavMeshLayer: 0
  m_StaticEditorFlags: 0
  m_IsActive: 1
--- !u!4 &1476848260
Transform:
  m_ObjectHideFlags: 0
  m_CorrespondingSourceObject: {fileID: 0}
  m_PrefabInstance: {fileID: 0}
  m_PrefabAsset: {fileID: 0}
  m_GameObject: {fileID: 1476848259}
  m_LocalRotation: {x: -0, y: -0, z: -0, w: 1}
  m_LocalPosition: {x: 0, y: 0, z: 0}
  m_LocalScale: {x: 18.1315, y: 0.36263, z: 18.1315}
  m_ConstrainProportionsScale: 0
  m_Children: []
  m_Father: {fileID: 804846804}
  m_RootOrder: 0
  m_LocalEulerAnglesHint: {x: 0, y: 0, z: 0}
--- !u!64 &1476848261
MeshCollider:
  m_ObjectHideFlags: 0
  m_CorrespondingSourceObject: {fileID: 0}
  m_PrefabInstance: {fileID: 0}
  m_PrefabAsset: {fileID: 0}
  m_GameObject: {fileID: 1476848259}
  m_Material: {fileID: 0}
  m_IsTrigger: 0
  m_Enabled: 1
  serializedVersion: 4
  m_Convex: 0
  m_CookingOptions: 30
  m_Mesh: {fileID: 10209, guid: 0000000000000000e000000000000000, type: 0}
--- !u!23 &1476848262
MeshRenderer:
  m_ObjectHideFlags: 0
  m_CorrespondingSourceObject: {fileID: 0}
  m_PrefabInstance: {fileID: 0}
  m_PrefabAsset: {fileID: 0}
  m_GameObject: {fileID: 1476848259}
  m_Enabled: 1
  m_CastShadows: 1
  m_ReceiveShadows: 1
  m_DynamicOccludee: 1
  m_StaticShadowCaster: 0
  m_MotionVectors: 1
  m_LightProbeUsage: 1
  m_ReflectionProbeUsage: 1
  m_RayTracingMode: 2
  m_RayTraceProcedural: 0
  m_RenderingLayerMask: 1
  m_RendererPriority: 0
  m_Materials:
  - {fileID: 2100000, guid: d89e334caa2143849902291167bf101e, type: 2}
  m_StaticBatchInfo:
    firstSubMesh: 0
    subMeshCount: 0
  m_StaticBatchRoot: {fileID: 0}
  m_ProbeAnchor: {fileID: 0}
  m_LightProbeVolumeOverride: {fileID: 0}
  m_ScaleInLightmap: 1
  m_ReceiveGI: 1
  m_PreserveUVs: 0
  m_IgnoreNormalsForChartDetection: 0
  m_ImportantGI: 0
  m_StitchLightmapSeams: 1
  m_SelectedEditorRenderState: 3
  m_MinimumChartSize: 4
  m_AutoUVMaxDistance: 0.5
  m_AutoUVMaxAngle: 89
  m_LightmapParameters: {fileID: 0}
  m_SortingLayerID: 0
  m_SortingLayer: 0
  m_SortingOrder: 0
  m_AdditionalVertexStreams: {fileID: 0}
--- !u!33 &1476848263
MeshFilter:
  m_ObjectHideFlags: 0
  m_CorrespondingSourceObject: {fileID: 0}
  m_PrefabInstance: {fileID: 0}
  m_PrefabAsset: {fileID: 0}
  m_GameObject: {fileID: 1476848259}
  m_Mesh: {fileID: 10209, guid: 0000000000000000e000000000000000, type: 0}
--- !u!1 &1502219084
GameObject:
  m_ObjectHideFlags: 0
  m_CorrespondingSourceObject: {fileID: 0}
  m_PrefabInstance: {fileID: 0}
  m_PrefabAsset: {fileID: 0}
  serializedVersion: 6
  m_Component:
  - component: {fileID: 1502219086}
  - component: {fileID: 1502219085}
  m_Layer: 0
  m_Name: ShieldSpawner
  m_TagString: Untagged
  m_Icon: {fileID: 0}
  m_NavMeshLayer: 0
  m_StaticEditorFlags: 0
  m_IsActive: 1
--- !u!114 &1502219085
MonoBehaviour:
  m_ObjectHideFlags: 0
  m_CorrespondingSourceObject: {fileID: 0}
  m_PrefabInstance: {fileID: 0}
  m_PrefabAsset: {fileID: 0}
  m_GameObject: {fileID: 1502219084}
  m_Enabled: 1
  m_EditorHideFlags: 0
  m_Script: {fileID: 11500000, guid: 153b593a00f31d74d95e6a3fe27d5ce8, type: 3}
  m_Name: 
  m_EditorClassIdentifier: 
  delayToDestroy: 5
  shieldVFX: {fileID: 3898056385131686853, guid: 24aa57fb9a1b60b44801f39d2623da11, type: 3}
  shieldOffset: {x: 0, y: 0, z: 0}
--- !u!4 &1502219086
Transform:
  m_ObjectHideFlags: 0
  m_CorrespondingSourceObject: {fileID: 0}
  m_PrefabInstance: {fileID: 0}
  m_PrefabAsset: {fileID: 0}
  m_GameObject: {fileID: 1502219084}
  m_LocalRotation: {x: 0, y: 0, z: 0, w: 1}
  m_LocalPosition: {x: 2.3, y: 1.25, z: 0}
  m_LocalScale: {x: 1, y: 1, z: 1}
  m_ConstrainProportionsScale: 0
  m_Children: []
  m_Father: {fileID: 0}
  m_RootOrder: 2
  m_LocalEulerAnglesHint: {x: 0, y: 0, z: 0}
--- !u!1001 &1616586170
PrefabInstance:
  m_ObjectHideFlags: 0
  serializedVersion: 2
  m_Modification:
    m_TransformParent: {fileID: 804846804}
    m_Modifications:
    - target: {fileID: -8679921383154817045, guid: 50e656a3da93f4d4480af048deb171b7, type: 3}
      propertyPath: m_RootOrder
      value: 9
      objectReference: {fileID: 0}
    - target: {fileID: -8679921383154817045, guid: 50e656a3da93f4d4480af048deb171b7, type: 3}
      propertyPath: m_LocalScale.y
      value: 1.5748
      objectReference: {fileID: 0}
    - target: {fileID: -8679921383154817045, guid: 50e656a3da93f4d4480af048deb171b7, type: 3}
      propertyPath: m_LocalPosition.x
      value: 161.3
      objectReference: {fileID: 0}
    - target: {fileID: -8679921383154817045, guid: 50e656a3da93f4d4480af048deb171b7, type: 3}
      propertyPath: m_LocalPosition.y
      value: -1
      objectReference: {fileID: 0}
    - target: {fileID: -8679921383154817045, guid: 50e656a3da93f4d4480af048deb171b7, type: 3}
      propertyPath: m_LocalPosition.z
      value: 39.4
      objectReference: {fileID: 0}
    - target: {fileID: -8679921383154817045, guid: 50e656a3da93f4d4480af048deb171b7, type: 3}
      propertyPath: m_LocalRotation.w
      value: 0.6010061
      objectReference: {fileID: 0}
    - target: {fileID: -8679921383154817045, guid: 50e656a3da93f4d4480af048deb171b7, type: 3}
      propertyPath: m_LocalRotation.x
      value: -0
      objectReference: {fileID: 0}
    - target: {fileID: -8679921383154817045, guid: 50e656a3da93f4d4480af048deb171b7, type: 3}
      propertyPath: m_LocalRotation.y
      value: -0.79924446
      objectReference: {fileID: 0}
    - target: {fileID: -8679921383154817045, guid: 50e656a3da93f4d4480af048deb171b7, type: 3}
      propertyPath: m_LocalRotation.z
      value: -0
      objectReference: {fileID: 0}
    - target: {fileID: -8679921383154817045, guid: 50e656a3da93f4d4480af048deb171b7, type: 3}
      propertyPath: m_LocalEulerAnglesHint.x
      value: 0
      objectReference: {fileID: 0}
    - target: {fileID: -8679921383154817045, guid: 50e656a3da93f4d4480af048deb171b7, type: 3}
      propertyPath: m_LocalEulerAnglesHint.y
      value: -106.116
      objectReference: {fileID: 0}
    - target: {fileID: -8679921383154817045, guid: 50e656a3da93f4d4480af048deb171b7, type: 3}
      propertyPath: m_LocalEulerAnglesHint.z
      value: 0
      objectReference: {fileID: 0}
    - target: {fileID: -7511558181221131132, guid: 50e656a3da93f4d4480af048deb171b7, type: 3}
      propertyPath: m_Materials.Array.data[0]
      value: 
      objectReference: {fileID: 2100000, guid: 8d65ed43f1c871344bd997db72d83a07, type: 2}
    - target: {fileID: 919132149155446097, guid: 50e656a3da93f4d4480af048deb171b7, type: 3}
      propertyPath: m_Name
      value: rpgpp_lt_hill_small_01 (2)
      objectReference: {fileID: 0}
    - target: {fileID: 919132149155446097, guid: 50e656a3da93f4d4480af048deb171b7, type: 3}
      propertyPath: m_IsActive
      value: 1
      objectReference: {fileID: 0}
    m_RemovedComponents: []
  m_SourcePrefab: {fileID: 100100000, guid: 50e656a3da93f4d4480af048deb171b7, type: 3}
--- !u!4 &1616586171 stripped
Transform:
  m_CorrespondingSourceObject: {fileID: -8679921383154817045, guid: 50e656a3da93f4d4480af048deb171b7, type: 3}
  m_PrefabInstance: {fileID: 1616586170}
  m_PrefabAsset: {fileID: 0}
--- !u!1001 &1713519316
PrefabInstance:
  m_ObjectHideFlags: 0
  serializedVersion: 2
  m_Modification:
    m_TransformParent: {fileID: 804846804}
    m_Modifications:
    - target: {fileID: -8679921383154817045, guid: 342ce3aece6853c418700269d0c66f8e, type: 3}
      propertyPath: m_RootOrder
      value: 2
      objectReference: {fileID: 0}
    - target: {fileID: -8679921383154817045, guid: 342ce3aece6853c418700269d0c66f8e, type: 3}
      propertyPath: m_LocalScale.y
      value: 0.67219
      objectReference: {fileID: 0}
    - target: {fileID: -8679921383154817045, guid: 342ce3aece6853c418700269d0c66f8e, type: 3}
      propertyPath: m_LocalScale.z
      value: 1.3873727
      objectReference: {fileID: 0}
    - target: {fileID: -8679921383154817045, guid: 342ce3aece6853c418700269d0c66f8e, type: 3}
      propertyPath: m_LocalPosition.x
      value: -138.7
      objectReference: {fileID: 0}
    - target: {fileID: -8679921383154817045, guid: 342ce3aece6853c418700269d0c66f8e, type: 3}
      propertyPath: m_LocalPosition.y
      value: -1
      objectReference: {fileID: 0}
    - target: {fileID: -8679921383154817045, guid: 342ce3aece6853c418700269d0c66f8e, type: 3}
      propertyPath: m_LocalPosition.z
      value: 91
      objectReference: {fileID: 0}
    - target: {fileID: -8679921383154817045, guid: 342ce3aece6853c418700269d0c66f8e, type: 3}
      propertyPath: m_LocalRotation.w
      value: 0.80731547
      objectReference: {fileID: 0}
    - target: {fileID: -8679921383154817045, guid: 342ce3aece6853c418700269d0c66f8e, type: 3}
      propertyPath: m_LocalRotation.x
      value: -0
      objectReference: {fileID: 0}
    - target: {fileID: -8679921383154817045, guid: 342ce3aece6853c418700269d0c66f8e, type: 3}
      propertyPath: m_LocalRotation.y
      value: 0.59012014
      objectReference: {fileID: 0}
    - target: {fileID: -8679921383154817045, guid: 342ce3aece6853c418700269d0c66f8e, type: 3}
      propertyPath: m_LocalRotation.z
      value: -0
      objectReference: {fileID: 0}
    - target: {fileID: -8679921383154817045, guid: 342ce3aece6853c418700269d0c66f8e, type: 3}
      propertyPath: m_LocalEulerAnglesHint.x
      value: 0
      objectReference: {fileID: 0}
    - target: {fileID: -8679921383154817045, guid: 342ce3aece6853c418700269d0c66f8e, type: 3}
      propertyPath: m_LocalEulerAnglesHint.y
      value: 72.331
      objectReference: {fileID: 0}
    - target: {fileID: -8679921383154817045, guid: 342ce3aece6853c418700269d0c66f8e, type: 3}
      propertyPath: m_LocalEulerAnglesHint.z
      value: 0
      objectReference: {fileID: 0}
    - target: {fileID: -7511558181221131132, guid: 342ce3aece6853c418700269d0c66f8e, type: 3}
      propertyPath: m_Materials.Array.data[0]
      value: 
      objectReference: {fileID: 2100000, guid: 8d65ed43f1c871344bd997db72d83a07, type: 2}
    - target: {fileID: 919132149155446097, guid: 342ce3aece6853c418700269d0c66f8e, type: 3}
      propertyPath: m_Name
      value: rpgpp_lt_mountain_01 (1)
      objectReference: {fileID: 0}
    - target: {fileID: 919132149155446097, guid: 342ce3aece6853c418700269d0c66f8e, type: 3}
      propertyPath: m_IsActive
      value: 1
      objectReference: {fileID: 0}
    m_RemovedComponents: []
  m_SourcePrefab: {fileID: 100100000, guid: 342ce3aece6853c418700269d0c66f8e, type: 3}
--- !u!4 &1713519317 stripped
Transform:
  m_CorrespondingSourceObject: {fileID: -8679921383154817045, guid: 342ce3aece6853c418700269d0c66f8e, type: 3}
  m_PrefabInstance: {fileID: 1713519316}
  m_PrefabAsset: {fileID: 0}
--- !u!1001 &1741202561
PrefabInstance:
  m_ObjectHideFlags: 0
  serializedVersion: 2
  m_Modification:
    m_TransformParent: {fileID: 804846804}
    m_Modifications:
    - target: {fileID: -8679921383154817045, guid: 342ce3aece6853c418700269d0c66f8e, type: 3}
      propertyPath: m_RootOrder
      value: 5
      objectReference: {fileID: 0}
    - target: {fileID: -8679921383154817045, guid: 342ce3aece6853c418700269d0c66f8e, type: 3}
      propertyPath: m_LocalPosition.x
      value: 115.199135
      objectReference: {fileID: 0}
    - target: {fileID: -8679921383154817045, guid: 342ce3aece6853c418700269d0c66f8e, type: 3}
      propertyPath: m_LocalPosition.y
      value: -1
      objectReference: {fileID: 0}
    - target: {fileID: -8679921383154817045, guid: 342ce3aece6853c418700269d0c66f8e, type: 3}
      propertyPath: m_LocalPosition.z
      value: -55.16459
      objectReference: {fileID: 0}
    - target: {fileID: -8679921383154817045, guid: 342ce3aece6853c418700269d0c66f8e, type: 3}
      propertyPath: m_LocalRotation.w
      value: -0.27300233
      objectReference: {fileID: 0}
    - target: {fileID: -8679921383154817045, guid: 342ce3aece6853c418700269d0c66f8e, type: 3}
      propertyPath: m_LocalRotation.x
      value: -0
      objectReference: {fileID: 0}
    - target: {fileID: -8679921383154817045, guid: 342ce3aece6853c418700269d0c66f8e, type: 3}
      propertyPath: m_LocalRotation.y
      value: 0.9620134
      objectReference: {fileID: 0}
    - target: {fileID: -8679921383154817045, guid: 342ce3aece6853c418700269d0c66f8e, type: 3}
      propertyPath: m_LocalRotation.z
      value: -0
      objectReference: {fileID: 0}
    - target: {fileID: -8679921383154817045, guid: 342ce3aece6853c418700269d0c66f8e, type: 3}
      propertyPath: m_LocalEulerAnglesHint.x
      value: 0
      objectReference: {fileID: 0}
    - target: {fileID: -8679921383154817045, guid: 342ce3aece6853c418700269d0c66f8e, type: 3}
      propertyPath: m_LocalEulerAnglesHint.y
      value: 211.686
      objectReference: {fileID: 0}
    - target: {fileID: -8679921383154817045, guid: 342ce3aece6853c418700269d0c66f8e, type: 3}
      propertyPath: m_LocalEulerAnglesHint.z
      value: 0
      objectReference: {fileID: 0}
    - target: {fileID: -7511558181221131132, guid: 342ce3aece6853c418700269d0c66f8e, type: 3}
      propertyPath: m_Materials.Array.data[0]
      value: 
      objectReference: {fileID: 2100000, guid: 8d65ed43f1c871344bd997db72d83a07, type: 2}
    - target: {fileID: 919132149155446097, guid: 342ce3aece6853c418700269d0c66f8e, type: 3}
      propertyPath: m_Name
      value: rpgpp_lt_mountain_01 (2)
      objectReference: {fileID: 0}
    - target: {fileID: 919132149155446097, guid: 342ce3aece6853c418700269d0c66f8e, type: 3}
      propertyPath: m_IsActive
      value: 1
      objectReference: {fileID: 0}
    m_RemovedComponents: []
  m_SourcePrefab: {fileID: 100100000, guid: 342ce3aece6853c418700269d0c66f8e, type: 3}
--- !u!4 &1741202562 stripped
Transform:
  m_CorrespondingSourceObject: {fileID: -8679921383154817045, guid: 342ce3aece6853c418700269d0c66f8e, type: 3}
  m_PrefabInstance: {fileID: 1741202561}
  m_PrefabAsset: {fileID: 0}
--- !u!1001 &1770250704
PrefabInstance:
  m_ObjectHideFlags: 0
  serializedVersion: 2
  m_Modification:
    m_TransformParent: {fileID: 804846804}
    m_Modifications:
    - target: {fileID: -8679921383154817045, guid: 342ce3aece6853c418700269d0c66f8e, type: 3}
      propertyPath: m_RootOrder
      value: 10
      objectReference: {fileID: 0}
    - target: {fileID: -8679921383154817045, guid: 342ce3aece6853c418700269d0c66f8e, type: 3}
      propertyPath: m_LocalPosition.x
      value: -79.7
      objectReference: {fileID: 0}
    - target: {fileID: -8679921383154817045, guid: 342ce3aece6853c418700269d0c66f8e, type: 3}
      propertyPath: m_LocalPosition.y
      value: -1
      objectReference: {fileID: 0}
    - target: {fileID: -8679921383154817045, guid: 342ce3aece6853c418700269d0c66f8e, type: 3}
      propertyPath: m_LocalPosition.z
      value: -152.9
      objectReference: {fileID: 0}
    - target: {fileID: -8679921383154817045, guid: 342ce3aece6853c418700269d0c66f8e, type: 3}
      propertyPath: m_LocalRotation.w
      value: 1
      objectReference: {fileID: 0}
    - target: {fileID: -8679921383154817045, guid: 342ce3aece6853c418700269d0c66f8e, type: 3}
      propertyPath: m_LocalRotation.x
      value: 0
      objectReference: {fileID: 0}
    - target: {fileID: -8679921383154817045, guid: 342ce3aece6853c418700269d0c66f8e, type: 3}
      propertyPath: m_LocalRotation.y
      value: -0
      objectReference: {fileID: 0}
    - target: {fileID: -8679921383154817045, guid: 342ce3aece6853c418700269d0c66f8e, type: 3}
      propertyPath: m_LocalRotation.z
      value: -0
      objectReference: {fileID: 0}
    - target: {fileID: -8679921383154817045, guid: 342ce3aece6853c418700269d0c66f8e, type: 3}
      propertyPath: m_LocalEulerAnglesHint.x
      value: 0
      objectReference: {fileID: 0}
    - target: {fileID: -8679921383154817045, guid: 342ce3aece6853c418700269d0c66f8e, type: 3}
      propertyPath: m_LocalEulerAnglesHint.y
      value: 0
      objectReference: {fileID: 0}
    - target: {fileID: -8679921383154817045, guid: 342ce3aece6853c418700269d0c66f8e, type: 3}
      propertyPath: m_LocalEulerAnglesHint.z
      value: 0
      objectReference: {fileID: 0}
    - target: {fileID: -7511558181221131132, guid: 342ce3aece6853c418700269d0c66f8e, type: 3}
      propertyPath: m_Materials.Array.data[0]
      value: 
      objectReference: {fileID: 2100000, guid: 8d65ed43f1c871344bd997db72d83a07, type: 2}
    - target: {fileID: 919132149155446097, guid: 342ce3aece6853c418700269d0c66f8e, type: 3}
      propertyPath: m_Name
      value: rpgpp_lt_mountain_01 (4)
      objectReference: {fileID: 0}
    - target: {fileID: 919132149155446097, guid: 342ce3aece6853c418700269d0c66f8e, type: 3}
      propertyPath: m_IsActive
      value: 1
      objectReference: {fileID: 0}
    m_RemovedComponents: []
  m_SourcePrefab: {fileID: 100100000, guid: 342ce3aece6853c418700269d0c66f8e, type: 3}
--- !u!4 &1770250705 stripped
Transform:
  m_CorrespondingSourceObject: {fileID: -8679921383154817045, guid: 342ce3aece6853c418700269d0c66f8e, type: 3}
  m_PrefabInstance: {fileID: 1770250704}
  m_PrefabAsset: {fileID: 0}
--- !u!1 &1812349215
GameObject:
  m_ObjectHideFlags: 0
  m_CorrespondingSourceObject: {fileID: 0}
  m_PrefabInstance: {fileID: 0}
  m_PrefabAsset: {fileID: 0}
  serializedVersion: 6
  m_Component:
  - component: {fileID: 1812349217}
  - component: {fileID: 1812349216}
  - component: {fileID: 1812349218}
  m_Layer: 0
  m_Name: Directional Light
  m_TagString: Untagged
  m_Icon: {fileID: 0}
  m_NavMeshLayer: 0
  m_StaticEditorFlags: 0
  m_IsActive: 1
--- !u!108 &1812349216
Light:
  m_ObjectHideFlags: 0
  m_CorrespondingSourceObject: {fileID: 0}
  m_PrefabInstance: {fileID: 0}
  m_PrefabAsset: {fileID: 0}
  m_GameObject: {fileID: 1812349215}
  m_Enabled: 1
  serializedVersion: 10
  m_Type: 1
  m_Shape: 0
  m_Color: {r: 1, g: 0.95686275, b: 0.8392157, a: 1}
  m_Intensity: 1
  m_Range: 10
  m_SpotAngle: 30
  m_InnerSpotAngle: 21.80208
  m_CookieSize: 10
  m_Shadows:
    m_Type: 2
    m_Resolution: -1
    m_CustomResolution: -1
    m_Strength: 1
    m_Bias: 0.05
    m_NormalBias: 0.4
    m_NearPlane: 0.1
    m_CullingMatrixOverride:
      e00: 1
      e01: 0
      e02: 0
      e03: 0
      e10: 0
      e11: 1
      e12: 0
      e13: 0
      e20: 0
      e21: 0
      e22: 1
      e23: 0
      e30: 0
      e31: 0
      e32: 0
      e33: 1
    m_UseCullingMatrixOverride: 0
  m_Cookie: {fileID: 0}
  m_DrawHalo: 0
  m_Flare: {fileID: 0}
  m_RenderMode: 0
  m_CullingMask:
    serializedVersion: 2
    m_Bits: 4294967295
  m_RenderingLayerMask: 1
  m_Lightmapping: 4
  m_LightShadowCasterMode: 0
  m_AreaSize: {x: 1, y: 1}
  m_BounceIntensity: 1
  m_ColorTemperature: 6570
  m_UseColorTemperature: 0
  m_BoundingSphereOverride: {x: 0, y: 0, z: 0, w: 0}
  m_UseBoundingSphereOverride: 0
  m_UseViewFrustumForShadowCasterCull: 1
  m_ShadowRadius: 0
  m_ShadowAngle: 0
--- !u!4 &1812349217
Transform:
  m_ObjectHideFlags: 0
  m_CorrespondingSourceObject: {fileID: 0}
  m_PrefabInstance: {fileID: 0}
  m_PrefabAsset: {fileID: 0}
  m_GameObject: {fileID: 1812349215}
  m_LocalRotation: {x: 0.40821788, y: -0.23456968, z: 0.10938163, w: 0.8754261}
  m_LocalPosition: {x: 0, y: 3, z: 0}
  m_LocalScale: {x: 1, y: 1, z: 1}
  m_ConstrainProportionsScale: 0
  m_Children: []
  m_Father: {fileID: 208102288}
  m_RootOrder: 2
  m_LocalEulerAnglesHint: {x: 50, y: -30, z: 0}
--- !u!114 &1812349218
MonoBehaviour:
  m_ObjectHideFlags: 0
  m_CorrespondingSourceObject: {fileID: 0}
  m_PrefabInstance: {fileID: 0}
  m_PrefabAsset: {fileID: 0}
  m_GameObject: {fileID: 1812349215}
  m_Enabled: 1
  m_EditorHideFlags: 0
  m_Script: {fileID: 11500000, guid: 474bcb49853aa07438625e644c072ee6, type: 3}
  m_Name: 
  m_EditorClassIdentifier: 
  m_Version: 1
  m_UsePipelineSettings: 1
  m_AdditionalLightsShadowResolutionTier: 2
  m_LightLayerMask: 1
  m_CustomShadowLayers: 0
  m_ShadowLayerMask: 1
  m_LightCookieSize: {x: 1, y: 1}
  m_LightCookieOffset: {x: 0, y: 0}
--- !u!1001 &2891745942344333037
PrefabInstance:
  m_ObjectHideFlags: 0
  serializedVersion: 2
  m_Modification:
    m_TransformParent: {fileID: 0}
    m_Modifications:
    - target: {fileID: 1730764846084682781, guid: 64d49a26f57ad8d4e909e87c83aeb57f, type: 3}
      propertyPath: m_Mesh
      value: 
      objectReference: {fileID: 6662988039079362782, guid: 9560c35d049e9d941999215396d09eec, type: 3}
    - target: {fileID: 2657372600424145154, guid: 64d49a26f57ad8d4e909e87c83aeb57f, type: 3}
      propertyPath: m_Name
      value: Shield01_Blue
      objectReference: {fileID: 0}
    - target: {fileID: 3434895080175139768, guid: 64d49a26f57ad8d4e909e87c83aeb57f, type: 3}
      propertyPath: m_RootOrder
      value: 3
      objectReference: {fileID: 0}
    - target: {fileID: 3434895080175139768, guid: 64d49a26f57ad8d4e909e87c83aeb57f, type: 3}
      propertyPath: m_LocalPosition.x
      value: -7.23
      objectReference: {fileID: 0}
    - target: {fileID: 3434895080175139768, guid: 64d49a26f57ad8d4e909e87c83aeb57f, type: 3}
      propertyPath: m_LocalPosition.y
      value: 1.354
      objectReference: {fileID: 0}
    - target: {fileID: 3434895080175139768, guid: 64d49a26f57ad8d4e909e87c83aeb57f, type: 3}
      propertyPath: m_LocalPosition.z
      value: 0
      objectReference: {fileID: 0}
    - target: {fileID: 3434895080175139768, guid: 64d49a26f57ad8d4e909e87c83aeb57f, type: 3}
      propertyPath: m_LocalRotation.w
      value: 0.7071067
      objectReference: {fileID: 0}
    - target: {fileID: 3434895080175139768, guid: 64d49a26f57ad8d4e909e87c83aeb57f, type: 3}
      propertyPath: m_LocalRotation.x
      value: -0.7071068
      objectReference: {fileID: 0}
    - target: {fileID: 3434895080175139768, guid: 64d49a26f57ad8d4e909e87c83aeb57f, type: 3}
      propertyPath: m_LocalRotation.y
      value: 0
      objectReference: {fileID: 0}
    - target: {fileID: 3434895080175139768, guid: 64d49a26f57ad8d4e909e87c83aeb57f, type: 3}
      propertyPath: m_LocalRotation.z
      value: -0
      objectReference: {fileID: 0}
    - target: {fileID: 3434895080175139768, guid: 64d49a26f57ad8d4e909e87c83aeb57f, type: 3}
      propertyPath: m_LocalEulerAnglesHint.x
      value: 0
      objectReference: {fileID: 0}
    - target: {fileID: 3434895080175139768, guid: 64d49a26f57ad8d4e909e87c83aeb57f, type: 3}
      propertyPath: m_LocalEulerAnglesHint.y
      value: 0
      objectReference: {fileID: 0}
    - target: {fileID: 3434895080175139768, guid: 64d49a26f57ad8d4e909e87c83aeb57f, type: 3}
      propertyPath: m_LocalEulerAnglesHint.z
      value: 0
      objectReference: {fileID: 0}
    m_RemovedComponents: []
  m_SourcePrefab: {fileID: 100100000, guid: 64d49a26f57ad8d4e909e87c83aeb57f, type: 3}
--- !u!1001 &3795722524320960516
PrefabInstance:
  m_ObjectHideFlags: 0
  serializedVersion: 2
  m_Modification:
    m_TransformParent: {fileID: 0}
    m_Modifications:
    - target: {fileID: 326651084229041629, guid: c521dcbe1a9ffc74c945691d0493b6dc, type: 3}
      propertyPath: m_Mesh
      value: 
      objectReference: {fileID: 6662988039079362782, guid: 9560c35d049e9d941999215396d09eec, type: 3}
    - target: {fileID: 3686096219965805176, guid: c521dcbe1a9ffc74c945691d0493b6dc, type: 3}
      propertyPath: m_RootOrder
      value: 5
      objectReference: {fileID: 0}
    - target: {fileID: 3686096219965805176, guid: c521dcbe1a9ffc74c945691d0493b6dc, type: 3}
      propertyPath: m_LocalPosition.x
      value: 0
      objectReference: {fileID: 0}
    - target: {fileID: 3686096219965805176, guid: c521dcbe1a9ffc74c945691d0493b6dc, type: 3}
      propertyPath: m_LocalPosition.y
      value: 1.354
      objectReference: {fileID: 0}
    - target: {fileID: 3686096219965805176, guid: c521dcbe1a9ffc74c945691d0493b6dc, type: 3}
      propertyPath: m_LocalPosition.z
      value: 0
      objectReference: {fileID: 0}
    - target: {fileID: 3686096219965805176, guid: c521dcbe1a9ffc74c945691d0493b6dc, type: 3}
      propertyPath: m_LocalRotation.w
      value: 0.7071067
      objectReference: {fileID: 0}
    - target: {fileID: 3686096219965805176, guid: c521dcbe1a9ffc74c945691d0493b6dc, type: 3}
      propertyPath: m_LocalRotation.x
      value: -0.7071068
      objectReference: {fileID: 0}
    - target: {fileID: 3686096219965805176, guid: c521dcbe1a9ffc74c945691d0493b6dc, type: 3}
      propertyPath: m_LocalRotation.y
      value: -0
      objectReference: {fileID: 0}
    - target: {fileID: 3686096219965805176, guid: c521dcbe1a9ffc74c945691d0493b6dc, type: 3}
      propertyPath: m_LocalRotation.z
      value: -0
      objectReference: {fileID: 0}
    - target: {fileID: 3686096219965805176, guid: c521dcbe1a9ffc74c945691d0493b6dc, type: 3}
      propertyPath: m_LocalEulerAnglesHint.x
      value: 0
      objectReference: {fileID: 0}
    - target: {fileID: 3686096219965805176, guid: c521dcbe1a9ffc74c945691d0493b6dc, type: 3}
      propertyPath: m_LocalEulerAnglesHint.y
      value: 0
      objectReference: {fileID: 0}
    - target: {fileID: 3686096219965805176, guid: c521dcbe1a9ffc74c945691d0493b6dc, type: 3}
      propertyPath: m_LocalEulerAnglesHint.z
      value: 0
      objectReference: {fileID: 0}
    - target: {fileID: 4065752484583868610, guid: c521dcbe1a9ffc74c945691d0493b6dc, type: 3}
      propertyPath: m_Name
      value: Shield01_Orange
      objectReference: {fileID: 0}
    m_RemovedComponents: []
  m_SourcePrefab: {fileID: 100100000, guid: c521dcbe1a9ffc74c945691d0493b6dc, type: 3}
--- !u!1001 &4854908349645596930
PrefabInstance:
  m_ObjectHideFlags: 0
  serializedVersion: 2
  m_Modification:
    m_TransformParent: {fileID: 0}
    m_Modifications:
    - target: {fileID: 1402518250914914613, guid: dcf4af88125dadd4ca3bf32c02267a73, type: 3}
      propertyPath: m_Name
      value: vfx_Shield03
      objectReference: {fileID: 0}
    - target: {fileID: 1402518250914914613, guid: dcf4af88125dadd4ca3bf32c02267a73, type: 3}
      propertyPath: m_IsActive
      value: 0
      objectReference: {fileID: 0}
    - target: {fileID: 4676180489915325521, guid: dcf4af88125dadd4ca3bf32c02267a73, type: 3}
      propertyPath: m_Enabled
      value: 0
      objectReference: {fileID: 0}
    - target: {fileID: 7316897759026424425, guid: dcf4af88125dadd4ca3bf32c02267a73, type: 3}
      propertyPath: m_RootOrder
      value: 8
      objectReference: {fileID: 0}
    - target: {fileID: 7316897759026424425, guid: dcf4af88125dadd4ca3bf32c02267a73, type: 3}
      propertyPath: m_LocalPosition.x
      value: 7.821
      objectReference: {fileID: 0}
    - target: {fileID: 7316897759026424425, guid: dcf4af88125dadd4ca3bf32c02267a73, type: 3}
      propertyPath: m_LocalPosition.y
      value: 1.25
      objectReference: {fileID: 0}
    - target: {fileID: 7316897759026424425, guid: dcf4af88125dadd4ca3bf32c02267a73, type: 3}
      propertyPath: m_LocalPosition.z
      value: 0
      objectReference: {fileID: 0}
    - target: {fileID: 7316897759026424425, guid: dcf4af88125dadd4ca3bf32c02267a73, type: 3}
      propertyPath: m_LocalRotation.w
      value: 1
      objectReference: {fileID: 0}
    - target: {fileID: 7316897759026424425, guid: dcf4af88125dadd4ca3bf32c02267a73, type: 3}
      propertyPath: m_LocalRotation.x
      value: 0
      objectReference: {fileID: 0}
    - target: {fileID: 7316897759026424425, guid: dcf4af88125dadd4ca3bf32c02267a73, type: 3}
      propertyPath: m_LocalRotation.y
      value: 0
      objectReference: {fileID: 0}
    - target: {fileID: 7316897759026424425, guid: dcf4af88125dadd4ca3bf32c02267a73, type: 3}
      propertyPath: m_LocalRotation.z
      value: 0
      objectReference: {fileID: 0}
    - target: {fileID: 7316897759026424425, guid: dcf4af88125dadd4ca3bf32c02267a73, type: 3}
      propertyPath: m_LocalEulerAnglesHint.x
      value: 0
      objectReference: {fileID: 0}
    - target: {fileID: 7316897759026424425, guid: dcf4af88125dadd4ca3bf32c02267a73, type: 3}
      propertyPath: m_LocalEulerAnglesHint.y
      value: 0
      objectReference: {fileID: 0}
    - target: {fileID: 7316897759026424425, guid: dcf4af88125dadd4ca3bf32c02267a73, type: 3}
      propertyPath: m_LocalEulerAnglesHint.z
      value: 0
      objectReference: {fileID: 0}
    m_RemovedComponents: []
  m_SourcePrefab: {fileID: 100100000, guid: dcf4af88125dadd4ca3bf32c02267a73, type: 3}
--- !u!1001 &6186199878095636944
PrefabInstance:
  m_ObjectHideFlags: 0
  serializedVersion: 2
  m_Modification:
    m_TransformParent: {fileID: 0}
    m_Modifications:
    - target: {fileID: 5932214320049833955, guid: 2380048a1e1fac149b6e73da5350e3bc, type: 3}
      propertyPath: m_RootOrder
      value: 4
      objectReference: {fileID: 0}
    - target: {fileID: 5932214320049833955, guid: 2380048a1e1fac149b6e73da5350e3bc, type: 3}
      propertyPath: m_LocalPosition.x
      value: -3.72
      objectReference: {fileID: 0}
    - target: {fileID: 5932214320049833955, guid: 2380048a1e1fac149b6e73da5350e3bc, type: 3}
      propertyPath: m_LocalPosition.y
      value: 1.354
      objectReference: {fileID: 0}
    - target: {fileID: 5932214320049833955, guid: 2380048a1e1fac149b6e73da5350e3bc, type: 3}
      propertyPath: m_LocalPosition.z
      value: -6.42
      objectReference: {fileID: 0}
    - target: {fileID: 5932214320049833955, guid: 2380048a1e1fac149b6e73da5350e3bc, type: 3}
      propertyPath: m_LocalRotation.w
      value: 0.7071067
      objectReference: {fileID: 0}
    - target: {fileID: 5932214320049833955, guid: 2380048a1e1fac149b6e73da5350e3bc, type: 3}
      propertyPath: m_LocalRotation.x
      value: -0.7071068
      objectReference: {fileID: 0}
    - target: {fileID: 5932214320049833955, guid: 2380048a1e1fac149b6e73da5350e3bc, type: 3}
      propertyPath: m_LocalRotation.y
      value: 0
      objectReference: {fileID: 0}
    - target: {fileID: 5932214320049833955, guid: 2380048a1e1fac149b6e73da5350e3bc, type: 3}
      propertyPath: m_LocalRotation.z
      value: -0
      objectReference: {fileID: 0}
    - target: {fileID: 5932214320049833955, guid: 2380048a1e1fac149b6e73da5350e3bc, type: 3}
      propertyPath: m_LocalEulerAnglesHint.x
      value: 0
      objectReference: {fileID: 0}
    - target: {fileID: 5932214320049833955, guid: 2380048a1e1fac149b6e73da5350e3bc, type: 3}
      propertyPath: m_LocalEulerAnglesHint.y
      value: 0
      objectReference: {fileID: 0}
    - target: {fileID: 5932214320049833955, guid: 2380048a1e1fac149b6e73da5350e3bc, type: 3}
      propertyPath: m_LocalEulerAnglesHint.z
      value: 0
      objectReference: {fileID: 0}
    - target: {fileID: 6420063594284457305, guid: 2380048a1e1fac149b6e73da5350e3bc, type: 3}
      propertyPath: m_Name
      value: Shield01_Purple
      objectReference: {fileID: 0}
    - target: {fileID: 7348941016973527110, guid: 2380048a1e1fac149b6e73da5350e3bc, type: 3}
      propertyPath: m_Mesh
      value: 
      objectReference: {fileID: 6662988039079362782, guid: 9560c35d049e9d941999215396d09eec, type: 3}
    m_RemovedComponents: []
  m_SourcePrefab: {fileID: 100100000, guid: 2380048a1e1fac149b6e73da5350e3bc, type: 3}
--- !u!1001 &7316997180180663006
PrefabInstance:
  m_ObjectHideFlags: 0
  serializedVersion: 2
  m_Modification:
    m_TransformParent: {fileID: 0}
    m_Modifications:
    - target: {fileID: 3898056385131686853, guid: 6e138796342f5de47be8273a53b99a75, type: 3}
      propertyPath: m_Name
      value: vfx_Shield01
      objectReference: {fileID: 0}
    - target: {fileID: 3898056385131686853, guid: 6e138796342f5de47be8273a53b99a75, type: 3}
      propertyPath: m_IsActive
      value: 0
      objectReference: {fileID: 0}
    - target: {fileID: 4676078869502075033, guid: 6e138796342f5de47be8273a53b99a75, type: 3}
      propertyPath: m_RootOrder
      value: 6
      objectReference: {fileID: 0}
    - target: {fileID: 4676078869502075033, guid: 6e138796342f5de47be8273a53b99a75, type: 3}
      propertyPath: m_LocalPosition.x
      value: 2.857
      objectReference: {fileID: 0}
    - target: {fileID: 4676078869502075033, guid: 6e138796342f5de47be8273a53b99a75, type: 3}
      propertyPath: m_LocalPosition.y
      value: 1.25
      objectReference: {fileID: 0}
    - target: {fileID: 4676078869502075033, guid: 6e138796342f5de47be8273a53b99a75, type: 3}
      propertyPath: m_LocalPosition.z
      value: 0
      objectReference: {fileID: 0}
    - target: {fileID: 4676078869502075033, guid: 6e138796342f5de47be8273a53b99a75, type: 3}
      propertyPath: m_LocalRotation.w
      value: 1
      objectReference: {fileID: 0}
    - target: {fileID: 4676078869502075033, guid: 6e138796342f5de47be8273a53b99a75, type: 3}
      propertyPath: m_LocalRotation.x
      value: 0
      objectReference: {fileID: 0}
    - target: {fileID: 4676078869502075033, guid: 6e138796342f5de47be8273a53b99a75, type: 3}
      propertyPath: m_LocalRotation.y
      value: 0
      objectReference: {fileID: 0}
    - target: {fileID: 4676078869502075033, guid: 6e138796342f5de47be8273a53b99a75, type: 3}
      propertyPath: m_LocalRotation.z
      value: 0
      objectReference: {fileID: 0}
    - target: {fileID: 4676078869502075033, guid: 6e138796342f5de47be8273a53b99a75, type: 3}
      propertyPath: m_LocalEulerAnglesHint.x
      value: 0
      objectReference: {fileID: 0}
    - target: {fileID: 4676078869502075033, guid: 6e138796342f5de47be8273a53b99a75, type: 3}
      propertyPath: m_LocalEulerAnglesHint.y
      value: 0
      objectReference: {fileID: 0}
    - target: {fileID: 4676078869502075033, guid: 6e138796342f5de47be8273a53b99a75, type: 3}
      propertyPath: m_LocalEulerAnglesHint.z
      value: 0
      objectReference: {fileID: 0}
    - target: {fileID: 7316997181770913441, guid: 6e138796342f5de47be8273a53b99a75, type: 3}
      propertyPath: m_Enabled
      value: 0
      objectReference: {fileID: 0}
    m_RemovedComponents: []
  m_SourcePrefab: {fileID: 100100000, guid: 6e138796342f5de47be8273a53b99a75, type: 3}
