%YAML 1.1
%TAG !u! tag:unity3d.com,2011:
--- !u!1001 &8913066732232996133
PrefabInstance:
  m_ObjectHideFlags: 0
  serializedVersion: 2
  m_Modification:
    m_TransformParent: {fileID: 0}
    m_Modifications:
    - target: {fileID: -8679921383154817045, guid: d0e6e043aa5ef254187eae1b5c47d29e, type: 3}
      propertyPath: m_RootOrder
      value: 0
      objectReference: {fileID: 0}
    - target: {fileID: -8679921383154817045, guid: d0e6e043aa5ef254187eae1b5c47d29e, type: 3}
      propertyPath: m_LocalPosition.x
      value: 104.6376
      objectReference: {fileID: 0}
    - target: {fileID: -8679921383154817045, guid: d0e6e043aa5ef254187eae1b5c47d29e, type: 3}
      propertyPath: m_LocalPosition.y
      value: 0.0000019073486
      objectReference: {fileID: 0}
    - target: {fileID: -8679921383154817045, guid: d0e6e043aa5ef254187eae1b5c47d29e, type: 3}
      propertyPath: m_LocalPosition.z
      value: -200.25166
      objectReference: {fileID: 0}
    - target: {fileID: -8679921383154817045, guid: d0e6e043aa5ef254187eae1b5c47d29e, type: 3}
      propertyPath: m_LocalRotation.w
      value: 1
      objectReference: {fileID: 0}
    - target: {fileID: -8679921383154817045, guid: d0e6e043aa5ef254187eae1b5c47d29e, type: 3}
      propertyPath: m_LocalRotation.x
      value: 0
      objectReference: {fileID: 0}
    - target: {fileID: -8679921383154817045, guid: d0e6e043aa5ef254187eae1b5c47d29e, type: 3}
      propertyPath: m_LocalRotation.y
      value: 0
      objectReference: {fileID: 0}
    - target: {fileID: -8679921383154817045, guid: d0e6e043aa5ef254187eae1b5c47d29e, type: 3}
      propertyPath: m_LocalRotation.z
      value: 0
      objectReference: {fileID: 0}
    - target: {fileID: -8679921383154817045, guid: d0e6e043aa5ef254187eae1b5c47d29e, type: 3}
      propertyPath: m_LocalEulerAnglesHint.x
      value: 0
      objectReference: {fileID: 0}
    - target: {fileID: -8679921383154817045, guid: d0e6e043aa5ef254187eae1b5c47d29e, type: 3}
      propertyPath: m_LocalEulerAnglesHint.y
      value: 0
      objectReference: {fileID: 0}
    - target: {fileID: -8679921383154817045, guid: d0e6e043aa5ef254187eae1b5c47d29e, type: 3}
      propertyPath: m_LocalEulerAnglesHint.z
      value: 0
      objectReference: {fileID: 0}
    - target: {fileID: -5177983500592768943, guid: d0e6e043aa5ef254187eae1b5c47d29e, type: 3}
      propertyPath: m_Materials.Array.data[0]
      value: 
      objectReference: {fileID: 2100000, guid: e71056b6ca5024c4283e0a35a432d325, type: 2}
    - target: {fileID: -1963681556532759124, guid: d0e6e043aa5ef254187eae1b5c47d29e, type: 3}
      propertyPath: m_Materials.Array.data[0]
      value: 
      objectReference: {fileID: 2100000, guid: e71056b6ca5024c4283e0a35a432d325, type: 2}
    - target: {fileID: -1461304994638716399, guid: d0e6e043aa5ef254187eae1b5c47d29e, type: 3}
      propertyPath: m_Materials.Array.data[0]
      value: 
      objectReference: {fileID: 2100000, guid: e71056b6ca5024c4283e0a35a432d325, type: 2}
    - target: {fileID: 919132149155446097, guid: d0e6e043aa5ef254187eae1b5c47d29e, type: 3}
      propertyPath: m_Name
      value: log_hut_stylised
      objectReference: {fileID: 0}
    m_RemovedComponents: []
  m_SourcePrefab: {fileID: 100100000, guid: d0e6e043aa5ef254187eae1b5c47d29e, type: 3}
