%YAML 1.1
%TAG !u! tag:unity3d.com,2011:
--- !u!114 &-3962622430244795103
MonoBehaviour:
  m_ObjectHideFlags: 11
  m_CorrespondingSourceObject: {fileID: 0}
  m_PrefabInstance: {fileID: 0}
  m_PrefabAsset: {fileID: 0}
  m_GameObject: {fileID: 0}
  m_Enabled: 1
  m_EditorHideFlags: 0
  m_Script: {fileID: 11500000, guid: d0353a89b1f911e48b9e16bdc9f2e058, type: 3}
  m_Name: 
  m_EditorClassIdentifier: 
  version: 5
--- !u!21 &2100000
Material:
  serializedVersion: 8
  m_ObjectHideFlags: 0
  m_CorrespondingSourceObject: {fileID: 0}
  m_PrefabInstance: {fileID: 0}
  m_PrefabAsset: {fileID: 0}
  m_Name: Cliff_B_Mat
  m_Shader: {fileID: -6465566751694194690, guid: 7f57b0c643f528f4297b72348cab9faf, type: 3}
  m_ValidKeywords: []
  m_InvalidKeywords:
  - _DETAIL_MULX2
  - _EMISSION
  - _NORMALMAP
  - _SMOOTHNESS_TEXTURE_ALBEDO_CHANNEL_A
  m_LightmapFlags: 5
  m_EnableInstancingVariants: 1
  m_DoubleSidedGI: 0
  m_CustomRenderQueue: -1
  stringTagMap: {}
  disabledShaderPasses: []
  m_SavedProperties:
    serializedVersion: 3
    m_TexEnvs:
    - _BumpMap:
        m_Texture: {fileID: 2800000, guid: 184d6a203cd3af44397cedb44de6cfed, type: 3}
        m_Scale: {x: 1, y: 1}
        m_Offset: {x: 0, y: 0}
    - _CoverageAlbedo:
        m_Texture: {fileID: 2800000, guid: 6dc430d5c113ab14c91065b0117acafb, type: 3}
        m_Scale: {x: 1, y: 1}
        m_Offset: {x: 0, y: 0}
    - _CoverageMap:
        m_Texture: {fileID: 2800000, guid: f372ecf27e5c4954c8bf0015e21ca538, type: 3}
        m_Scale: {x: 1, y: 1}
        m_Offset: {x: 0, y: 0}
    - _CoverageNormals:
        m_Texture: {fileID: 2800000, guid: 51954d6e0de971a43ac1ba884c6836f5, type: 3}
        m_Scale: {x: 1, y: 1}
        m_Offset: {x: 0, y: 0}
    - _DetailAlbedoMap:
        m_Texture: {fileID: 0}
        m_Scale: {x: 10, y: 10}
        m_Offset: {x: 0, y: 0}
    - _DetailMask:
        m_Texture: {fileID: 0}
        m_Scale: {x: 1, y: 1}
        m_Offset: {x: 0, y: 0}
    - _DetailNormalMap:
        m_Texture: {fileID: 0}
        m_Scale: {x: 1, y: 1}
        m_Offset: {x: 0, y: 0}
    - _Detailnormal:
        m_Texture: {fileID: 2800000, guid: 06bdf21e154425948b0978955fd687b4, type: 3}
        m_Scale: {x: 10, y: 10}
        m_Offset: {x: 0, y: 0}
    - _EmissionMap:
        m_Texture: {fileID: 0}
        m_Scale: {x: 1, y: 1}
        m_Offset: {x: 0, y: 0}
    - _Globalalbedo:
        m_Texture: {fileID: 2800000, guid: 90c15e788b01a3646a1f0b65505c9972, type: 3}
        m_Scale: {x: 1, y: 1}
        m_Offset: {x: 0, y: 0}
    - _Globalcolor:
        m_Texture: {fileID: 2800000, guid: 016e95565131cbe4bbe66d399a1c4efa, type: 3}
        m_Scale: {x: 1, y: 1}
        m_Offset: {x: 0, y: 0}
    - _GrassDiffuse:
        m_Texture: {fileID: 0}
        m_Scale: {x: 1, y: 1}
        m_Offset: {x: 0, y: 0}
    - _GrassdiffuseAheight:
        m_Texture: {fileID: -1782295886, guid: 7154642c7e2a90e42ac41a57d23f7317, type: 3}
        m_Scale: {x: 1, y: 1}
        m_Offset: {x: 0, y: 0}
    - _Grassnormal:
        m_Texture: {fileID: 417745122, guid: 7154642c7e2a90e42ac41a57d23f7317, type: 3}
        m_Scale: {x: 1, y: 1}
        m_Offset: {x: 0, y: 0}
    - _MainTex:
        m_Texture: {fileID: 2800000, guid: c469316b0e200614daa4511fd0e1d512, type: 3}
        m_Scale: {x: 1, y: 1}
        m_Offset: {x: 0, y: 0}
    - _MetallicGlossMap:
        m_Texture: {fileID: 2800000, guid: 9ee4c82c0409e14459b838d4bdf9ce44, type: 3}
        m_Scale: {x: 1, y: 1}
        m_Offset: {x: 0, y: 0}
    - _ObjectHeightAO:
        m_Texture: {fileID: 2800000, guid: fbc47f2c09271b549a9391df18145172, type: 3}
        m_Scale: {x: 1, y: 1}
        m_Offset: {x: 0, y: 0}
    - _Objectalbedo:
        m_Texture: {fileID: 2800000, guid: c469316b0e200614daa4511fd0e1d512, type: 3}
        m_Scale: {x: 1, y: 1}
        m_Offset: {x: 0, y: 0}
    - _Objectnormals:
        m_Texture: {fileID: 2800000, guid: 184d6a203cd3af44397cedb44de6cfed, type: 3}
        m_Scale: {x: 1, y: 1}
        m_Offset: {x: 0, y: 0}
    - _Objectroughness:
        m_Texture: {fileID: 0}
        m_Scale: {x: 1, y: 1}
        m_Offset: {x: 0, y: 0}
    - _OcclusionMap:
        m_Texture: {fileID: 0}
        m_Scale: {x: 1, y: 1}
        m_Offset: {x: 0, y: 0}
    - _ParallaxMap:
        m_Texture: {fileID: 0}
        m_Scale: {x: 1, y: 1}
        m_Offset: {x: 0, y: 0}
    - _PigmentMap:
        m_Texture: {fileID: 0}
        m_Scale: {x: 1, y: 1}
        m_Offset: {x: 0, y: 0}
    - _Rockdiffuse:
        m_Texture: {fileID: 2800000, guid: d84a0fef99ecb614e884feee98ccff2f, type: 3}
        m_Scale: {x: 1, y: 1}
        m_Offset: {x: 0, y: 0}
    - _Rocknormal:
        m_Texture: {fileID: 2800000, guid: c30b9cbff6831f14781f04ee653e852e, type: 3}
        m_Scale: {x: 1, y: 1}
        m_Offset: {x: 0, y: 0}
    - _SnowAlbedo:
        m_Texture: {fileID: -1782295886, guid: 7154642c7e2a90e42ac41a57d23f7317, type: 3}
        m_Scale: {x: 1, y: 1}
        m_Offset: {x: 0, y: 0}
    - _SnowNormals:
        m_Texture: {fileID: 417745122, guid: 7154642c7e2a90e42ac41a57d23f7317, type: 3}
        m_Scale: {x: 1, y: 1}
        m_Offset: {x: 0, y: 0}
    - _TextureSample3:
        m_Texture: {fileID: 2800000, guid: 19b818e26c2922a488c06b1fbdae5df3, type: 3}
        m_Scale: {x: 1, y: 1}
        m_Offset: {x: 0, y: 0}
    - _texcoord:
        m_Texture: {fileID: 0}
        m_Scale: {x: 1, y: 1}
        m_Offset: {x: 0, y: 0}
    - unity_Lightmaps:
        m_Texture: {fileID: 0}
        m_Scale: {x: 1, y: 1}
        m_Offset: {x: 0, y: 0}
    - unity_LightmapsInd:
        m_Texture: {fileID: 0}
        m_Scale: {x: 1, y: 1}
        m_Offset: {x: 0, y: 0}
    - unity_ShadowMasks:
        m_Texture: {fileID: 0}
        m_Scale: {x: 1, y: 1}
        m_Offset: {x: 0, y: 0}
    m_Ints: []
    m_Floats:
    - _BumpScale: 1
    - _Contrast: 1
    - _CoverageAmount: 1
    - _CoverageTiling: 8
    - _Cutoff: 0.5
    - _Debug: 0
    - _DetailNormalMapScale: 0
    - _Detailstrength: 0.28
    - _Distance: 3
    - _DstBlend: 0
    - _Float0: 4.78
    - _Float4: 2
    - _Globaltiling: 0.163
    - _GlossMapScale: 0.727
    - _Glossiness: 0.5
    - _GlossyReflections: 1
    - _Grassedgecontrast: 0.481
    - _Grassheight: 1.045
    - _Grasstiling: 0.31
    - _Grasstransitioncontrast: 0.77
    - _Height: 1
    - _MaskClipValue: 0.5
    - _Metallic: 0
    - _Mode: 0
    - _OcclusionStrength: 1
    - _Parallax: 0.02
    - _QueueControl: 0
    - _QueueOffset: 0
    - _RockTilingNear: 0.1
    - _RocktilingFar: 0.03
    - _Roughness: 0.276
    - _SmoothnessTextureChannel: 1
    - _SnowCover: 1
    - _SnowTiling: 7
    - _SpecularHighlights: 1
    - _SrcBlend: 1
    - _TessMax: 25
    - _TessMin: 10
    - _TessValue: 4
    - _TransitionExponent: 3
    - _UVSec: 0
    - _Worldtiling: 0.06
    - _ZWrite: 1
    - __dirty: 0
    m_Colors:
    - _Color: {r: 0.4852941, g: 0.4852941, b: 0.4852941, a: 0}
    - _EmissionColor: {r: 0, g: 0, b: 0, a: 1}
    - _GlobalColor: {r: 1, g: 1, b: 1, a: 1}
    - _GrassColor: {r: 0.5909737, g: 1, b: 0.1985294, a: 1}
    - _Grasscolor: {r: 1, g: 1, b: 1, a: 1}
    - _ObjectColor: {r: 0.86764705, g: 0.86764705, b: 0.86764705, a: 1}
    - _RockColor: {r: 0.5019608, g: 0.5019608, b: 0.5019608, a: 1}
  m_BuildTextureStacks: []
