%YAML 1.1
%TAG !u! tag:unity3d.com,2011:
--- !u!114 &-8142476905268842295
MonoBehaviour:
  m_ObjectHideFlags: 11
  m_CorrespondingSourceObject: {fileID: 0}
  m_PrefabInstance: {fileID: 0}
  m_PrefabAsset: {fileID: 0}
  m_GameObject: {fileID: 0}
  m_Enabled: 1
  m_EditorHideFlags: 0
  m_Script: {fileID: 11500000, guid: d0353a89b1f911e48b9e16bdc9f2e058, type: 3}
  m_Name: 
  m_EditorClassIdentifier: 
  version: 5
--- !u!21 &2100000
Material:
  serializedVersion: 8
  m_ObjectHideFlags: 0
  m_CorrespondingSourceObject: {fileID: 0}
  m_PrefabInstance: {fileID: 0}
  m_PrefabAsset: {fileID: 0}
  m_Name: Cliff_D_Mat
  m_Shader: {fileID: -6465566751694194690, guid: 7f57b0c643f528f4297b72348cab9faf, type: 3}
  m_ValidKeywords: []
  m_InvalidKeywords:
  - _EMISSION
  m_LightmapFlags: 5
  m_EnableInstancingVariants: 1
  m_DoubleSidedGI: 0
  m_CustomRenderQueue: -1
  stringTagMap: {}
  disabledShaderPasses: []
  m_SavedProperties:
    serializedVersion: 3
    m_TexEnvs:
    - _CoverageAlbedo:
        m_Texture: {fileID: 2800000, guid: 6dc430d5c113ab14c91065b0117acafb, type: 3}
        m_Scale: {x: 1, y: 1}
        m_Offset: {x: 0, y: 0}
    - _CoverageMap:
        m_Texture: {fileID: 2800000, guid: f372ecf27e5c4954c8bf0015e21ca538, type: 3}
        m_Scale: {x: 1, y: 1}
        m_Offset: {x: 0, y: 0}
    - _CoverageNormals:
        m_Texture: {fileID: 2800000, guid: 51954d6e0de971a43ac1ba884c6836f5, type: 3}
        m_Scale: {x: 1, y: 1}
        m_Offset: {x: 0, y: 0}
    - _Detailnormal:
        m_Texture: {fileID: 2800000, guid: 06bdf21e154425948b0978955fd687b4, type: 3}
        m_Scale: {x: 1, y: 1}
        m_Offset: {x: 0, y: 0}
    - _Globalalbedo:
        m_Texture: {fileID: 2800000, guid: 90c15e788b01a3646a1f0b65505c9972, type: 3}
        m_Scale: {x: 1, y: 1}
        m_Offset: {x: 0, y: 0}
    - _Objectalbedo:
        m_Texture: {fileID: 2800000, guid: 48e1d6f40e814994fae4203c926e5b8a, type: 3}
        m_Scale: {x: 1, y: 1}
        m_Offset: {x: 0, y: 0}
    - _Objectnormals:
        m_Texture: {fileID: 2800000, guid: c9c829510e77ea549a19e8369714dce9, type: 3}
        m_Scale: {x: 1, y: 1}
        m_Offset: {x: 0, y: 0}
    - _PigmentMap:
        m_Texture: {fileID: 0}
        m_Scale: {x: 1, y: 1}
        m_Offset: {x: 0, y: 0}
    - _SnowAlbedo:
        m_Texture: {fileID: -1782295886, guid: 7154642c7e2a90e42ac41a57d23f7317, type: 3}
        m_Scale: {x: 1, y: 1}
        m_Offset: {x: 0, y: 0}
    - _SnowNormals:
        m_Texture: {fileID: 417745122, guid: 7154642c7e2a90e42ac41a57d23f7317, type: 3}
        m_Scale: {x: 1, y: 1}
        m_Offset: {x: 0, y: 0}
    - _texcoord:
        m_Texture: {fileID: 0}
        m_Scale: {x: 1, y: 1}
        m_Offset: {x: 0, y: 0}
    - unity_Lightmaps:
        m_Texture: {fileID: 0}
        m_Scale: {x: 1, y: 1}
        m_Offset: {x: 0, y: 0}
    - unity_LightmapsInd:
        m_Texture: {fileID: 0}
        m_Scale: {x: 1, y: 1}
        m_Offset: {x: 0, y: 0}
    - unity_ShadowMasks:
        m_Texture: {fileID: 0}
        m_Scale: {x: 1, y: 1}
        m_Offset: {x: 0, y: 0}
    m_Ints: []
    m_Floats:
    - _CoverageAmount: 1
    - _CoverageTiling: 8
    - _Detailstrength: 0.28
    - _Float4: 0.13
    - _Globaltiling: 0.163
    - _MaskClipValue: 0.5
    - _QueueControl: 0
    - _QueueOffset: 0
    - _Roughness: 0.276
    - _SnowCover: 1
    - _SnowTiling: 7
    - __dirty: 0
    m_Colors:
    - _GlobalColor: {r: 1, g: 1, b: 1, a: 1}
    - _ObjectColor: {r: 0.86764705, g: 0.86764705, b: 0.86764705, a: 1}
  m_BuildTextureStacks: []
