%YAML 1.1
%TAG !u! tag:unity3d.com,2011:
--- !u!114 &11400000
MonoBehaviour:
  m_ObjectHideFlags: 0
  m_CorrespondingSourceObject: {fileID: 0}
  m_PrefabInstance: {fileID: 0}
  m_PrefabAsset: {fileID: 0}
  m_GameObject: {fileID: 0}
  m_Enabled: 1
  m_EditorHideFlags: 0
  m_Script: {fileID: 11500000, guid: be70084b7a6834842be46a86736538c3, type: 3}
  m_Name: AttackScytheHeavy
  m_EditorClassIdentifier: 
  AttackAnimationName: N/A
  AttackDamage: 50
  AttackCooldown: 0
  AttackPenetration: 0
  estados: 
