%YAML 1.1
%TAG !u! tag:unity3d.com,2011:
--- !u!114 &11400000
MonoBehaviour:
  m_ObjectHideFlags: 0
  m_CorrespondingSourceObject: {fileID: 0}
  m_PrefabInstance: {fileID: 0}
  m_PrefabAsset: {fileID: 0}
  m_GameObject: {fileID: 0}
  m_Enabled: 1
  m_EditorHideFlags: 0
  m_Script: {fileID: 11500000, guid: 32dd720344c0ff743add595d2b34de9f, type: 3}
  m_Name: Boss2BehaviourStats
  m_EditorClassIdentifier: 
  health: 300
  chasingSpeed: 5
  patrolingSpeed: 2
  timeBetweenAttacks: 1.5
  restingDetectDistance: 20
  patrolingDetectDistance: 35
  chasingMaxDistance: 40
  attackDistance: 1
  arrivedAtDestinationDistance: 2
