%YAML 1.1
%TAG !u! tag:unity3d.com,2011:
--- !u!114 &11400000
MonoBehaviour:
  m_ObjectHideFlags: 0
  m_CorrespondingSourceObject: {fileID: 0}
  m_PrefabInstance: {fileID: 0}
  m_PrefabAsset: {fileID: 0}
  m_GameObject: {fileID: 0}
  m_Enabled: 1
  m_EditorHideFlags: 0
  m_Script: {fileID: 11500000, guid: 32dd720344c0ff743add595d2b34de9f, type: 3}
  m_Name: MetalonBehaviourStats
  m_EditorClassIdentifier: 
  health: 140
  chasingSpeed: 7
  patrolingSpeed: 2
  restingDetectDistance: 15
  patrolingDetectDistance: 30
  chasingMaxDistance: 40
  attackDistance: 1
  rangeAttackDistance: 0
  arrivedAtDestinationDistance: 2
  estadosBase: 01000000020000000000000003000000
