%YAML 1.1
%TAG !u! tag:unity3d.com,2011:
--- !u!114 &-7653547913374176292
MonoBehaviour:
  m_ObjectHideFlags: 11
  m_CorrespondingSourceObject: {fileID: 0}
  m_PrefabInstance: {fileID: 0}
  m_PrefabAsset: {fileID: 0}
  m_GameObject: {fileID: 0}
  m_Enabled: 1
  m_EditorHideFlags: 0
  m_Script: {fileID: 11500000, guid: d0353a89b1f911e48b9e16bdc9f2e058, type: 3}
  m_Name: 
  m_EditorClassIdentifier: 
  version: 5
--- !u!21 &2100000
Material:
  serializedVersion: 8
  m_ObjectHideFlags: 0
  m_CorrespondingSourceObject: {fileID: 0}
  m_PrefabInstance: {fileID: 0}
  m_PrefabAsset: {fileID: 0}
  m_Name: FAE_Willow_B_Billboard
  m_Shader: {fileID: -6465566751694194690, guid: 7e07cc6c21cf51b4387f5678a0a21398,
    type: 3}
  m_ValidKeywords: []
  m_InvalidKeywords:
  - EFFECT_HUE_VARIATION
  - GEOM_TYPE_LEAF
  - _USELIGHTCOLOR_ON
  m_LightmapFlags: 0
  m_EnableInstancingVariants: 1
  m_DoubleSidedGI: 0
  m_CustomRenderQueue: -1
  stringTagMap: {}
  disabledShaderPasses: []
  m_SavedProperties:
    serializedVersion: 3
    m_TexEnvs:
    - _Alpha:
        m_Texture: {fileID: 0}
        m_Scale: {x: 1, y: 1}
        m_Offset: {x: 0, y: 0}
    - _Atlas:
        m_Texture: {fileID: 2800000, guid: 83a9e3928c4f599499bcfd78ff7a498a, type: 3}
        m_Scale: {x: 1, y: 1}
        m_Offset: {x: 0, y: 0}
    - _BumpMap:
        m_Texture: {fileID: 0}
        m_Scale: {x: 1, y: 1}
        m_Offset: {x: 0, y: 0}
    - _DetailAlbedoMap:
        m_Texture: {fileID: 0}
        m_Scale: {x: 1, y: 1}
        m_Offset: {x: 0, y: 0}
    - _DetailMask:
        m_Texture: {fileID: 0}
        m_Scale: {x: 1, y: 1}
        m_Offset: {x: 0, y: 0}
    - _DetailNormalMap:
        m_Texture: {fileID: 0}
        m_Scale: {x: 1, y: 1}
        m_Offset: {x: 0, y: 0}
    - _DetailTex:
        m_Texture: {fileID: 0}
        m_Scale: {x: 1, y: 1}
        m_Offset: {x: 0, y: 0}
    - _DummyTex:
        m_Texture: {fileID: 0}
        m_Scale: {x: 1, y: 1}
        m_Offset: {x: 0, y: 0}
    - _EmissionMap:
        m_Texture: {fileID: 0}
        m_Scale: {x: 1, y: 1}
        m_Offset: {x: 0, y: 0}
    - _GlossMap:
        m_Texture: {fileID: 0}
        m_Scale: {x: 1, y: 1}
        m_Offset: {x: 0, y: 0}
    - _MainTex:
        m_Texture: {fileID: 751134319, guid: 520815e513b5368499c87f5ecd748eb8, type: 3}
        m_Scale: {x: 1, y: 1}
        m_Offset: {x: 0, y: 0}
    - _MetallicGlossMap:
        m_Texture: {fileID: 0}
        m_Scale: {x: 1, y: 1}
        m_Offset: {x: 0, y: 0}
    - _Noisemap:
        m_Texture: {fileID: 1167038465, guid: b6620978afaf9234f9e6fe1cfa32c8ff, type: 3}
        m_Scale: {x: 1, y: 1}
        m_Offset: {x: 0, y: 0}
    - _Normals:
        m_Texture: {fileID: 2800000, guid: eaf25226d54922a4eb5be56535249702, type: 3}
        m_Scale: {x: 1, y: 1}
        m_Offset: {x: 0, y: 0}
    - _OcclusionMap:
        m_Texture: {fileID: 0}
        m_Scale: {x: 1, y: 1}
        m_Offset: {x: 0, y: 0}
    - _ParallaxMap:
        m_Texture: {fileID: 0}
        m_Scale: {x: 1, y: 1}
        m_Offset: {x: 0, y: 0}
    - _PigmentMap:
        m_Texture: {fileID: 0}
        m_Scale: {x: 1, y: 1}
        m_Offset: {x: 0, y: 0}
    - _ShadowOffset:
        m_Texture: {fileID: 0}
        m_Scale: {x: 1, y: 1}
        m_Offset: {x: 0, y: 0}
    - _Texture:
        m_Texture: {fileID: 0}
        m_Scale: {x: 1, y: 1}
        m_Offset: {x: 0, y: 0}
    - _TextureSample0:
        m_Texture: {fileID: 0}
        m_Scale: {x: 1, y: 1}
        m_Offset: {x: 0, y: 0}
    - _Texturea:
        m_Texture: {fileID: 2800000, guid: 95f916edcc48c584d9207a18d98bb96d, type: 3}
        m_Scale: {x: 1, y: 1}
        m_Offset: {x: 0, y: 0}
    - _TranslucencyMap:
        m_Texture: {fileID: 0}
        m_Scale: {x: 1, y: 1}
        m_Offset: {x: 0, y: 0}
    - _WindVectors:
        m_Texture: {fileID: 0}
        m_Scale: {x: 1, y: 1}
        m_Offset: {x: 0, y: 0}
    - _texcoord:
        m_Texture: {fileID: 0}
        m_Scale: {x: 1, y: 1}
        m_Offset: {x: 0, y: 0}
    - unity_Lightmaps:
        m_Texture: {fileID: 0}
        m_Scale: {x: 1, y: 1}
        m_Offset: {x: 0, y: 0}
    - unity_LightmapsInd:
        m_Texture: {fileID: 0}
        m_Scale: {x: 1, y: 1}
        m_Offset: {x: 0, y: 0}
    - unity_ShadowMasks:
        m_Texture: {fileID: 0}
        m_Scale: {x: 1, y: 1}
        m_Offset: {x: 0, y: 0}
    m_Ints: []
    m_Floats:
    - _AO: 0
    - _Alphacutoff: 0.415
    - _AmbientOcclusion: 0.556
    - _BendingInfluence: 0
    - _BlendSpeed: 1
    - _BumpScale: 1
    - _ColorVariation: 0.422
    - _Colorvariation: 0.266
    - _Cull: 0
    - _Cutoff: 0.5
    - _Debug: 0
    - _DetailNormalMapScale: 1
    - _DstBlend: 0
    - _FlatLighting: 0
    - _GlossMapScale: 1
    - _Glossiness: 0.5
    - _GlossyReflections: 1
    - _GradientBrightness: 0.8
    - _Height: 0
    - _MaskClipValue: 0.5
    - _Metallic: 0
    - _Mode: 1
    - _OcclusionStrength: 1
    - _Parallax: 0.02
    - _PigmentMapSize: 1024
    - _QueueControl: 0
    - _QueueOffset: 0
    - _SSSAmount: 0.3306561
    - _SSSSize: 5.3
    - _ShadowStrength: 1
    - _Shadows: 0
    - _Shininess: 0.1
    - _SmoothShading: 0
    - _Smoothness: 0
    - _SmoothnessTextureChannel: 0
    - _SnowHeight: 0
    - _SpecularHighlights: 1
    - _SquashAmount: 1
    - _SrcBlend: 1
    - _Subsurface: 1
    - _SubsurfaceAmount: 0.017
    - _SubsurfaceSize: 1
    - _TessMax: 25
    - _TessMin: 10
    - _TessPhongStrength: 0.5
    - _TessValue: 4
    - _Tessellation: 0.1
    - _TranslucencyViewDependency: 0.7
    - _UVSec: 0
    - _Uselightcolor: 1
    - _WindAmplitudeMultiplier: 3
    - _WindQuality: 5
    - _WindSpeed: 0.5
    - _WindWeight: 0.448
    - _Windspeed: 0.25
    - _Windweight: 1
    - _ZWrite: 1
    - __dirty: 0
    m_Colors:
    - _Color: {r: 0, g: 1, b: 0, a: 1}
    - _EmissionColor: {r: 0, g: 0, b: 0, a: 1}
    - _HueVariation: {r: 1, g: 0.80689657, b: 0, a: 0.366}
    - _SSSColor: {r: 0.9368154, g: 1, b: 0.3455882, a: 1}
    - _SpecColor: {r: 0, g: 0, b: 0, a: 0}
    - _TranslucencyColor: {r: 0.73, g: 0.85, b: 0.41, a: 1}
    - _Transmisioncolor: {r: 0.862069, g: 1, b: 0, a: 0.259}
    - _TreeInstanceColor: {r: 1, g: 1, b: 1, a: 1}
    - _TreeInstanceScale: {r: 1, g: 1, b: 1, a: 1}
    - _Variationcolor: {r: 1, g: 0.80689657, b: 0, a: 0}
    - _WindDirection: {r: 0.93536794, g: 0, b: 0.35367614, a: 0}
  m_BuildTextureStacks: []
