%YAML 1.1
%TAG !u! tag:unity3d.com,2011:
--- !u!114 &11400000
MonoBehaviour:
  m_ObjectHideFlags: 0
  m_CorrespondingSourceObject: {fileID: 0}
  m_PrefabInstance: {fileID: 0}
  m_PrefabAsset: {fileID: 0}
  m_GameObject: {fileID: 0}
  m_Enabled: 1
  m_EditorHideFlags: 0
  m_Script: {fileID: 11500000, guid: 5892542e4af481f409d1d129b8310bf5, type: 3}
  m_Name: Bear_Pelt
  m_EditorClassIdentifier: 
  DictionaryID: 19
  ItemName: BEAR_PELT
  BuyPrice: 0
  Sellable: 0
  SellPrice: 0
  ItemDescription: 
  Rarity: 0
  SlotIcon: {fileID: 21300000, guid: 34d554a546b7846498f35f6fb02e5310, type: 3}
