%YAML 1.1
%TAG !u! tag:unity3d.com,2011:
--- !u!114 &11400000
MonoBehaviour:
  m_ObjectHideFlags: 0
  m_CorrespondingSourceObject: {fileID: 0}
  m_PrefabInstance: {fileID: 0}
  m_PrefabAsset: {fileID: 0}
  m_GameObject: {fileID: 0}
  m_Enabled: 1
  m_EditorHideFlags: 0
  m_Script: {fileID: 11500000, guid: 5892542e4af481f409d1d129b8310bf5, type: 3}
  m_Name: Lotus_Flower
  m_EditorClassIdentifier: 
  DictionaryID: 20
  ItemName: LOTUS_FLOWER
  BuyPrice: 0
  Sellable: 0
  SellPrice: 0
  ItemDescription: 
  Rarity: 0
  SlotIcon: {fileID: 21300000, guid: 2a633165845279843904225f36f750ea, type: 3}
