%YAML 1.1
%TAG !u! tag:unity3d.com,2011:
--- !u!114 &11400000
MonoBehaviour:
  m_ObjectHideFlags: 0
  m_CorrespondingSourceObject: {fileID: 0}
  m_PrefabInstance: {fileID: 0}
  m_PrefabAsset: {fileID: 0}
  m_GameObject: {fileID: 0}
  m_Enabled: 1
  m_EditorHideFlags: 0
  m_Script: {fileID: 11500000, guid: 8cefe7d1df63f4842bfeee90b3485337, type: 3}
  m_Name: Axe
  m_EditorClassIdentifier: 
  DictionaryID: 24
  ItemName: AXE
  BuyPrice: 30
  Sellable: 1
  SellPrice: 50
  ItemDescription: "Un hacha pesada y poderosa que corta a trav\xE9s de la armadura
    y los huesos de tus enemigos. Su dise\xF1o robusto y agresivo evoca el temor
    en el coraz\xF3n de tus oponentes."
  Rarity: 1
  SlotIcon: {fileID: 21300000, guid: e5ec632048bd64e4ca90a00623c12ada, type: 3}
  equipmentType: 4
  level: 1
  durability: 100
  dmgNormalAttack: 33
  dmgHeavyAttack: 1
  normalAttackStaminaCost: 10
  heavyAttackStaminaCost: 60
  normalAttackTime: 1
  heavyAttackTime: 1.5
  normalAttackStun: 1
  heavyAttackStun: 2
  criticalHitChance: 0
  weaponType: 3
  estadosBase: 
