%YAML 1.1
%TAG !u! tag:unity3d.com,2011:
--- !u!21 &2100000
Material:
  serializedVersion: 8
  m_ObjectHideFlags: 0
  m_CorrespondingSourceObject: {fileID: 0}
  m_PrefabInstance: {fileID: 0}
  m_PrefabAsset: {fileID: 0}
  m_Name: FAE_SpruceBranch
  m_Shader: {fileID: -6465566751694194690, guid: 85827a98514358f438446da0fc64b0f0,
    type: 3}
  m_ValidKeywords: []
  m_InvalidKeywords:
  - EFFECT_HUE_VARIATION
  - GEOM_TYPE_LEAF
  - _ALPHATEST_ON
  m_LightmapFlags: 0
  m_EnableInstancingVariants: 1
  m_DoubleSidedGI: 0
  m_CustomRenderQueue: -1
  stringTagMap: {}
  disabledShaderPasses: []
  m_SavedProperties:
    serializedVersion: 3
    m_TexEnvs:
    - _Alpha:
        m_Texture: {fileID: 0}
        m_Scale: {x: 1, y: 1}
        m_Offset: {x: 0, y: 0}
    - _BumpMap:
        m_Texture: {fileID: 0}
        m_Scale: {x: 1, y: 1}
        m_Offset: {x: 0, y: 0}
    - _DetailAlbedoMap:
        m_Texture: {fileID: 0}
        m_Scale: {x: 1, y: 1}
        m_Offset: {x: 0, y: 0}
    - _DetailMask:
        m_Texture: {fileID: 0}
        m_Scale: {x: 1, y: 1}
        m_Offset: {x: 0, y: 0}
    - _DetailNormalMap:
        m_Texture: {fileID: 0}
        m_Scale: {x: 1, y: 1}
        m_Offset: {x: 0, y: 0}
    - _DetailTex:
        m_Texture: {fileID: 0}
        m_Scale: {x: 1, y: 1}
        m_Offset: {x: 0, y: 0}
    - _Diffuse:
        m_Texture: {fileID: 0}
        m_Scale: {x: 1, y: 1}
        m_Offset: {x: 0, y: 0}
    - _DummyTex:
        m_Texture: {fileID: 0}
        m_Scale: {x: 1, y: 1}
        m_Offset: {x: 0, y: 0}
    - _EmissionMap:
        m_Texture: {fileID: 0}
        m_Scale: {x: 1, y: 1}
        m_Offset: {x: 0, y: 0}
    - _MainTex:
        m_Texture: {fileID: 2800000, guid: ae87afc18db01154a9c5a13a54f483d4, type: 3}
        m_Scale: {x: 1, y: 1}
        m_Offset: {x: 0, y: 0}
    - _MetallicGlossMap:
        m_Texture: {fileID: 0}
        m_Scale: {x: 1, y: 1}
        m_Offset: {x: 0, y: 0}
    - _Noisemap:
        m_Texture: {fileID: 1167038465, guid: b6620978afaf9234f9e6fe1cfa32c8ff, type: 3}
        m_Scale: {x: 1, y: 1}
        m_Offset: {x: 0, y: 0}
    - _Normals:
        m_Texture: {fileID: 626419401, guid: a21334fc6629647409c02c54bd550550, type: 3}
        m_Scale: {x: 1, y: 1}
        m_Offset: {x: 0, y: 0}
    - _OcclusionMap:
        m_Texture: {fileID: 0}
        m_Scale: {x: 1, y: 1}
        m_Offset: {x: 0, y: 0}
    - _ParallaxMap:
        m_Texture: {fileID: 0}
        m_Scale: {x: 1, y: 1}
        m_Offset: {x: 0, y: 0}
    - _Texture:
        m_Texture: {fileID: 0}
        m_Scale: {x: 1, y: 1}
        m_Offset: {x: 0, y: 0}
    - _Texture0:
        m_Texture: {fileID: 0}
        m_Scale: {x: 1, y: 1}
        m_Offset: {x: 0, y: 0}
    - _TextureSample0:
        m_Texture: {fileID: 1834649333, guid: 520815e513b5368499c87f5ecd748eb8, type: 3}
        m_Scale: {x: 1, y: 1}
        m_Offset: {x: 0, y: 0}
    - _WindVectors:
        m_Texture: {fileID: 0}
        m_Scale: {x: 1, y: 1}
        m_Offset: {x: 0, y: 0}
    - _node_1116:
        m_Texture: {fileID: 2800000, guid: d455a00273d9dae41ab313987bf5b6f9, type: 3}
        m_Scale: {x: 1, y: 1}
        m_Offset: {x: 0, y: 0}
    - _node_2171:
        m_Texture: {fileID: 0}
        m_Scale: {x: 1, y: 1}
        m_Offset: {x: 0, y: 0}
    - _texcoord:
        m_Texture: {fileID: 0}
        m_Scale: {x: 1, y: 1}
        m_Offset: {x: 0, y: 0}
    - _texcoord2:
        m_Texture: {fileID: 0}
        m_Scale: {x: 1, y: 1}
        m_Offset: {x: 0, y: 0}
    - _texcoord4:
        m_Texture: {fileID: 0}
        m_Scale: {x: 1, y: 1}
        m_Offset: {x: 0, y: 0}
    - unity_Lightmaps:
        m_Texture: {fileID: 0}
        m_Scale: {x: 1, y: 1}
        m_Offset: {x: 0, y: 0}
    - unity_LightmapsInd:
        m_Texture: {fileID: 0}
        m_Scale: {x: 1, y: 1}
        m_Offset: {x: 0, y: 0}
    - unity_ShadowMasks:
        m_Texture: {fileID: 0}
        m_Scale: {x: 1, y: 1}
        m_Offset: {x: 0, y: 0}
    m_Ints: []
    m_Floats:
    - _AO: 1
    - _Alphacutoff: 0.594
    - _AmbientOcclusion: 0.475
    - _BumpScale: 1
    - _CheckerOpacity: 0
    - _ColorVarHeu: 0
    - _ColorVariation: 0
    - _Cull: 0
    - _Cutoff: 0.5
    - _Debug: 0
    - _DetailNormalMapScale: 1
    - _Dist: 0
    - _DstBlend: 0
    - _FlatLighting: 0
    - _Float8: 0.1
    - _Gloss: 0.5
    - _GlossMapScale: 1
    - _Glossiness: 0
    - _GlossyReflections: 1
    - _GradientBrightness: 1
    - _MaskClipValue: 0.5
    - _MaxWindStrength: 0.5
    - _Metallic: 0
    - _Mode: 1
    - _OcclusionStrength: 1
    - _Parallax: 0.02
    - _QueueControl: -1
    - _QueueOffset: 0
    - _Shadows: 1
    - _Shininess: 0.1
    - _SmoothShading: 0
    - _Smoothness: 0
    - _SmoothnessTextureChannel: 0
    - _Snow: 0.988
    - _SnowHeight: 0.083
    - _SpecularHighlights: 1
    - _SrcBlend: 1
    - _Subsurface: 0
    - _SubsurfaceAmount: 0.161
    - _SubsurfaceSize: 10
    - _TessMax: 25
    - _TessMin: 10
    - _TessPhongStrength: 0.5
    - _TessValue: 20.3
    - _Tessellation: 13.25
    - _Tiling: 1.56
    - _TransAmbient: 0.2
    - _TransDirect: 1
    - _TransNormalDistortion: 0.1
    - _TransScattering: 2
    - _TransShadow: 0.9
    - _Translucency: 1
    - _TrunkWindWeight: 2
    - _UVSec: 0
    - _UseLegacyVertexColors: 0
    - _UseSpeedTreeWind: 0
    - _WindAmplitudeMultiplier: 10
    - _WindQuality: 0
    - _WindSpeed: 0.5
    - _WindWeight: 1
    - _ZWrite: 1
    - __dirty: 0
    - _node_3730: 0
    m_Colors:
    - _Color: {r: 1, g: 1, b: 1, a: 1}
    - _Color1: {r: 0, g: 0, b: 0, a: 0}
    - _EmissionColor: {r: 0, g: 0, b: 0, a: 1}
    - _HueVariation: {r: 0, g: 1, b: 0.8344829, a: 0.209}
    - _SpecColor: {r: 0, g: 0, b: 0, a: 0}
    - _Transmisioncolor: {r: 1, g: 1, b: 1, a: 0.122}
    - _TransmissionColor: {r: 0.2827586, g: 1, b: 0, a: 0.191}
    - _VariationColor: {r: 1, g: 0.5, b: 0, a: 0.297}
    - _Variationcolor: {r: 1, g: 0.8896551, b: 0, a: 0}
    - _WindDirection: {r: 0.93536794, g: 0, b: 0.35367614, a: 0}
  m_BuildTextureStacks: []
--- !u!114 &5829922795124128540
MonoBehaviour:
  m_ObjectHideFlags: 11
  m_CorrespondingSourceObject: {fileID: 0}
  m_PrefabInstance: {fileID: 0}
  m_PrefabAsset: {fileID: 0}
  m_GameObject: {fileID: 0}
  m_Enabled: 1
  m_EditorHideFlags: 0
  m_Script: {fileID: 11500000, guid: d0353a89b1f911e48b9e16bdc9f2e058, type: 3}
  m_Name: 
  m_EditorClassIdentifier: 
  version: 5
