%YAML 1.1
%TAG !u! tag:unity3d.com,2011:
--- !u!114 &-4494107366538248122
MonoBehaviour:
  m_ObjectHideFlags: 11
  m_CorrespondingSourceObject: {fileID: 0}
  m_PrefabInstance: {fileID: 0}
  m_PrefabAsset: {fileID: 0}
  m_GameObject: {fileID: 0}
  m_Enabled: 1
  m_EditorHideFlags: 0
  m_Script: {fileID: 11500000, guid: d0353a89b1f911e48b9e16bdc9f2e058, type: 3}
  m_Name: 
  m_EditorClassIdentifier: 
  version: 5
--- !u!21 &2100000
Material:
  serializedVersion: 8
  m_ObjectHideFlags: 0
  m_CorrespondingSourceObject: {fileID: 0}
  m_PrefabInstance: {fileID: 0}
  m_PrefabAsset: {fileID: 0}
  m_Name: Trail09_MasterAdd
  m_Shader: {fileID: 4800000, guid: 17882f89ffea94f479bfcc52855cb542, type: 3}
  m_ValidKeywords: []
  m_InvalidKeywords:
  - _DISTORTMAINTEXTURE_ON
  - _EMISSION
  m_LightmapFlags: 1
  m_EnableInstancingVariants: 0
  m_DoubleSidedGI: 0
  m_CustomRenderQueue: -1
  stringTagMap: {}
  disabledShaderPasses: []
  m_SavedProperties:
    serializedVersion: 3
    m_TexEnvs:
    - Texture2D_7FCC054E:
        m_Texture: {fileID: 2800000, guid: f481ef2f3790078478b14921688aeb33, type: 3}
        m_Scale: {x: 1, y: 1}
        m_Offset: {x: 0, y: 0}
    - Texture2D_B24C83B0:
        m_Texture: {fileID: 2800000, guid: 2f67131bd8bcd5540badff1422fbbf7b, type: 3}
        m_Scale: {x: 1, y: 1}
        m_Offset: {x: 0, y: 0}
    - Texture2D_E43982E:
        m_Texture: {fileID: 0}
        m_Scale: {x: 1, y: 1}
        m_Offset: {x: 0, y: 0}
    - Texture2D_E5130C32:
        m_Texture: {fileID: 2800000, guid: ab047cc8ad6e0014c929db1419b0d999, type: 3}
        m_Scale: {x: 1, y: 1}
        m_Offset: {x: 0, y: 0}
    - _BumpMap:
        m_Texture: {fileID: 0}
        m_Scale: {x: 1, y: 1}
        m_Offset: {x: 0, y: 0}
    - _ColorRamp:
        m_Texture: {fileID: 0}
        m_Scale: {x: 1, y: 1}
        m_Offset: {x: 0, y: 0}
    - _DetailAlbedoMap:
        m_Texture: {fileID: 0}
        m_Scale: {x: 1, y: 1}
        m_Offset: {x: 0, y: 0}
    - _DetailMask:
        m_Texture: {fileID: 0}
        m_Scale: {x: 1, y: 1}
        m_Offset: {x: 0, y: 0}
    - _DetailNormalMap:
        m_Texture: {fileID: 0}
        m_Scale: {x: 1, y: 1}
        m_Offset: {x: 0, y: 0}
    - _Distortion:
        m_Texture: {fileID: 2800000, guid: 2f67131bd8bcd5540badff1422fbbf7b, type: 3}
        m_Scale: {x: 1, y: 1}
        m_Offset: {x: 0, y: 0}
    - _EmissionMap:
        m_Texture: {fileID: 0}
        m_Scale: {x: 1, y: 1}
        m_Offset: {x: 0, y: 0}
    - _Gradient:
        m_Texture: {fileID: 2800000, guid: 28c7aad1372ff114b90d330f8a2dd938, type: 3}
        m_Scale: {x: 1, y: 1}
        m_Offset: {x: 0, y: 0}
    - _MainTex:
        m_Texture: {fileID: 2800000, guid: 1d853f1f75c64464fa710478fc99e06c, type: 3}
        m_Scale: {x: -1, y: 1}
        m_Offset: {x: 0, y: 0}
    - _MainTexutre:
        m_Texture: {fileID: 2800000, guid: 9d7b5514b0dca6a41b78e3fa59346846, type: 3}
        m_Scale: {x: 2, y: 1}
        m_Offset: {x: 0, y: 0}
    - _Mask:
        m_Texture: {fileID: 2800000, guid: 03e4ee8d0b5f45045bb12e2930ed4058, type: 3}
        m_Scale: {x: 1, y: 1}
        m_Offset: {x: 0, y: 0}
    - _MetallicGlossMap:
        m_Texture: {fileID: 0}
        m_Scale: {x: 1, y: 1}
        m_Offset: {x: 0, y: 0}
    - _OcclusionMap:
        m_Texture: {fileID: 0}
        m_Scale: {x: 1, y: 1}
        m_Offset: {x: 0, y: 0}
    - _ParallaxMap:
        m_Texture: {fileID: 0}
        m_Scale: {x: 1, y: 1}
        m_Offset: {x: 0, y: 0}
    - unity_Lightmaps:
        m_Texture: {fileID: 0}
        m_Scale: {x: 1, y: 1}
        m_Offset: {x: 0, y: 0}
    - unity_LightmapsInd:
        m_Texture: {fileID: 0}
        m_Scale: {x: 1, y: 1}
        m_Offset: {x: 0, y: 0}
    - unity_ShadowMasks:
        m_Texture: {fileID: 0}
        m_Scale: {x: 1, y: 1}
        m_Offset: {x: 0, y: 0}
    m_Ints: []
    m_Floats:
    - Vector1_7F40B1F8: 1
    - Vector1_B6B6FAE: 20
    - Vector1_C1728026: 0
    - Vector1_D1034171: 0
    - _BumpScale: 1
    - _ColorMultiplier: 2.5
    - _Cutoff: 0.5
    - _DetailNormalMapScale: 1
    - _DistortMainTexture: 1
    - _DistortionUSpeed: -1
    - _DistortionVSpeed: 0.1
    - _DoubleSided: 1
    - _DstBlend: 0
    - _EdgeSoftness: 0
    - _FaceSignClamp: 1
    - _GlossMapScale: 1
    - _Glossiness: 0.5
    - _GlossyReflections: 1
    - _GradientPower: 1.8
    - _GradientUSpeed: -1
    - _GradientUSpeed_copy: -0.2
    - _GradientVSpeed: 0.2
    - _GradientVSpeed_copy: 0
    - _InvFade: 1
    - _MainTextureUSpeed: -1.5
    - _MainTextureVSpeed: 0
    - _Metallic: 0
    - _Mode: 0
    - _NoiseAmount: 0.113
    - _OcclusionStrength: 1
    - _Parallax: 0.02
    - _QueueControl: 0
    - _QueueOffset: 0
    - _SmoothnessTextureChannel: 0
    - _Softness: 0
    - _SpecularHighlights: 1
    - _SrcBlend: 1
    - _UVSec: 0
    - _ZWrite: 1
    m_Colors:
    - Color_8D750926: {r: 0, g: 0, b: 0, a: 1}
    - Color_DB555ADA: {r: 2.1185474, g: 2.1185474, b: 2.1185474, a: 1}
    - Vector2_781FB8A4: {r: 0.5, g: 0.5, b: 0, a: 0}
    - Vector2_892CE00: {r: 1, g: 1, b: 0, a: 0}
    - Vector2_8E0A3991: {r: -0.8, g: 0.1, b: 0, a: 0}
    - Vector2_C3A961A0: {r: -1.2, g: 0, b: 0, a: 0}
    - Vector2_D6AA7B7D: {r: 1, g: 1, b: 0, a: 0}
    - Vector2_E10066FE: {r: 0, g: 0, b: 0, a: 0}
    - _Color: {r: 1, g: 1, b: 1, a: 1}
    - _EmissionColor: {r: 0, g: 0, b: 0, a: 1}
    - _TintColor: {r: 1, g: 1, b: 1, a: 1}
  m_BuildTextureStacks: []
