%YAML 1.1
%TAG !u! tag:unity3d.com,2011:
--- !u!114 &11400000
MonoBehaviour:
  m_ObjectHideFlags: 0
  m_CorrespondingSourceObject: {fileID: 0}
  m_PrefabInstance: {fileID: 0}
  m_PrefabAsset: {fileID: 0}
  m_GameObject: {fileID: 0}
  m_Enabled: 1
  m_EditorHideFlags: 0
  m_Script: {fileID: 11500000, guid: e5dfefdcca5de574090d831305dd69b0, type: 3}
  m_Name: SmallHPPotion
  m_EditorClassIdentifier: 
  DictionaryID: 18
  ItemName: SMALL_HP_POTION
  BuyPrice: 6
  Sellable: 1
  SellPrice: 3
  ItemDescription: A samll HP Potion
  Rarity: 0
  SlotIcon: {fileID: 21300000, guid: 3282c855f09087e48a856f510ee4ab1e, type: 3}
  cooldownSeconds: 4
  MethodToRunOnUse:
    m_PersistentCalls:
      m_Calls:
      - m_Target: {fileID: 5346143671805362592, guid: 84659e4cd1c72554492154545ea18397, type: 3}
        m_TargetAssemblyTypeName: ItemEffects, Assembly-CSharp
        m_MethodName: RestoreSmallFixedHP
        m_Mode: 1
        m_Arguments:
          m_ObjectArgument: {fileID: 0}
          m_ObjectArgumentAssemblyTypeName: UnityEngine.Object, UnityEngine
          m_IntArgument: 0
          m_FloatArgument: 0
          m_StringArgument: 
          m_BoolArgument: 0
        m_CallState: 2
