%YAML 1.1
%TAG !u! tag:unity3d.com,2011:
--- !u!114 &11400000
MonoBehaviour:
  m_ObjectHideFlags: 0
  m_CorrespondingSourceObject: {fileID: 0}
  m_PrefabInstance: {fileID: 0}
  m_PrefabAsset: {fileID: 0}
  m_GameObject: {fileID: 0}
  m_Enabled: 1
  m_EditorHideFlags: 0
  m_Script: {fileID: 11500000, guid: f9e55f15a96097a41a587cbb8b756a1a, type: 3}
  m_Name: EnemiesDetection
  m_EditorClassIdentifier: 
  skillName: Enemies Detection
  skillDescription: "Potencia los sentidos m\xE1s b\xE1sicos haciendo que se puedan
    detectar con precisi\xF3n todas las entidades hostiles en un radio amplio"
  sprite: {fileID: -1237125602, guid: 460417892f43e2844b1e68dc220318f3, type: 3}
  spriteColor: {r: 1, g: 1, b: 1, a: 1}
