%YAML 1.1
%TAG !u! tag:unity3d.com,2011:
--- !u!21 &2100000
Material:
  serializedVersion: 8
  m_ObjectHideFlags: 0
  m_CorrespondingSourceObject: {fileID: 0}
  m_PrefabInstance: {fileID: 0}
  m_PrefabAsset: {fileID: 0}
  m_Name: EXAMPLE HAND URP
  m_Shader: {fileID: 4800000, guid: c185d4eced4c868458afd1eb20f9ff5d, type: 3}
  m_ValidKeywords: []
  m_InvalidKeywords: []
  m_LightmapFlags: 4
  m_EnableInstancingVariants: 1
  m_DoubleSidedGI: 0
  m_CustomRenderQueue: 3000
  stringTagMap: {}
  disabledShaderPasses: []
  m_SavedProperties:
    serializedVersion: 3
    m_TexEnvs:
    - _BumpMap:
        m_Texture: {fileID: 0}
        m_Scale: {x: 1, y: 1}
        m_Offset: {x: 0, y: 0}
    - _DetailAlbedoMap:
        m_Texture: {fileID: 0}
        m_Scale: {x: 1, y: 1}
        m_Offset: {x: 0, y: 0}
    - _DetailMask:
        m_Texture: {fileID: 0}
        m_Scale: {x: 1, y: 1}
        m_Offset: {x: 0, y: 0}
    - _DetailNormalMap:
        m_Texture: {fileID: 0}
        m_Scale: {x: 1, y: 1}
        m_Offset: {x: 0, y: 0}
    - _EmissionMap:
        m_Texture: {fileID: 0}
        m_Scale: {x: 1, y: 1}
        m_Offset: {x: 0, y: 0}
    - _MainTex:
        m_Texture: {fileID: 0}
        m_Scale: {x: 1, y: 1}
        m_Offset: {x: 0, y: 0}
    - _MainTexture:
        m_Texture: {fileID: 2800000, guid: dea2521e7a5dff54d8c20ee02b21292d, type: 3}
        m_Scale: {x: 1, y: 1}
        m_Offset: {x: 0, y: 0}
    - _Mask:
        m_Texture: {fileID: 2800000, guid: 8a787b7847f0dce42b2077e87f0dff89, type: 3}
        m_Scale: {x: 1, y: 1}
        m_Offset: {x: 0, y: 0}
    - _MetallicGlossMap:
        m_Texture: {fileID: 0}
        m_Scale: {x: 1, y: 1}
        m_Offset: {x: 0, y: 0}
    - _OcclusionMap:
        m_Texture: {fileID: 0}
        m_Scale: {x: 1, y: 1}
        m_Offset: {x: 0, y: 0}
    - _Occulusion:
        m_Texture: {fileID: 2800000, guid: 1457c1a318a7ad84e8c9f048cbe77be1, type: 3}
        m_Scale: {x: 1, y: 1}
        m_Offset: {x: 0, y: 0}
    - _ParallaxMap:
        m_Texture: {fileID: 0}
        m_Scale: {x: 1, y: 1}
        m_Offset: {x: 0, y: 0}
    - _TextureSample0:
        m_Texture: {fileID: 2800000, guid: 1457c1a318a7ad84e8c9f048cbe77be1, type: 3}
        m_Scale: {x: 1, y: 1}
        m_Offset: {x: 0, y: 0}
    - _texcoord:
        m_Texture: {fileID: 0}
        m_Scale: {x: 1, y: 1}
        m_Offset: {x: 0, y: 0}
    m_Ints: []
    m_Floats:
    - _ASEOutlineWidth: 0.01
    - _AlphaCutoff: 0.5
    - _BumpScale: 1
    - _Cutoff: 0.1
    - _DetailNormalMapScale: 1
    - _DstBlend: 0
    - _EndTransparency: 1
    - _Float0: 1
    - _Float1: -0.43
    - _Float2: 2.33
    - _Float3: 1
    - _FresnelBias: 0
    - _FresnelPower: 0.35
    - _FresnelScale: 1
    - _GlossMapScale: 1
    - _Glossiness: 0.5
    - _GlossyReflections: 1
    - _Metallic: 0
    - _Mode: 0
    - _OcclusionStrength: 1
    - _OcculusionPower: 0.338
    - _Opacity: 1
    - _OutlineWidth: 0.05
    - _Parallax: 0.02
    - _Point1: 0
    - _Point2: 1
    - _Point3: 2
    - _SmoothnessTextureChannel: 0
    - _SpecularHighlights: 1
    - _SrcBlend: 1
    - _TransparentEndPoint: 0.96
    - _TransparentStartPoint: 1
    - _UVSec: 0
    - _WristOpacity: 1
    - _XRayBias: 0
    - _XRayBias1: 0
    - _XRayIntensity: 1.5
    - _XRayIntensity1: 1
    - _XRayPower: 1
    - _XRayPower1: 1.3
    - _XRayScale: 1.5
    - _XRayScale1: 1.5
    - _ZWrite: 1
    - __dirty: 0
    m_Colors:
    - _ASEOutlineColor: {r: 0.8867924, g: 0.8867924, b: 0.8867924, a: 0.84313726}
    - _Color: {r: 1, g: 1, b: 1, a: 1}
    - _Color0: {r: 0, g: 0.5877156, b: 1, a: 0}
    - _EmissionColor: {r: 0, g: 0, b: 0, a: 1}
    - _FresnelColor: {r: 0.25342643, g: 0.6856558, b: 0.8018868, a: 1}
    - _MainColor: {r: 0.39383334, g: 0.7169812, b: 0.34158066, a: 1}
    - _OutlineColor: {r: 0, g: 0, b: 0, a: 0}
    - _XRayColor: {r: 1, g: 0, b: 0, a: 0}
    - _XRayColor1: {r: 1, g: 0, b: 0, a: 1}
  m_BuildTextureStacks: []
